{
  "name": "PurchaseBudgetQuantity_SPLY_PB",
  "description": "Budgeted Quantity Purchase. NAV: Purchase > Analysis & Reporting > Purchase Budget > Edit Budget > Budgeted Quantity",
  "expression": [
    "VAR SPLY0 =",
    "    FILTER (",
    "        ALL ( 'Date' ),",
    "        'Date'[Date] <= MAX ( 'Date'[TDatePY] )",
    "            && 'Date'[Date] >= MIN ( 'Date'[TDatePY] )",
    "    )",
    "RETURN",
    "    CALCULATE ( [PurchaseBudgetQuantity_PB], SPLY0 )"
  ],
  "formatString": "#,##0",
  "displayFolder": "Σ SPLY",
  "annotations": [
    {
      "name": "TabularEditor_TranslatedNames",
      "value": "{\"de-DE\":\"Einkaufsbudget Menge SPLY\",\"en-US\":\"Budgeted Quantity SPLY\",\"nl-NL\":\"Budget aantal SPLY\"}"
    },
    {
      "name": "TabularEditor_TranslatedDescriptions",
      "value": "{\"de-DE\":\"Abteilungen/Einkauf/Berichte und Analysen/Einkaufsbudgets/Budget bearbeiten\",\"en-US\":\"Budgeted Quantity Purchase. NAV: Purchase > Analysis & Reporting > Purchase Budget > Edit Budget > Budgeted Quantity\",\"nl-NL\":\"Gebudgetteerde aantallen inkoop. NAV: Inkoop > Analyse en rapportage > Inkoopbudget > Budget Bewerken > Aantal (budget)\"}"
    },
    {
      "name": "TabularEditor_TranslatedDisplayFolders",
      "value": "{\"de-DE\":\"Σ SPLY\",\"en-US\":\"Σ SPLY\",\"nl-NL\":\"Σ SPLY\"}"
    }
  ]
}