{
  "name": "PurchaseBudgetPurchaseAmount_Variance%_SPLY_PB",
  "description": "Budgeted Cost Amount vs Invoiced Amount Variance / Purchase Amount",
  "expression": [
    "VAR SPLY0 =",
    "    FILTER (",
    "        ALL ( 'Date' ),",
    "        'Date'[Date] <= MAX ( 'Date'[TDatePY] )",
    "            && 'Date'[Date] >= MIN ( 'Date'[TDatePY] )",
    "    )",
    "RETURN",
    "    CALCULATE ( [PurchaseBudgetPurchaseAmount_Variance%_PB], SPLY0 )"
  ],
  "formatString": "#,##0.0 %",
  "displayFolder": "Σ SPLY",
  "annotations": [
    {
      "name": "TabularEditor_TranslatedNames",
      "value": "{\"de-DE\":\"Einkaufsbudget Einkaufsmenge Varianz % SPLY\",\"en-US\":\"Budgeted Cost Amount vs Invoiced Amount Variance % SPLY\",\"nl-NL\":\"Budget kosten tov gefactureerd bedrag verschil % SPLY\"}"
    },
    {
      "name": "TabularEditor_TranslatedDescriptions",
      "value": "{\"de-DE\":\"Abteilungen/Einkauf/Berichte und Analysen/Einkaufsbudgets/Budget bearbeiten\",\"en-US\":\"Budgeted Cost Amount vs Invoiced Amount Variance / Purchase Amount\",\"nl-NL\":\"Budget kosten tov Gefactureerd bedrag Verschil / Inkoopbedrag\"}"
    },
    {
      "name": "TabularEditor_TranslatedDisplayFolders",
      "value": "{\"de-DE\":\"Σ SPLY\",\"en-US\":\"Σ SPLY\",\"nl-NL\":\"Σ SPLY\"}"
    }
  ]
}