{
  "name": "PurchaseBudgetPurchaseQuantity_Variance_YTD_PB",
  "description": "Budgeted Quantity - Received Quantity",
  "expression": [
    "VAR YTD0 =",
    "    FILTER (",
    "        ALL ( 'Date' ),",
    "        'Date'[CYearNo] = MAX ( 'Date'[CYearNo] )",
    "            && 'Date'[DateID] <= MAX ( 'Date'[DateID] )",
    "    )",
    "RETURN",
    "    CALCULATE ( [PurchaseBudgetPurchaseQuantity_Variance_PB], YTD0 )"
  ],
  "formatString": "#,##0",
  "displayFolder": "Σ YTD",
  "annotations": [
    {
      "name": "TabularEditor_TranslatedNames",
      "value": "{\"de-DE\":\"Einkaufsbudget Einkaufsmenge Varianz YTD\",\"en-US\":\"Budgeted Quantity vs Invoiced Quantity Variance YTD\",\"nl-NL\":\"Budget aantal tov gefactureerd aantal verschil YTD\"}"
    },
    {
      "name": "TabularEditor_TranslatedDescriptions",
      "value": "{\"de-DE\":\"Abteilungen/Einkauf/Berichte und Analysen/Einkaufsbudgets/Budget bearbeiten\",\"en-US\":\"Budgeted Quantity - Received Quantity\",\"nl-NL\":\"Gebudgetteerde aantallen - gefactureerde ontvangen aantallen\"}"
    },
    {
      "name": "TabularEditor_TranslatedDisplayFolders",
      "value": "{\"de-DE\":\"Σ YTD\",\"en-US\":\"Σ YTD\",\"nl-NL\":\"Σ YTD\"}"
    }
  ]
}