{
  "name": "ShippedNetWeight_PS",
  "description": "Purchase > Order Processing > Purchase Orders > Quantity received multiplied by Net Weight (Item Basic Data)",
  "expression": "SUM ( 'factPurchaseShipment'[ShippedNetWeight] )",
  "formatString": "#,##0",
  "annotations": [
    {
      "name": "TabularEditor_TranslatedNames",
      "value": "{\"de-DE\":\"Nettogewicht geliefert\",\"en-US\":\"Shipped Net Weight\",\"nl-NL\":\"Ontvangen netto gewicht\"}"
    },
    {
      "name": "TabularEditor_TranslatedDescriptions",
      "value": "{\"de-DE\":\"Abteilungen/Einkauf/Bestellungsabwicklung/Bestellungen\",\"en-US\":\"Purchase > Order Processing > Purchase Orders > Quantity received multiplied by Net Weight (Item Basic Data)\",\"nl-NL\":\"Inkoop > Orderverwerking > Inkooporders > Ontvangen aantal * Netto Gewicht (artikelstam)\"}"
    }
  ]
}