{
  "name": "ShippedAmount_Variance_PS",
  "description": "Purchase > Order Processing > Purchase Orders > Amount received",
  "expression": "[ShippedAmount_YTD_PS] - [ShippedAmount_LYTD_PS]",
  "formatString": "#,##0.00",
  "displayFolder": "Σ LYTD Variance",
  "annotations": [
    {
      "name": "TabularEditor_TranslatedNames",
      "value": "{\"de-DE\":\"Betrag geliefert Varianz\",\"en-US\":\"Amount received Variance\",\"nl-NL\":\"Ontvangen bedrag verschil\"}"
    },
    {
      "name": "TabularEditor_TranslatedDescriptions",
      "value": "{\"de-DE\":\"Abteilungen/Einkauf/Bestellungsabwicklung/Bestellungen\",\"en-US\":\"Purchase > Order Processing > Purchase Orders > Amount received\",\"nl-NL\":\"Inkoop > Orderverwerking > Inkooporders > Ontvangen bedrag \"}"
    },
    {
      "name": "TabularEditor_TranslatedDisplayFolders",
      "value": "{\"de-DE\":\"Σ LYTD Varianz\",\"en-US\":\"Σ LYTD Variance\"}"
    }
  ]
}