{
  "name": "AgeGroup",
  "columns": [
    {
      "name": "AgeGroupID",
      "dataType": "int64",
      "description": "Unique identifier for the Age Group",
      "isHidden": true,
      "sourceColumn": "AgeGroupID",
      "sourceProviderType": "Integer",
      "annotations": [
        {
          "name": "TabularEditor_TranslatedNames",
          "value": "{\"de-DE\":\"AgeGroupID\",\"en-US\":\"AgeGroupID\",\"nl-NL\":\"Agegroupid\"}"
        },
        {
          "name": "TabularEditor_TranslatedDescriptions",
          "value": "{\"de-DE\":\"Kennung für AgeGroup\",\"en-US\":\"Unique identifier for the Age Group\",\"nl-NL\":\"Unieke sleutel voor ouderdomsgroep\"}"
        }
      ]
    },
    {
      "name": "AgeGroupCode",
      "dataType": "string",
      "description": "Age Group Code",
      "isHidden": true,
      "sourceColumn": "AgeGroupCode",
      "sourceProviderType": "WChar",
      "annotations": [
        {
          "name": "TabularEditor_TranslatedNames",
          "value": "{\"de-DE\":\"Altersgruppe Code\",\"en-US\":\"Age Group Code\",\"nl-NL\":\"Ouderdomsgroep code\"}"
        },
        {
          "name": "TabularEditor_TranslatedDescriptions",
          "value": "{\"de-DE\":\"Altersgruppe Code\",\"en-US\":\"Age Group Code\",\"nl-NL\":\"Ouderdomsgroepcode\"}"
        }
      ]
    },
    {
      "name": "AgeGroupDesc",
      "dataType": "string",
      "description": "Age groups to analyse the aging of invoices",
      "sourceColumn": "AgeGroupDesc",
      "sourceProviderType": "WChar",
      "annotations": [
        {
          "name": "TabularEditor_TranslatedNames",
          "value": "{\"de-DE\":\"Altersgruppe Beschreibung\",\"en-US\":\"Age Group\",\"nl-NL\":\"Ouderdomsgroep\"}"
        },
        {
          "name": "TabularEditor_TranslatedDescriptions",
          "value": "{\"de-DE\":\"Altersgruppe Beschreibung\",\"en-US\":\"Age groups to analyse the aging of invoices\",\"nl-NL\":\"Ouderdomsgroep waarmee de ouderdom van facturen geanalyseerd kan worden\"}"
        }
      ]
    },
    {
      "name": "AgeGroupMin",
      "dataType": "int64",
      "description": "Minimum value within the age group",
      "isHidden": true,
      "sourceColumn": "AgeGroupMin",
      "sourceProviderType": "Integer",
      "annotations": [
        {
          "name": "TabularEditor_TranslatedNames",
          "value": "{\"de-DE\":\"Altersgruppe Min\",\"en-US\":\"Age Group Min\",\"nl-NL\":\"Ouderdomsgroep min\"}"
        },
        {
          "name": "TabularEditor_TranslatedDescriptions",
          "value": "{\"de-DE\":\"Höchsten Wert in Der Altersgruppe\",\"en-US\":\"Minimum value within the age group\",\"nl-NL\":\"Minimale ouderdom binnen de ouderdomsgroep\"}"
        }
      ]
    },
    {
      "name": "AgeGroupMax",
      "dataType": "int64",
      "description": "Maximum value within the age group",
      "isHidden": true,
      "sourceColumn": "AgeGroupMax",
      "sourceProviderType": "Integer",
      "annotations": [
        {
          "name": "TabularEditor_TranslatedNames",
          "value": "{\"de-DE\":\"Altersgruppe Max\",\"en-US\":\"Age Group Max\",\"nl-NL\":\"Ouderdomsgroep max\"}"
        },
        {
          "name": "TabularEditor_TranslatedDescriptions",
          "value": "{\"de-DE\":\"Unterste Wert in Der Altersgruppe\",\"en-US\":\"Maximum value within the age group\",\"nl-NL\":\"Maximale ouderdom binnen de ouderdomsgroep\"}"
        }
      ]
    }
  ],
  "partitions": [
    {
      "name": "AgeGroup",
      "dataView": "full",
      "source": {
        "type": "query",
        "query": "SELECT * FROM tabular.AgeGroup",
        "dataSource": "Birds"
      }
    }
  ],
  "annotations": [
    {
      "name": "_TM_ExtProp_QueryDefinition",
      "value": " SELECT [dim].[AgeGroup].* FROM [dim].[AgeGroup] "
    },
    {
      "name": "_TM_ExtProp_DbTableName",
      "value": "AgeGroup"
    },
    {
      "name": "_TM_ExtProp_DbSchemaName",
      "value": "dim"
    },
    {
      "name": "ContentPacks",
      "value": "Standard"
    },
    {
      "name": "TabularEditor_TranslatedNames",
      "value": "{\"de-DE\":\"Altersgruppe\",\"en-US\":\"Age Group\",\"nl-NL\":\"Ouderdomsanalyse\"}"
    },
    {
      "name": "TabularEditor_Relationships",
      "value": "[]"
    }
  ]
}