{
  "name": "InvoicedQuantity_RY_SS",
  "description": "Quantity Invoiced. NAV: Sales > Order Processing > Sales Order Shipping > Lines > Quantity Invoiced",
  "expression": [
    "VAR RY0 =",
    "    FILTER (",
    "        ALL ( 'Date' ),",
    "        'Date'[DateID] <= MAX ( 'Date'[DateID] )",
    "            && 'Date'[Date] > MAX ( 'Date'[TDatePY] )",
    "    )",
    "RETURN",
    "    CALCULATE ( [InvoicedQuantity_SS], RY0 )"
  ],
  "formatString": "#,##0",
  "displayFolder": "Σ RY",
  "annotations": [
    {
      "name": "TabularEditor_TranslatedNames",
      "value": "{\"de-DE\":\"Menge fakturiert RY\",\"en-US\":\"Quantity Invoiced RY\",\"nl-NL\":\"Gefactureerd aantal RY\"}"
    },
    {
      "name": "TabularEditor_TranslatedDescriptions",
      "value": "{\"de-DE\":\"Abteilungen/Verkauf & Marketing/Auftragsabwicklung/Aufträge/Zeilen\",\"en-US\":\"Quantity Invoiced. NAV: Sales > Order Processing > Sales Order Shipping > Lines > Quantity Invoiced\",\"nl-NL\":\"Gefactureerd aantal. NAV: Verkoop > Orderverwerking > Leveringen > Regels > Gefactureerd Aantal\"}"
    },
    {
      "name": "TabularEditor_TranslatedDisplayFolders",
      "value": "{\"de-DE\":\"Σ RY\",\"en-US\":\"Σ RY\",\"nl-NL\":\"Σ RY\"}"
    }
  ]
}