{
  "name": "InvoicedQuantity_LYMTD_SS",
  "description": "Quantity Invoiced. NAV: Sales > Order Processing > Sales Order Shipping > Lines > Quantity Invoiced",
  "expression": [
    "VAR LYMTD =",
    "    FILTER (",
    "        ALL ( 'Date' ),",
    "        'Date'[Date] <= MAX ( 'Date'[TDatePY] )",
    "            && 'Date'[CMonthNo] = MAX ( 'Date'[CMonthNo] )",
    "            && 'Date'[CYearNo]",
    "                = MAX ( 'Date'[CYearNo] ) - 1",
    "    )",
    "RETURN",
    "    CALCULATE ( [InvoicedQuantity_SS], LYMTD )"
  ],
  "formatString": "#,##0",
  "displayFolder": "Σ LYMTD",
  "annotations": [
    {
      "name": "TabularEditor_TranslatedNames",
      "value": "{\"de-DE\":\"Menge fakturiert LYMTD\",\"en-US\":\"Quantity Invoiced LYMTD\",\"nl-NL\":\"Gefactureerd aantal LYMTD\"}"
    },
    {
      "name": "TabularEditor_TranslatedDescriptions",
      "value": "{\"de-DE\":\"Abteilungen/Verkauf & Marketing/Auftragsabwicklung/Aufträge/Zeilen\",\"en-US\":\"Quantity Invoiced. NAV: Sales > Order Processing > Sales Order Shipping > Lines > Quantity Invoiced\",\"nl-NL\":\"Gefactureerd aantal. NAV: Verkoop > Orderverwerking > Leveringen > Regels > Gefactureerd Aantal\"}"
    },
    {
      "name": "TabularEditor_TranslatedDisplayFolders",
      "value": "{\"de-DE\":\"Σ LYMTD\",\"en-US\":\"Σ LYMTD\",\"nl-NL\":\"Σ LYMTD\"}"
    }
  ]
}