{
  "name": "ShippedAmount_SPLY_SS",
  "description": "Amount Shipped. NAV: Sales > Order Processing > Sales Order Shipping > Lines > Line Amount Excl VAT",
  "expression": [
    "VAR SPLY0 =",
    "    FILTER (",
    "        ALL ( 'Date' ),",
    "        'Date'[Date] <= MAX ( 'Date'[TDatePY] )",
    "            && 'Date'[Date] >= MIN ( 'Date'[TDatePY] )",
    "    )",
    "RETURN",
    "    CALCULATE ( [ShippedAmount_SS], SPLY0 )"
  ],
  "formatString": "#,##0.00",
  "displayFolder": "Σ SPLY",
  "annotations": [
    {
      "name": "TabularEditor_TranslatedNames",
      "value": "{\"de-DE\":\"Betrag geliefert SPLY\",\"en-US\":\"Amount Shipped SPLY\",\"nl-NL\":\"Verzonden bedrag SPLY\"}"
    },
    {
      "name": "TabularEditor_TranslatedDescriptions",
      "value": "{\"de-DE\":\"Abteilungen/Verkauf & Marketing/Auftragsabwicklung/Aufträge/Zeilen\",\"en-US\":\"Amount Shipped. NAV: Sales > Order Processing > Sales Order Shipping > Lines > Line Amount Excl VAT\",\"nl-NL\":\"Verzonden Bedrag. NAV: Verkoop > Orderverwerking > Leveringen > Regels > Regelbedrag Excl. BTW\"}"
    },
    {
      "name": "TabularEditor_TranslatedDisplayFolders",
      "value": "{\"de-DE\":\"Σ SPLY\",\"en-US\":\"Σ SPLY\",\"nl-NL\":\"Σ SPLY\"}"
    }
  ]
}