{
  "name": "ShippedNotInvoicedQuantity_SS",
  "description": "Quantity Shipped Not Invoiced. Quantity Shipped - Quantity Invoiced",
  "expression": "SUM ( 'factSalesShipment'[ShippedNotInvoicedQuantity] )",
  "formatString": "#,##0",
  "annotations": [
    {
      "name": "TabularEditor_TranslatedNames",
      "value": "{\"de-DE\":\"Lief. nicht fakt. Menge\",\"en-US\":\"Quantity Shipped Not Invoiced\",\"nl-NL\":\"Verzonden aantal niet gefactureerd\"}"
    },
    {
      "name": "TabularEditor_TranslatedDescriptions",
      "value": "{\"de-DE\":\"Abteilungen/Verkauf & Marketing/Auftragsabwicklung/Aufträge/Zeilen\",\"en-US\":\"Quantity Shipped Not Invoiced. Quantity Shipped - Quantity Invoiced\",\"nl-NL\":\"Verzonden aantal niet gefactureerd. Verzonden Aantal - Gefactureerd aantal\"}"
    }
  ]
}