{
  "name": "ShippedAmount_SPLY_Index_SS ",
  "description": "Amount Shipped. NAV: Sales > Order Processing > Sales Order Shipping > Lines > Line Amount Excl VAT",
  "expression": "DIVIDE ( [ShippedAmount_SS], [ShippedAmount_SPLY_SS] ) * 100",
  "formatString": "#,##0.00",
  "displayFolder": "Σ SPLY Variance",
  "annotations": [
    {
      "name": "TabularEditor_TranslatedNames",
      "value": "{\"de-DE\":\"Betrag geliefert SPLY Index\",\"en-US\":\"Amount Shipped SPLY Index\",\"nl-NL\":\"Verzonden bedrag SPLY Index\"}"
    },
    {
      "name": "TabularEditor_TranslatedDescriptions",
      "value": "{\"de-DE\":\"Abteilungen/Verkauf & Marketing/Auftragsabwicklung/Aufträge/Zeilen\",\"en-US\":\"Amount Shipped. NAV: Sales > Order Processing > Sales Order Shipping > Lines > Line Amount Excl VAT\",\"nl-NL\":\"Verzonden Bedrag. NAV: Verkoop > Orderverwerking > Leveringen > Regels > Regelbedrag Excl. BTW\"}"
    },
    {
      "name": "TabularEditor_TranslatedDisplayFolders",
      "value": "{\"de-DE\":\"Σ SPLY Varianz\",\"en-US\":\"Σ SPLY Variance\"}"
    }
  ]
}