{
  "name": "factTransferOrder",
  "columns": [
    {
      "name": "CompanyID",
      "dataType": "int64",
      "isHidden": true,
      "sourceColumn": "CompanyID",
      "sourceProviderType": "int",
      "annotations": [
        {
          "name": "TabularEditor_TranslatedNames",
          "value": "{\"de-DE\":\"CompanyID\"}"
        },
        {
          "name": "TabularEditor_TranslatedDescriptions",
          "value": "{\"de-DE\":\"Kennung für Company\",\"en-US\":\"System column for technical purposes\",\"nl-NL\":\"Systeemkolom technische doeleinden\"}"
        }
      ]
    },
    {
      "name": "FinancialDimension1ID",
      "dataType": "int64",
      "isHidden": true,
      "sourceColumn": "FinancialDimension1ID",
      "sourceProviderType": "int",
      "annotations": [
        {
          "name": "TabularEditor_TranslatedNames",
          "value": "{\"de-DE\":\"FinancialDimension1ID\"}"
        },
        {
          "name": "TabularEditor_TranslatedDescriptions",
          "value": "{\"de-DE\":\"Kennung für Financialdimension1\",\"en-US\":\"System column for technical purposes\",\"nl-NL\":\"Systeemkolom technische doeleinden\"}"
        }
      ]
    },
    {
      "name": "FinancialDimension2ID",
      "dataType": "int64",
      "isHidden": true,
      "sourceColumn": "FinancialDimension2ID",
      "sourceProviderType": "int",
      "annotations": [
        {
          "name": "TabularEditor_TranslatedNames",
          "value": "{\"de-DE\":\"FinancialDimension2ID\"}"
        },
        {
          "name": "TabularEditor_TranslatedDescriptions",
          "value": "{\"de-DE\":\"Kennung für Financialdimension2\",\"en-US\":\"System column for technical purposes\",\"nl-NL\":\"Systeemkolom technische doeleinden\"}"
        }
      ]
    },
    {
      "name": "FinancialDimension3ID",
      "dataType": "int64",
      "isHidden": true,
      "sourceColumn": "FinancialDimension3ID",
      "sourceProviderType": "int",
      "annotations": [
        {
          "name": "TabularEditor_TranslatedNames",
          "value": "{\"de-DE\":\"FinancialDimension3ID\"}"
        },
        {
          "name": "TabularEditor_TranslatedDescriptions",
          "value": "{\"de-DE\":\"Kennung für Financialdimension3\",\"en-US\":\"System column for technical purposes\",\"nl-NL\":\"Systeemkolom technische doeleinden\"}"
        }
      ]
    },
    {
      "name": "FinancialDimension4ID",
      "dataType": "int64",
      "isHidden": true,
      "sourceColumn": "FinancialDimension4ID",
      "sourceProviderType": "int",
      "annotations": [
        {
          "name": "TabularEditor_TranslatedNames",
          "value": "{\"de-DE\":\"FinancialDimension4ID\"}"
        },
        {
          "name": "TabularEditor_TranslatedDescriptions",
          "value": "{\"de-DE\":\"Kennung für Financialdimension4\",\"en-US\":\"System column for technical purposes\",\"nl-NL\":\"Systeemkolom technische doeleinden\"}"
        }
      ]
    },
    {
      "name": "FinancialDimension5ID",
      "dataType": "int64",
      "isHidden": true,
      "sourceColumn": "FinancialDimension5ID",
      "sourceProviderType": "int",
      "annotations": [
        {
          "name": "TabularEditor_TranslatedNames",
          "value": "{\"de-DE\":\"FinancialDimension5ID\"}"
        },
        {
          "name": "TabularEditor_TranslatedDescriptions",
          "value": "{\"de-DE\":\"Kennung für Financialdimension5\",\"en-US\":\"System column for technical purposes\",\"nl-NL\":\"Systeemkolom technische doeleinden\"}"
        }
      ]
    },
    {
      "name": "FinancialDimension6ID",
      "dataType": "int64",
      "isHidden": true,
      "sourceColumn": "FinancialDimension6ID",
      "sourceProviderType": "int",
      "annotations": [
        {
          "name": "TabularEditor_TranslatedNames",
          "value": "{\"de-DE\":\"FinancialDimension6ID\"}"
        },
        {
          "name": "TabularEditor_TranslatedDescriptions",
          "value": "{\"de-DE\":\"Kennung für Financialdimension6\",\"en-US\":\"System column for technical purposes\",\"nl-NL\":\"Systeemkolom technische doeleinden\"}"
        }
      ]
    },
    {
      "name": "FinancialDimension7ID",
      "dataType": "int64",
      "isHidden": true,
      "sourceColumn": "FinancialDimension7ID",
      "sourceProviderType": "int",
      "annotations": [
        {
          "name": "TabularEditor_TranslatedNames",
          "value": "{\"de-DE\":\"FinancialDimension7ID\"}"
        },
        {
          "name": "TabularEditor_TranslatedDescriptions",
          "value": "{\"de-DE\":\"Kennung für Financialdimension7\",\"en-US\":\"System column for technical purposes\",\"nl-NL\":\"Systeemkolom technische doeleinden\"}"
        }
      ]
    },
    {
      "name": "FinancialDimension8ID",
      "dataType": "int64",
      "isHidden": true,
      "sourceColumn": "FinancialDimension8ID",
      "sourceProviderType": "int",
      "annotations": [
        {
          "name": "TabularEditor_TranslatedNames",
          "value": "{\"de-DE\":\"FinancialDimension8ID\"}"
        },
        {
          "name": "TabularEditor_TranslatedDescriptions",
          "value": "{\"de-DE\":\"Kennung für Financialdimension8\",\"en-US\":\"System column for technical purposes\",\"nl-NL\":\"Systeemkolom technische doeleinden\"}"
        }
      ]
    },
    {
      "name": "TransferFromLocationID",
      "dataType": "int64",
      "isHidden": true,
      "sourceColumn": "TransferFromLocationID",
      "sourceProviderType": "int",
      "annotations": [
        {
          "name": "TabularEditor_TranslatedNames",
          "value": "{\"de-DE\":\"TransferFromLocationID\"}"
        },
        {
          "name": "TabularEditor_TranslatedDescriptions",
          "value": "{\"de-DE\":\"Kennung für TransferFromLocation\",\"en-US\":\"System column for technical purposes\",\"nl-NL\":\"Systeemkolom technische doeleinden\"}"
        }
      ]
    },
    {
      "name": "TransferToLocationID",
      "dataType": "int64",
      "isHidden": true,
      "sourceColumn": "TransferToLocationID",
      "sourceProviderType": "int",
      "annotations": [
        {
          "name": "TabularEditor_TranslatedNames",
          "value": "{\"de-DE\":\"TransferToLocationID\"}"
        },
        {
          "name": "TabularEditor_TranslatedDescriptions",
          "value": "{\"de-DE\":\"Kennung für TransferToLocation\",\"en-US\":\"System column for technical purposes\",\"nl-NL\":\"Systeemkolom technische doeleinden\"}"
        }
      ]
    },
    {
      "name": "InTransitLocationID",
      "dataType": "int64",
      "isHidden": true,
      "sourceColumn": "InTransitLocationID",
      "sourceProviderType": "int",
      "annotations": [
        {
          "name": "TabularEditor_TranslatedNames",
          "value": "{\"de-DE\":\"InTransitLocationID\"}"
        },
        {
          "name": "TabularEditor_TranslatedDescriptions",
          "value": "{\"de-DE\":\"Kennung für InTransitLocation\",\"en-US\":\"System column for technical purposes\",\"nl-NL\":\"Systeemkolom technische doeleinden\"}"
        }
      ]
    },
    {
      "name": "PostingDateID",
      "dataType": "int64",
      "isHidden": true,
      "sourceColumn": "PostingDateID",
      "sourceProviderType": "int",
      "annotations": [
        {
          "name": "TabularEditor_TranslatedNames",
          "value": "{\"de-DE\":\"PostingDatumID\"}"
        },
        {
          "name": "TabularEditor_TranslatedDescriptions",
          "value": "{\"de-DE\":\"Kennung für PostingDatum\",\"en-US\":\"System column for technical purposes\",\"nl-NL\":\"Systeemkolom technische doeleinden\"}"
        }
      ]
    },
    {
      "name": "ShipmentDateID",
      "dataType": "int64",
      "isHidden": true,
      "sourceColumn": "ShipmentDateID",
      "sourceProviderType": "int",
      "annotations": [
        {
          "name": "TabularEditor_TranslatedNames",
          "value": "{\"de-DE\":\"ShipmentDatumID\"}"
        },
        {
          "name": "TabularEditor_TranslatedDescriptions",
          "value": "{\"de-DE\":\"Kennung für ShipmentDatum\",\"en-US\":\"System column for technical purposes\",\"nl-NL\":\"Systeemkolom technische doeleinden\"}"
        }
      ]
    },
    {
      "name": "ReceiptDateID",
      "dataType": "int64",
      "isHidden": true,
      "sourceColumn": "ReceiptDateID",
      "sourceProviderType": "int",
      "annotations": [
        {
          "name": "TabularEditor_TranslatedNames",
          "value": "{\"de-DE\":\"ReceiptDatumID\"}"
        },
        {
          "name": "TabularEditor_TranslatedDescriptions",
          "value": "{\"de-DE\":\"Kennung für ReceiptDatum\",\"en-US\":\"System column for technical purposes\",\"nl-NL\":\"Systeemkolom technische doeleinden\"}"
        }
      ]
    },
    {
      "name": "ShipmentMethodID",
      "dataType": "int64",
      "isHidden": true,
      "sourceColumn": "ShipmentMethodID",
      "sourceProviderType": "int",
      "annotations": [
        {
          "name": "TabularEditor_TranslatedNames",
          "value": "{\"de-DE\":\"ShipmentMethodID\"}"
        },
        {
          "name": "TabularEditor_TranslatedDescriptions",
          "value": "{\"de-DE\":\"Kennung für ShippingMethod\",\"en-US\":\"System column for technical purposes\",\"nl-NL\":\"Systeemkolom technische doeleinden\"}"
        }
      ]
    },
    {
      "name": "TransportMethodID",
      "dataType": "int64",
      "isHidden": true,
      "sourceColumn": "TransportMethodID",
      "sourceProviderType": "int",
      "annotations": [
        {
          "name": "TabularEditor_TranslatedNames",
          "value": "{\"de-DE\":\"TransportMethodID\"}"
        },
        {
          "name": "TabularEditor_TranslatedDescriptions",
          "value": "{\"de-DE\":\"Kennung für Transportmethod\",\"en-US\":\"System column for technical purposes\",\"nl-NL\":\"Systeemkolom technische doeleinden\"}"
        }
      ]
    },
    {
      "name": "ItemID",
      "dataType": "int64",
      "isHidden": true,
      "sourceColumn": "ItemID",
      "sourceProviderType": "int",
      "annotations": [
        {
          "name": "TabularEditor_TranslatedNames",
          "value": "{\"de-DE\":\"ItemID\"}"
        },
        {
          "name": "TabularEditor_TranslatedDescriptions",
          "value": "{\"de-DE\":\"Kennung für Item\",\"en-US\":\"System column for technical purposes\",\"nl-NL\":\"Systeemkolom technische doeleinden\"}"
        }
      ]
    },
    {
      "name": "ItemVariantID",
      "dataType": "int64",
      "isHidden": true,
      "sourceColumn": "ItemVariantID",
      "sourceProviderType": "int",
      "annotations": [
        {
          "name": "TabularEditor_TranslatedNames",
          "value": "{\"de-DE\":\"ItemVariantID\"}"
        },
        {
          "name": "TabularEditor_TranslatedDescriptions",
          "value": "{\"de-DE\":\"Kennung für Itemvariant\",\"en-US\":\"System column for technical purposes\",\"nl-NL\":\"Systeemkolom technische doeleinden\"}"
        }
      ]
    },
    {
      "name": "InventoryPostingGroupID",
      "dataType": "int64",
      "isHidden": true,
      "sourceColumn": "InventoryPostingGroupID",
      "sourceProviderType": "int",
      "annotations": [
        {
          "name": "TabularEditor_TranslatedNames",
          "value": "{\"de-DE\":\"InventoryPostingGroupID\"}"
        },
        {
          "name": "TabularEditor_TranslatedDescriptions",
          "value": "{\"de-DE\":\"Kennung für InventoryPostingGroup\",\"en-US\":\"System column for technical purposes\",\"nl-NL\":\"Systeemkolom technische doeleinden\"}"
        }
      ]
    },
    {
      "name": "TransferFromBinID",
      "dataType": "int64",
      "isHidden": true,
      "sourceColumn": "TransferFromBinID",
      "sourceProviderType": "int",
      "annotations": [
        {
          "name": "TabularEditor_TranslatedNames",
          "value": "{\"de-DE\":\"TransferFromBinID\"}"
        },
        {
          "name": "TabularEditor_TranslatedDescriptions",
          "value": "{\"de-DE\":\"Kennung für TransferFromBin\",\"en-US\":\"System column for technical purposes\",\"nl-NL\":\"Systeemkolom technische doeleinden\"}"
        }
      ]
    },
    {
      "name": "TransferToBinID",
      "dataType": "int64",
      "isHidden": true,
      "sourceColumn": "TransferToBinID",
      "sourceProviderType": "int",
      "annotations": [
        {
          "name": "TabularEditor_TranslatedNames",
          "value": "{\"de-DE\":\"TransferToBinID\"}"
        },
        {
          "name": "TabularEditor_TranslatedDescriptions",
          "value": "{\"de-DE\":\"Kennung für TransferToBin\",\"en-US\":\"System column for technical purposes\",\"nl-NL\":\"Systeemkolom technische doeleinden\"}"
        }
      ]
    },
    {
      "name": "WarehouseEmployeeID",
      "dataType": "int64",
      "isHidden": true,
      "sourceColumn": "WarehouseEmployeeID",
      "sourceProviderType": "int",
      "annotations": [
        {
          "name": "TabularEditor_TranslatedNames",
          "value": "{\"de-DE\":\"WarehouseEmployeeID\"}"
        },
        {
          "name": "TabularEditor_TranslatedDescriptions",
          "value": "{\"de-DE\":\"Kennung für WarehouseEmployee\",\"en-US\":\"System column for technical purposes\",\"nl-NL\":\"Systeemkolom technische doeleinden\"}"
        }
      ]
    },
    {
      "name": "TransferOrderQuantity",
      "dataType": "decimal",
      "isHidden": true,
      "sourceColumn": "TransferOrderQuantity",
      "sourceProviderType": "decimal",
      "annotations": [
        {
          "name": "TabularEditor_TranslatedNames",
          "value": "{\"de-DE\":\"Umlagerungsaufträge Menge\"}"
        },
        {
          "name": "TabularEditor_TranslatedDescriptions",
          "value": "{\"de-DE\":\"Abteilungen/Lager/Aufträge & Kontakte/Umlagerungsaufträge/Zeilen\",\"en-US\":\"Departments/Inventory and Warehouse/Order Processing/General/Transfer Orders/\",\"nl-NL\":\"Afdelingen/Voorraad en magazijn/Orderverwerking/Algemeen/Transferorders\"}"
        }
      ]
    },
    {
      "name": "TransferOrderOutstandingQuantity",
      "dataType": "decimal",
      "isHidden": true,
      "sourceColumn": "TransferOrderOutstandingQuantity",
      "sourceProviderType": "decimal",
      "annotations": [
        {
          "name": "TabularEditor_TranslatedNames",
          "value": "{\"de-DE\":\"Umlagerungsaufträge Restauftragsmenge\"}"
        },
        {
          "name": "TabularEditor_TranslatedDescriptions",
          "value": "{\"de-DE\":\"Abteilungen/Lager/Aufträge & Kontakte/Umlagerungsaufträge/Zeilen\",\"en-US\":\"Departments/Inventory and Warehouse/Order Processing/General/Transfer Orders/\",\"nl-NL\":\"Afdelingen/Voorraad en magazijn/Orderverwerking/Algemeen/Transferorders\"}"
        }
      ]
    },
    {
      "name": "TransferOrderQuantityToShip",
      "dataType": "decimal",
      "isHidden": true,
      "sourceColumn": "TransferOrderQuantityToShip",
      "sourceProviderType": "decimal",
      "annotations": [
        {
          "name": "TabularEditor_TranslatedNames",
          "value": "{\"de-DE\":\"Umlagerungsaufträge Zu liefern\"}"
        },
        {
          "name": "TabularEditor_TranslatedDescriptions",
          "value": "{\"de-DE\":\"Abteilungen/Lager/Aufträge & Kontakte/Umlagerungsaufträge/Zeilen\",\"en-US\":\"Departments/Inventory and Warehouse/Order Processing/General/Transfer Orders/\",\"nl-NL\":\"Afdelingen/Voorraad en magazijn/Orderverwerking/Algemeen/Transferorders\"}"
        }
      ]
    },
    {
      "name": "TransferOrderQuantityToReceive",
      "dataType": "decimal",
      "isHidden": true,
      "sourceColumn": "TransferOrderQuantityToReceive",
      "sourceProviderType": "decimal",
      "annotations": [
        {
          "name": "TabularEditor_TranslatedNames",
          "value": "{\"de-DE\":\"Umlagerungsaufträge Menge akt. Lieferung\"}"
        },
        {
          "name": "TabularEditor_TranslatedDescriptions",
          "value": "{\"de-DE\":\"Abteilungen/Lager/Aufträge & Kontakte/Umlagerungsaufträge/Zeilen\",\"en-US\":\"Departments/Inventory and Warehouse/Order Processing/General/Transfer Orders/\",\"nl-NL\":\"Afdelingen/Voorraad en magazijn/Orderverwerking/Algemeen/Transferorders\"}"
        }
      ]
    },
    {
      "name": "TransferOrderQuantityShipped",
      "dataType": "decimal",
      "isHidden": true,
      "sourceColumn": "TransferOrderQuantityShipped",
      "sourceProviderType": "decimal",
      "annotations": [
        {
          "name": "TabularEditor_TranslatedNames",
          "value": "{\"de-DE\":\"Umlagerungsaufträge Menge geliefert\"}"
        },
        {
          "name": "TabularEditor_TranslatedDescriptions",
          "value": "{\"de-DE\":\"Abteilungen/Lager/Aufträge & Kontakte/Umlagerungsaufträge/Zeilen\",\"en-US\":\"Departments/Inventory and Warehouse/Order Processing/General/Transfer Orders/\",\"nl-NL\":\"Afdelingen/Voorraad en magazijn/Orderverwerking/Algemeen/Transferorders\"}"
        }
      ]
    },
    {
      "name": "TransferOrderQuantityReceived",
      "dataType": "decimal",
      "isHidden": true,
      "sourceColumn": "TransferOrderQuantityReceived",
      "sourceProviderType": "decimal",
      "annotations": [
        {
          "name": "TabularEditor_TranslatedNames",
          "value": "{\"de-DE\":\"Umlagerungsaufträge Bereits gelief. Menge\"}"
        },
        {
          "name": "TabularEditor_TranslatedDescriptions",
          "value": "{\"de-DE\":\"Abteilungen/Lager/Aufträge & Kontakte/Umlagerungsaufträge/Zeilen\",\"en-US\":\"Departments/Inventory and Warehouse/Order Processing/General/Transfer Orders/\",\"nl-NL\":\"Afdelingen/Voorraad en magazijn/Orderverwerking/Algemeen/Transferorders\"}"
        }
      ]
    },
    {
      "name": "TransferOrderQuantityInTransit",
      "dataType": "decimal",
      "isHidden": true,
      "sourceColumn": "TransferOrderQuantityInTransit",
      "sourceProviderType": "decimal",
      "annotations": [
        {
          "name": "TabularEditor_TranslatedNames",
          "value": "{\"de-DE\":\"Umlagerungsaufträge Menge in Transit\"}"
        },
        {
          "name": "TabularEditor_TranslatedDescriptions",
          "value": "{\"de-DE\":\"Abteilungen/Lager/Aufträge & Kontakte/Umlagerungsaufträge/Zeilen\",\"en-US\":\"Departments/Inventory and Warehouse/Order Processing/General/Transfer Orders/\",\"nl-NL\":\"Afdelingen/Voorraad en magazijn/Orderverwerking/Algemeen/Transferorders\"}"
        }
      ]
    },
    {
      "name": "TransferOrderQuantityBase",
      "dataType": "decimal",
      "isHidden": true,
      "sourceColumn": "TransferOrderQuantityBase",
      "sourceProviderType": "decimal",
      "annotations": [
        {
          "name": "TabularEditor_TranslatedNames",
          "value": "{\"de-DE\":\"Umlagerungsaufträge Menge (Basis)\"}"
        },
        {
          "name": "TabularEditor_TranslatedDescriptions",
          "value": "{\"de-DE\":\"Abteilungen/Lager/Aufträge & Kontakte/Umlagerungsaufträge/Zeilen\",\"en-US\":\"Departments/Inventory and Warehouse/Order Processing/General/Transfer Orders/\",\"nl-NL\":\"Afdelingen/Voorraad en magazijn/Orderverwerking/Algemeen/Transferorders\"}"
        }
      ]
    },
    {
      "name": "TransferOrderOutstandingQuantityBase",
      "dataType": "decimal",
      "isHidden": true,
      "sourceColumn": "TransferOrderOutstandingQuantityBase",
      "sourceProviderType": "decimal",
      "annotations": [
        {
          "name": "TabularEditor_TranslatedNames",
          "value": "{\"de-DE\":\"Umlagerungsaufträge Restauftragsmenge (Basis)\"}"
        },
        {
          "name": "TabularEditor_TranslatedDescriptions",
          "value": "{\"de-DE\":\"Abteilungen/Lager/Aufträge & Kontakte/Umlagerungsaufträge/Zeilen\",\"en-US\":\"Departments/Inventory and Warehouse/Order Processing/General/Transfer Orders/\",\"nl-NL\":\"Afdelingen/Voorraad en magazijn/Orderverwerking/Algemeen/Transferorders\"}"
        }
      ]
    },
    {
      "name": "TransferOrderQuantityToShipBase",
      "dataType": "decimal",
      "isHidden": true,
      "sourceColumn": "TransferOrderQuantityToShipBase",
      "sourceProviderType": "decimal",
      "annotations": [
        {
          "name": "TabularEditor_TranslatedNames",
          "value": "{\"de-DE\":\"Umlagerungsaufträge Zu liefern (Basis)\"}"
        },
        {
          "name": "TabularEditor_TranslatedDescriptions",
          "value": "{\"de-DE\":\"Abteilungen/Lager/Aufträge & Kontakte/Umlagerungsaufträge/Zeilen\",\"en-US\":\"Departments/Inventory and Warehouse/Order Processing/General/Transfer Orders/\",\"nl-NL\":\"Afdelingen/Voorraad en magazijn/Orderverwerking/Algemeen/Transferorders\"}"
        }
      ]
    },
    {
      "name": "TransferOrderQuantityToReceiveBase",
      "dataType": "decimal",
      "isHidden": true,
      "sourceColumn": "TransferOrderQuantityToReceiveBase",
      "sourceProviderType": "decimal",
      "annotations": [
        {
          "name": "TabularEditor_TranslatedNames",
          "value": "{\"de-DE\":\"Umlagerungsaufträge Menge akt. Lieferung (Basis)\"}"
        },
        {
          "name": "TabularEditor_TranslatedDescriptions",
          "value": "{\"de-DE\":\"Abteilungen/Lager/Aufträge & Kontakte/Umlagerungsaufträge/Zeilen\",\"en-US\":\"Departments/Inventory and Warehouse/Order Processing/General/Transfer Orders/\",\"nl-NL\":\"Afdelingen/Voorraad en magazijn/Orderverwerking/Algemeen/Transferorders\"}"
        }
      ]
    },
    {
      "name": "TransferOrderQuantityShippedBase",
      "dataType": "decimal",
      "isHidden": true,
      "sourceColumn": "TransferOrderQuantityShippedBase",
      "sourceProviderType": "decimal",
      "annotations": [
        {
          "name": "TabularEditor_TranslatedNames",
          "value": "{\"de-DE\":\"Umlagerungsaufträge Menge geliefert (Basis)\"}"
        },
        {
          "name": "TabularEditor_TranslatedDescriptions",
          "value": "{\"de-DE\":\"Abteilungen/Lager/Aufträge & Kontakte/Umlagerungsaufträge/Zeilen\",\"en-US\":\"Departments/Inventory and Warehouse/Order Processing/General/Transfer Orders/\",\"nl-NL\":\"Afdelingen/Voorraad en magazijn/Orderverwerking/Algemeen/Transferorders\"}"
        }
      ]
    },
    {
      "name": "TransferOrderQuantityReceivedBase",
      "dataType": "decimal",
      "isHidden": true,
      "sourceColumn": "TransferOrderQuantityReceivedBase",
      "sourceProviderType": "decimal",
      "annotations": [
        {
          "name": "TabularEditor_TranslatedNames",
          "value": "{\"de-DE\":\"Umlagerungsaufträge Bereits gelief. Menge (Basis)\"}"
        },
        {
          "name": "TabularEditor_TranslatedDescriptions",
          "value": "{\"de-DE\":\"Abteilungen/Lager/Aufträge & Kontakte/Umlagerungsaufträge/Zeilen\",\"en-US\":\"Departments/Inventory and Warehouse/Order Processing/General/Transfer Orders/\",\"nl-NL\":\"Afdelingen/Voorraad en magazijn/Orderverwerking/Algemeen/Transferorders\"}"
        }
      ]
    },
    {
      "name": "TransferOrderQuantityInTransitBase",
      "dataType": "decimal",
      "isHidden": true,
      "sourceColumn": "TransferOrderQuantityInTransitBase",
      "sourceProviderType": "decimal",
      "annotations": [
        {
          "name": "TabularEditor_TranslatedNames",
          "value": "{\"de-DE\":\"Umlagerungsaufträge Menge in Transit (Basis)\"}"
        },
        {
          "name": "TabularEditor_TranslatedDescriptions",
          "value": "{\"de-DE\":\"Abteilungen/Lager/Aufträge & Kontakte/Umlagerungsaufträge/Zeilen\",\"en-US\":\"Departments/Inventory and Warehouse/Order Processing/General/Transfer Orders/\",\"nl-NL\":\"Afdelingen/Voorraad en magazijn/Orderverwerking/Algemeen/Transferorders\"}"
        }
      ]
    },
    {
      "name": "DocumentTransferID",
      "dataType": "int64",
      "isHidden": true,
      "sourceColumn": "DocumentTransferID"
    },
    {
      "name": "DateID",
      "dataType": "int64",
      "isHidden": true,
      "sourceColumn": "DateID"
    },
    {
      "name": "TransferOrderID",
      "dataType": "int64",
      "isHidden": true,
      "sourceColumn": "TransferOrderID"
    }
  ],
  "partitions": [
    {
      "name": "factTransferOrder",
      "source": {
        "type": "query",
        "query": [
          "SELECT",
          "\t*",
          "FROM",
          "\t[tabular].[factTransferOrder]"
        ],
        "dataSource": "Birds"
      },
      "annotations": [
        {
          "name": "TabularEditor_TableSchema",
          "value": "{\"Name\":\"factTransferOrder\",\"Schema\":\"tabular\",\"Database\":\"nav_standard\",\"IncludedColumns\":[\"CompanyID\",\"FinancialDimension1ID\",\"FinancialDimension2ID\",\"FinancialDimension3ID\",\"FinancialDimension4ID\",\"FinancialDimension5ID\",\"FinancialDimension6ID\",\"FinancialDimension7ID\",\"FinancialDimension8ID\",\"DocumentTransferOrderID\",\"TransferFromLocationID\",\"TransferToLocationID\",\"InTransitLocationID\",\"PostingDateID\",\"ShipmentDateID\",\"ReceiptDateID\",\"ShipmentMethodID\",\"TransportMethodID\",\"ItemID\",\"ItemVariantID\",\"InventoryPostingGroupID\",\"TransferFromBinID\",\"TransferToBinID\",\"WarehouseEmployeeID\",\"TransferOrderQuantity\",\"TransferOrderOutstandingQuantity\",\"TransferOrderQuantityToShip\",\"TransferOrderQuantityToReceive\",\"TransferOrderQuantityShipped\",\"TransferOrderQuantityReceived\",\"TransferOrderQuantityInTransit\",\"TransferOrderQuantityBase\",\"TransferOrderOutstandingQuantityBase\",\"TransferOrderQuantityToShipBase\",\"TransferOrderQuantityToReceiveBase\",\"TransferOrderQuantityShippedBase\",\"TransferOrderQuantityReceivedBase\",\"TransferOrderQuantityInTransitBase\"],\"SelectAll\":true}"
        }
      ]
    }
  ],
  "annotations": [
    {
      "name": "Postfix",
      "value": "TO"
    },
    {
      "name": "TabularEditor_TranslatedNames",
      "value": "{\"de-DE\":\"Σ Lager Orders\",\"en-US\":\"Σ Transfer Order\",\"nl-NL\":\"Σ Transferorder\"}"
    },
    {
      "name": "TabularEditor_TranslatedDescriptions",
      "value": "{\"en-US\":\"Departments/Inventory and Warehouse/Order Processing/General/Transfer Orders\",\"nl-NL\":\"Afdelingen/Voorraad en magazijn/Orderverwerking/Algemeen/Transferorders\"}"
    },
    {
      "name": "TabularEditor_Relationships",
      "value": [
        "[",
        "  {",
        "    \"fromTable\": \"factTransferOrder\",",
        "    \"fromColumn\": \"CompanyID\",",
        "    \"toTable\": \"Company\",",
        "    \"toColumn\": \"CompanyID\"",
        "  },",
        "  {",
        "    \"fromTable\": \"factTransferOrder\",",
        "    \"fromColumn\": \"DateID\",",
        "    \"toTable\": \"Date\",",
        "    \"toColumn\": \"DateID\",",
        "    \"isActive\": false",
        "  },",
        "  {",
        "    \"fromTable\": \"factTransferOrder\",",
        "    \"fromColumn\": \"DocumentTransferID\",",
        "    \"toTable\": \"DocumentTransfer\",",
        "    \"toColumn\": \"DocumentTransferID\"",
        "  },",
        "  {",
        "    \"fromTable\": \"factTransferOrder\",",
        "    \"fromColumn\": \"FinancialDimension1ID\",",
        "    \"toTable\": \"FinancialDimension1\",",
        "    \"toColumn\": \"FinancialDimension1ID\"",
        "  },",
        "  {",
        "    \"fromTable\": \"factTransferOrder\",",
        "    \"fromColumn\": \"FinancialDimension2ID\",",
        "    \"toTable\": \"FinancialDimension2\",",
        "    \"toColumn\": \"FinancialDimension2ID\"",
        "  },",
        "  {",
        "    \"fromTable\": \"factTransferOrder\",",
        "    \"fromColumn\": \"FinancialDimension3ID\",",
        "    \"toTable\": \"FinancialDimension3\",",
        "    \"toColumn\": \"FinancialDimension3ID\"",
        "  },",
        "  {",
        "    \"fromTable\": \"factTransferOrder\",",
        "    \"fromColumn\": \"FinancialDimension4ID\",",
        "    \"toTable\": \"FinancialDimension4\",",
        "    \"toColumn\": \"FinancialDimension4ID\"",
        "  },",
        "  {",
        "    \"fromTable\": \"factTransferOrder\",",
        "    \"fromColumn\": \"FinancialDimension5ID\",",
        "    \"toTable\": \"FinancialDimension5\",",
        "    \"toColumn\": \"FinancialDimension5ID\"",
        "  },",
        "  {",
        "    \"fromTable\": \"factTransferOrder\",",
        "    \"fromColumn\": \"FinancialDimension6ID\",",
        "    \"toTable\": \"FinancialDimension6\",",
        "    \"toColumn\": \"FinancialDimension6ID\"",
        "  },",
        "  {",
        "    \"fromTable\": \"factTransferOrder\",",
        "    \"fromColumn\": \"FinancialDimension7ID\",",
        "    \"toTable\": \"FinancialDimension7\",",
        "    \"toColumn\": \"FinancialDimension7ID\"",
        "  },",
        "  {",
        "    \"fromTable\": \"factTransferOrder\",",
        "    \"fromColumn\": \"FinancialDimension8ID\",",
        "    \"toTable\": \"FinancialDimension8\",",
        "    \"toColumn\": \"FinancialDimension8ID\"",
        "  },",
        "  {",
        "    \"fromTable\": \"factTransferOrder\",",
        "    \"fromColumn\": \"InTransitLocationID\",",
        "    \"toTable\": \"InTransitLocation\",",
        "    \"toColumn\": \"LocationID\"",
        "  },",
        "  {",
        "    \"fromTable\": \"factTransferOrder\",",
        "    \"fromColumn\": \"InTransitLocationID\",",
        "    \"toTable\": \"Location\",",
        "    \"toColumn\": \"LocationID\",",
        "    \"isActive\": false",
        "  },",
        "  {",
        "    \"fromTable\": \"factTransferOrder\",",
        "    \"fromColumn\": \"InventoryPostingGroupID\",",
        "    \"toTable\": \"InventoryPostingGroup\",",
        "    \"toColumn\": \"InventoryPostingGroupID\"",
        "  },",
        "  {",
        "    \"fromTable\": \"factTransferOrder\",",
        "    \"fromColumn\": \"ItemID\",",
        "    \"toTable\": \"Item\",",
        "    \"toColumn\": \"ItemID\"",
        "  },",
        "  {",
        "    \"fromTable\": \"factTransferOrder\",",
        "    \"fromColumn\": \"ItemVariantID\",",
        "    \"toTable\": \"ItemVariant\",",
        "    \"toColumn\": \"ItemVariantID\"",
        "  },",
        "  {",
        "    \"fromTable\": \"factTransferOrder\",",
        "    \"fromColumn\": \"PostingDateID\",",
        "    \"toTable\": \"Date\",",
        "    \"toColumn\": \"DateID\"",
        "  },",
        "  {",
        "    \"fromTable\": \"factTransferOrder\",",
        "    \"fromColumn\": \"PostingDateID\",",
        "    \"toTable\": \"PostingDate\",",
        "    \"toColumn\": \"DateID\"",
        "  },",
        "  {",
        "    \"fromTable\": \"factTransferOrder\",",
        "    \"fromColumn\": \"ReceiptDateID\",",
        "    \"toTable\": \"Date\",",
        "    \"toColumn\": \"DateID\",",
        "    \"isActive\": false",
        "  },",
        "  {",
        "    \"fromTable\": \"factTransferOrder\",",
        "    \"fromColumn\": \"ReceiptDateID\",",
        "    \"toTable\": \"ReceiptDate\",",
        "    \"toColumn\": \"DateID\"",
        "  },",
        "  {",
        "    \"fromTable\": \"factTransferOrder\",",
        "    \"fromColumn\": \"ShipmentDateID\",",
        "    \"toTable\": \"Date\",",
        "    \"toColumn\": \"DateID\",",
        "    \"isActive\": false",
        "  },",
        "  {",
        "    \"fromTable\": \"factTransferOrder\",",
        "    \"fromColumn\": \"ShipmentDateID\",",
        "    \"toTable\": \"ShipmentDate\",",
        "    \"toColumn\": \"DateID\"",
        "  },",
        "  {",
        "    \"fromTable\": \"factTransferOrder\",",
        "    \"fromColumn\": \"ShipmentMethodID\",",
        "    \"toTable\": \"ShipmentMethod\",",
        "    \"toColumn\": \"ShipmentMethodID\"",
        "  },",
        "  {",
        "    \"fromTable\": \"factTransferOrder\",",
        "    \"fromColumn\": \"TransferFromBinID\",",
        "    \"toTable\": \"Bin\",",
        "    \"toColumn\": \"BinID\"",
        "  },",
        "  {",
        "    \"fromTable\": \"factTransferOrder\",",
        "    \"fromColumn\": \"TransferFromBinID\",",
        "    \"toTable\": \"TransferFromBin\",",
        "    \"toColumn\": \"BinID\"",
        "  },",
        "  {",
        "    \"fromTable\": \"factTransferOrder\",",
        "    \"fromColumn\": \"TransferFromLocationID\",",
        "    \"toTable\": \"Location\",",
        "    \"toColumn\": \"LocationID\"",
        "  },",
        "  {",
        "    \"fromTable\": \"factTransferOrder\",",
        "    \"fromColumn\": \"TransferFromLocationID\",",
        "    \"toTable\": \"TransferFromLocation\",",
        "    \"toColumn\": \"LocationID\"",
        "  },",
        "  {",
        "    \"fromTable\": \"factTransferOrder\",",
        "    \"fromColumn\": \"TransferOrderID\",",
        "    \"toTable\": \"TransferOrder\",",
        "    \"toColumn\": \"TransferOrderID\"",
        "  },",
        "  {",
        "    \"fromTable\": \"factTransferOrder\",",
        "    \"fromColumn\": \"TransferToBinID\",",
        "    \"toTable\": \"Bin\",",
        "    \"toColumn\": \"BinID\",",
        "    \"isActive\": false",
        "  },",
        "  {",
        "    \"fromTable\": \"factTransferOrder\",",
        "    \"fromColumn\": \"TransferToBinID\",",
        "    \"toTable\": \"TransferToBin\",",
        "    \"toColumn\": \"BinID\"",
        "  },",
        "  {",
        "    \"fromTable\": \"factTransferOrder\",",
        "    \"fromColumn\": \"TransferToLocationID\",",
        "    \"toTable\": \"Location\",",
        "    \"toColumn\": \"LocationID\",",
        "    \"isActive\": false",
        "  },",
        "  {",
        "    \"fromTable\": \"factTransferOrder\",",
        "    \"fromColumn\": \"TransferToLocationID\",",
        "    \"toTable\": \"TransferToLocation\",",
        "    \"toColumn\": \"LocationID\"",
        "  },",
        "  {",
        "    \"fromTable\": \"factTransferOrder\",",
        "    \"fromColumn\": \"TransportMethodID\",",
        "    \"toTable\": \"TransportMethod\",",
        "    \"toColumn\": \"TransportMethodID\"",
        "  },",
        "  {",
        "    \"fromTable\": \"factTransferOrder\",",
        "    \"fromColumn\": \"WarehouseEmployeeID\",",
        "    \"toTable\": \"Employee\",",
        "    \"toColumn\": \"EmployeeID\"",
        "  },",
        "  {",
        "    \"fromTable\": \"factTransferOrder\",",
        "    \"fromColumn\": \"WarehouseEmployeeID\",",
        "    \"toTable\": \"WarehouseEmployee\",",
        "    \"toColumn\": \"WarehouseEmployeeID\"",
        "  }",
        "]"
      ]
    }
  ]
}