{
  "name": "CostAmount_SPLY_Index_SVE",
  "description": "Departments/Item Management/General Data/Items > Items > Entries > Value Entries > item ledger entry type = sales > Cost Amount Actual + Cost Amount Expected",
  "expression": "DIVIDE ( [CostAmount_SVE], [CostAmount_SPLY_SVE] ) * 100",
  "formatString": "#,##0.00",
  "displayFolder": "Σ SPLY Variance",
  "annotations": [
    {
      "name": "TabularEditor_TranslatedNames",
      "value": "{\"de-DE\":\"Einstandsbetrag SPLY Index\",\"en-US\":\"Cost Amount SPLY Index\",\"nl-NL\":\"Kosten SPLY Index\"}"
    },
    {
      "name": "TabularEditor_TranslatedDescriptions",
      "value": "{\"de-DE\":\"Startseite/Artikel/Posten/Posten/Zeilen\",\"en-US\":\"Departments/Item Management/General Data/Items > Items > Entries > Value Entries > item ledger entry type = sales > Cost Amount Actual + Cost Amount Expected\",\"nl-NL\":\"Afdelingen/Artikelbeheer/Stamgegevens/Artikelen > Posten > Waardeposten > Totaal werkelijke kosten + Verwachte Kosten\"}"
    },
    {
      "name": "TabularEditor_TranslatedDisplayFolders",
      "value": "{\"de-DE\":\"Σ SPLY Varianz\",\"en-US\":\"Σ SPLY Variance\"}"
    }
  ]
}