{
  "name": "Discount%_YTD_SVE",
  "description": "Discount Amount / (Sales Amount + Discount Amount)",
  "expression": [
    "VAR YTD0 =",
    "    FILTER (",
    "        ALL ( 'Date' ),",
    "        'Date'[CYearNo] = MAX ( 'Date'[CYearNo] )",
    "            && 'Date'[DateID] <= MAX ( 'Date'[DateID] )",
    "    )",
    "RETURN",
    "    CALCULATE ( [Discount%_SVE], YTD0 )"
  ],
  "formatString": "#,##0.0 %",
  "displayFolder": "Σ YTD",
  "annotations": [
    {
      "name": "TabularEditor_TranslatedNames",
      "value": "{\"de-DE\":\"Rabatt % YTD\",\"en-US\":\"Discount % YTD\",\"nl-NL\":\"Korting % YTD\"}"
    },
    {
      "name": "TabularEditor_TranslatedDescriptions",
      "value": "{\"de-DE\":\"Startseite/Artikel/Posten/Posten/Zeilen\",\"en-US\":\"Discount Amount / (Sales Amount + Discount Amount)\",\"nl-NL\":\"Totaal Kortingsbedrag / (Totaal werkelijke omzet + Totaal kortingsbedrag)\"}"
    },
    {
      "name": "TabularEditor_TranslatedDisplayFolders",
      "value": "{\"de-DE\":\"Σ YTD\",\"en-US\":\"Σ YTD\",\"nl-NL\":\"Σ YTD\"}"
    }
  ]
}