{
  "name": "GrossAmount_YTD_Variance_SVE",
  "description": "Sales Amount + Discount Amount",
  "expression": "[GrossAmount_YTD_SVE] - [CostAmount_LYTD_SVE]",
  "formatString": "#,##0.00",
  "displayFolder": "Σ LYTD Variance",
  "annotations": [
    {
      "name": "TabularEditor_TranslatedNames",
      "value": "{\"de-DE\":\"Brutto Umsatz YTD Varianz\",\"en-US\":\"Gross Amount YTD Variance\",\"nl-NL\":\"Bruto omzet YTD verschil\"}"
    },
    {
      "name": "TabularEditor_TranslatedDescriptions",
      "value": "{\"de-DE\":\"Umsatz + Rabatt\",\"en-US\":\"Sales Amount + Discount Amount\",\"nl-NL\":\"Omzet + Korting\"}"
    },
    {
      "name": "TabularEditor_TranslatedDisplayFolders",
      "value": "{\"de-DE\":\"Σ LYTD Varianz\",\"en-US\":\"Σ LYTD Variance\"}"
    }
  ]
}