{
  "name": "InvoicedQuantity_MTD_SVE",
  "description": "Departments/Item Management/General Data/Items > Items > Entries > Value Entries > item ledger entry type = sales > Invoiced Quantity",
  "expression": [
    "VAR MTD0 =",
    "    FILTER (",
    "        ALL ( 'Date' ),",
    "        'Date'[DateID] <= MAX ( 'Date'[DateID] )",
    "            && 'Date'[CYearMonthNo] = MAX ( 'Date'[CYearMonthNo] )",
    "    )",
    "RETURN",
    "    CALCULATE ( [InvoicedQuantity_SVE], MTD0 )"
  ],
  "formatString": "#,##0",
  "displayFolder": "Σ MTD",
  "annotations": [
    {
      "name": "TabularEditor_TranslatedNames",
      "value": "{\"de-DE\":\"Fakturierte Menge MTD\",\"en-US\":\"Invoiced Quantity MTD\",\"nl-NL\":\"Gefactureerd aantal MTD\"}"
    },
    {
      "name": "TabularEditor_TranslatedDescriptions",
      "value": "{\"de-DE\":\"Startseite/Artikel/Posten/Posten/Zeilen\",\"en-US\":\"Departments/Item Management/General Data/Items > Items > Entries > Value Entries > item ledger entry type = sales > Invoiced Quantity\",\"nl-NL\":\"Afdelingen/Artikelbeheer/Stamgegevens/Artikelen > Posten > Waardeposten > Geboekt aantal\"}"
    },
    {
      "name": "TabularEditor_TranslatedDisplayFolders",
      "value": "{\"de-DE\":\"Σ MTD\",\"en-US\":\"Σ MTD\",\"nl-NL\":\"Σ MTD\"}"
    }
  ]
}