{
  "name": "Margin%_RY_SVE",
  "description": "Margin / Sales Amount",
  "expression": [
    "VAR RY0 =",
    "    FILTER (",
    "        ALL ( 'Date' ),",
    "        'Date'[DateID] <= MAX ( 'Date'[DateID] )",
    "            && 'Date'[Date] > MAX ( 'Date'[TDatePY] )",
    "    )",
    "RETURN",
    "    CALCULATE ( [Margin%_SVE], RY0 )"
  ],
  "formatString": "#,##0.0 %",
  "displayFolder": "Σ RY",
  "annotations": [
    {
      "name": "TabularEditor_TranslatedNames",
      "value": "{\"de-DE\":\"Marge % RY\",\"en-US\":\"Margin % RY\",\"nl-NL\":\"Marge % RY\"}"
    },
    {
      "name": "TabularEditor_TranslatedDescriptions",
      "value": "{\"de-DE\":\"Spanne / Umsatz\",\"en-US\":\"Margin / Sales Amount\",\"nl-NL\":\"Marge / Omzet\"}"
    },
    {
      "name": "TabularEditor_TranslatedDisplayFolders",
      "value": "{\"de-DE\":\"Σ RY\",\"en-US\":\"Σ RY\",\"nl-NL\":\"Σ RY\"}"
    }
  ]
}