{
  "name": "FinancialDimension8",
  "columns": [
    {
      "name": "FinancialDimension8ID",
      "dataType": "int64",
      "description": "Unique key field to dimension key",
      "isHidden": true,
      "sourceColumn": "FinancialDimension8ID",
      "annotations": [
        {
          "name": "TabularEditor_TranslatedNames",
          "value": "{\"de-DE\":\"Financialdimension8ID\",\"en-US\":\"FinancialDimension8ID\",\"nl-NL\":\"Financialdimension8id\"}"
        },
        {
          "name": "TabularEditor_TranslatedDescriptions",
          "value": "{\"de-DE\":\"Kennung für Financialdimension8\",\"en-US\":\"Unique key field to dimension key\",\"nl-NL\":\"Unieke sleutel naar de unieke sleutel van de dimensie\"}"
        }
      ]
    },
    {
      "name": "DimensionValueNo",
      "dataType": "int64",
      "description": "Level name of Financial Dimension. NAV: Functional Management > Finance > Dimensions > Dimensions",
      "isHidden": true,
      "sourceColumn": "DimensionValueNo",
      "annotations": [
        {
          "name": "TabularEditor_TranslatedNames",
          "value": "{\"de-DE\":\"Dimensionswerte No\",\"en-US\":\"Dimension Value No\",\"nl-NL\":\"Dimensiewaarde no\"}"
        },
        {
          "name": "TabularEditor_TranslatedDescriptions",
          "value": "{\"de-DE\":\"Abteilungen > Verwaltung > Anwendung Einrichtung > Finanzmanagement > Dimensionen > Dimensionswerte\",\"en-US\":\"Level name of Financial Dimension. NAV: Functional Management > Finance > Dimensions > Dimensions\",\"nl-NL\":\"Dimensiewaarde. NAV: Functioneel beheer > Financieel > Dimensies > Dimensies > Dimensiewaarden\"}"
        }
      ]
    },
    {
      "name": "DimensionValueCode",
      "dataType": "string",
      "description": "Level name of Financial Dimension. NAV: Functional Management > Finance > Dimensions > Dimensions",
      "isHidden": true,
      "sourceColumn": "DimensionValueCode",
      "annotations": [
        {
          "name": "TabularEditor_TranslatedNames",
          "value": "{\"de-DE\":\"Dimensionswerte Code\",\"en-US\":\"Dimension Value Code\",\"nl-NL\":\"Dimensiewaarde code\"}"
        },
        {
          "name": "TabularEditor_TranslatedDescriptions",
          "value": "{\"de-DE\":\"Abteilungen > Verwaltung > Anwendung Einrichtung > Finanzmanagement > Dimensionen > Dimensionswerte\",\"en-US\":\"Level name of Financial Dimension. NAV: Functional Management > Finance > Dimensions > Dimensions\",\"nl-NL\":\"Dimensiewaarde. NAV: Functioneel beheer > Financieel > Dimensies > Dimensies > Dimensiewaarden\"}"
        }
      ]
    },
    {
      "name": "DimensionValueName",
      "dataType": "string",
      "description": "Level name of Financial Dimension. NAV: Functional Management > Finance > Dimensions > Dimensions",
      "isHidden": true,
      "sourceColumn": "DimensionValueName",
      "annotations": [
        {
          "name": "TabularEditor_TranslatedNames",
          "value": "{\"de-DE\":\"Dimensionswerte\",\"en-US\":\"Dimension Value\",\"nl-NL\":\"Dimensiewaarde\"}"
        },
        {
          "name": "TabularEditor_TranslatedDescriptions",
          "value": "{\"de-DE\":\"Abteilungen > Verwaltung > Anwendung Einrichtung > Finanzmanagement > Dimensionen > Dimensionswerte\",\"en-US\":\"Level name of Financial Dimension. NAV: Functional Management > Finance > Dimensions > Dimensions\",\"nl-NL\":\"Dimensiewaarde. NAV: Functioneel beheer > Financieel > Dimensies > Dimensies > Dimensiewaarden\"}"
        }
      ]
    },
    {
      "name": "DimensionValueCodeName",
      "dataType": "string",
      "description": "Level name of Financial Dimension. NAV: Functional Management > Finance > Dimensions > Dimensions",
      "sourceColumn": "DimensionValueCodeName",
      "annotations": [
        {
          "name": "TabularEditor_TranslatedNames",
          "value": "{\"de-DE\":\"Dimensionswerte Code Name\",\"en-US\":\"Dimension Value Code Name\",\"nl-NL\":\"Dimensiewaarde code naam\"}"
        },
        {
          "name": "TabularEditor_TranslatedDescriptions",
          "value": "{\"de-DE\":\"Abteilungen > Verwaltung > Anwendung Einrichtung > Finanzmanagement > Dimensionen > Dimensionswerte\",\"en-US\":\"Level name of Financial Dimension. NAV: Functional Management > Finance > Dimensions > Dimensions\",\"nl-NL\":\"Dimensiewaarde. NAV: Functioneel beheer > Financieel > Dimensies > Dimensies > Dimensiewaarden\"}"
        }
      ]
    },
    {
      "name": "LevelCode0",
      "dataType": "string",
      "description": "Level code of Financial Dimension. NAV: Functional Management > Finance > Dimensions > Dimensions",
      "isHidden": true,
      "sourceColumn": "LevelCode0",
      "annotations": [
        {
          "name": "TabularEditor_TranslatedNames",
          "value": "{\"de-DE\":\"Gruppen Code 0\",\"en-US\":\"Level Code 0\",\"nl-NL\":\"Niveau code 0\"}"
        },
        {
          "name": "TabularEditor_TranslatedDescriptions",
          "value": "{\"de-DE\":\"Abteilungen > Verwaltung > Anwendung Einrichtung > Finanzmanagement > Dimensionen > Dimensionswerte\",\"en-US\":\"Level code of Financial Dimension. NAV: Functional Management > Finance > Dimensions > Dimensions\",\"nl-NL\":\"Niveau code van de globale dimensie. NAV: Functioneel beheer > Financieel > Dimensies > Dimensies > Dimensiewaarden\"}"
        }
      ]
    },
    {
      "name": "LevelName0",
      "dataType": "string",
      "description": "Level name of Financial Dimension. NAV: Functional Management > Finance > Dimensions > Dimensions",
      "isHidden": true,
      "sourceColumn": "LevelName0",
      "annotations": [
        {
          "name": "TabularEditor_TranslatedNames",
          "value": "{\"de-DE\":\"Gruppen Name 0\",\"en-US\":\"Level Name 0\",\"nl-NL\":\"Niveau naam 0\"}"
        },
        {
          "name": "TabularEditor_TranslatedDescriptions",
          "value": "{\"de-DE\":\"Abteilungen > Verwaltung > Anwendung Einrichtung > Finanzmanagement > Dimensionen > Dimensionswerte\",\"en-US\":\"Level name of Financial Dimension. NAV: Functional Management > Finance > Dimensions > Dimensions\",\"nl-NL\":\"Niveau naam van de globale dimensie. NAV: Functioneel beheer > Financieel > Dimensies > Dimensies > Dimensiewaarden\"}"
        }
      ]
    },
    {
      "name": "LevelCodeName0",
      "dataType": "string",
      "description": "Level code and name of Financial Dimension. NAV: Functional Management > Finance > Dimensions > Dimensions",
      "sourceColumn": "LevelCodeName0",
      "annotations": [
        {
          "name": "TabularEditor_TranslatedNames",
          "value": "{\"de-DE\":\"Gruppen Code Name 0\",\"en-US\":\"Level 0\",\"nl-NL\":\"Niveau 0\"}"
        },
        {
          "name": "TabularEditor_TranslatedDescriptions",
          "value": "{\"de-DE\":\"Abteilungen > Verwaltung > Anwendung Einrichtung > Finanzmanagement > Dimensionen > Dimensionswerte\",\"en-US\":\"Level code and name of Financial Dimension. NAV: Functional Management > Finance > Dimensions > Dimensions\",\"nl-NL\":\"Niveau code en naam van de globale dimensie. NAV: Functioneel beheer > Financieel > Dimensies > Dimensies > Dimensiewaarden\"}"
        }
      ]
    },
    {
      "name": "LevelCode1",
      "dataType": "string",
      "description": "Level code of Financial Dimension. NAV: Functional Management > Finance > Dimensions > Dimensions",
      "isHidden": true,
      "sourceColumn": "LevelCode1",
      "annotations": [
        {
          "name": "TabularEditor_TranslatedNames",
          "value": "{\"de-DE\":\"Gruppen Code 1\",\"en-US\":\"Level Code 1\",\"nl-NL\":\"Niveau code 1\"}"
        },
        {
          "name": "TabularEditor_TranslatedDescriptions",
          "value": "{\"de-DE\":\"Abteilungen > Verwaltung > Anwendung Einrichtung > Finanzmanagement > Dimensionen > Dimensionswerte\",\"en-US\":\"Level code of Financial Dimension. NAV: Functional Management > Finance > Dimensions > Dimensions\",\"nl-NL\":\"Niveau code van de globale dimensie. NAV: Functioneel beheer > Financieel > Dimensies > Dimensies > Dimensiewaarden\"}"
        }
      ]
    },
    {
      "name": "LevelName1",
      "dataType": "string",
      "description": "Level name of Financial Dimension. NAV: Functional Management > Finance > Dimensions > Dimensions",
      "isHidden": true,
      "sourceColumn": "LevelName1",
      "annotations": [
        {
          "name": "TabularEditor_TranslatedNames",
          "value": "{\"de-DE\":\"Gruppen Name 1\",\"en-US\":\"Level Name 1\",\"nl-NL\":\"Niveau naam 1\"}"
        },
        {
          "name": "TabularEditor_TranslatedDescriptions",
          "value": "{\"de-DE\":\"Abteilungen > Verwaltung > Anwendung Einrichtung > Finanzmanagement > Dimensionen > Dimensionswerte\",\"en-US\":\"Level name of Financial Dimension. NAV: Functional Management > Finance > Dimensions > Dimensions\",\"nl-NL\":\"Niveau naam van de globale dimensie. NAV: Functioneel beheer > Financieel > Dimensies > Dimensies > Dimensiewaarden\"}"
        }
      ]
    },
    {
      "name": "LevelCodeName1",
      "dataType": "string",
      "description": "Level code and name of Financial Dimension. NAV: Functional Management > Finance > Dimensions > Dimensions",
      "sourceColumn": "LevelCodeName1",
      "annotations": [
        {
          "name": "TabularEditor_TranslatedNames",
          "value": "{\"de-DE\":\"Gruppen Code Name 1\",\"en-US\":\"Level 1\",\"nl-NL\":\"Niveau 1\"}"
        },
        {
          "name": "TabularEditor_TranslatedDescriptions",
          "value": "{\"de-DE\":\"Abteilungen > Verwaltung > Anwendung Einrichtung > Finanzmanagement > Dimensionen > Dimensionswerte\",\"en-US\":\"Level code and name of Financial Dimension. NAV: Functional Management > Finance > Dimensions > Dimensions\",\"nl-NL\":\"Niveau code en naam van de globale dimensie. NAV: Functioneel beheer > Financieel > Dimensies > Dimensies > Dimensiewaarden\"}"
        }
      ]
    },
    {
      "name": "LevelCode2",
      "dataType": "string",
      "description": "Level code of Financial Dimension. NAV: Functional Management > Finance > Dimensions > Dimensions",
      "isHidden": true,
      "sourceColumn": "LevelCode2",
      "annotations": [
        {
          "name": "TabularEditor_TranslatedNames",
          "value": "{\"de-DE\":\"Gruppen Code 2\",\"en-US\":\"Level Code 2\",\"nl-NL\":\"Niveau code 2\"}"
        },
        {
          "name": "TabularEditor_TranslatedDescriptions",
          "value": "{\"de-DE\":\"Abteilungen > Verwaltung > Anwendung Einrichtung > Finanzmanagement > Dimensionen > Dimensionswerte\",\"en-US\":\"Level code of Financial Dimension. NAV: Functional Management > Finance > Dimensions > Dimensions\",\"nl-NL\":\"Niveau code van de globale dimensie. NAV: Functioneel beheer > Financieel > Dimensies > Dimensies > Dimensiewaarden\"}"
        }
      ]
    },
    {
      "name": "LevelName2",
      "dataType": "string",
      "description": "Level name of Financial Dimension. NAV: Functional Management > Finance > Dimensions > Dimensions",
      "isHidden": true,
      "sourceColumn": "LevelName2",
      "annotations": [
        {
          "name": "TabularEditor_TranslatedNames",
          "value": "{\"de-DE\":\"Gruppen Name 2\",\"en-US\":\"Level Name 2\",\"nl-NL\":\"Niveau naam 2\"}"
        },
        {
          "name": "TabularEditor_TranslatedDescriptions",
          "value": "{\"de-DE\":\"Abteilungen > Verwaltung > Anwendung Einrichtung > Finanzmanagement > Dimensionen > Dimensionswerte\",\"en-US\":\"Level name of Financial Dimension. NAV: Functional Management > Finance > Dimensions > Dimensions\",\"nl-NL\":\"Niveau naam van de globale dimensie. NAV: Functioneel beheer > Financieel > Dimensies > Dimensies > Dimensiewaarden\"}"
        }
      ]
    },
    {
      "name": "LevelCodeName2",
      "dataType": "string",
      "description": "Level code and name of Financial Dimension. NAV: Functional Management > Finance > Dimensions > Dimensions",
      "sourceColumn": "LevelCodeName2",
      "annotations": [
        {
          "name": "TabularEditor_TranslatedNames",
          "value": "{\"de-DE\":\"Gruppen Code Name 2\",\"en-US\":\"Level 2\",\"nl-NL\":\"Niveau 2\"}"
        },
        {
          "name": "TabularEditor_TranslatedDescriptions",
          "value": "{\"de-DE\":\"Abteilungen > Verwaltung > Anwendung Einrichtung > Finanzmanagement > Dimensionen > Dimensionswerte\",\"en-US\":\"Level code and name of Financial Dimension. NAV: Functional Management > Finance > Dimensions > Dimensions\",\"nl-NL\":\"Niveau code en naam van de globale dimensie. NAV: Functioneel beheer > Financieel > Dimensies > Dimensies > Dimensiewaarden\"}"
        }
      ]
    },
    {
      "name": "LevelCode3",
      "dataType": "string",
      "description": "Level code of Financial Dimension. NAV: Functional Management > Finance > Dimensions > Dimensions",
      "isHidden": true,
      "sourceColumn": "LevelCode3",
      "annotations": [
        {
          "name": "TabularEditor_TranslatedNames",
          "value": "{\"de-DE\":\"Gruppen Code 3\",\"en-US\":\"Level Code 3\",\"nl-NL\":\"Niveau code 3\"}"
        },
        {
          "name": "TabularEditor_TranslatedDescriptions",
          "value": "{\"de-DE\":\"Abteilungen > Verwaltung > Anwendung Einrichtung > Finanzmanagement > Dimensionen > Dimensionswerte\",\"en-US\":\"Level code of Financial Dimension. NAV: Functional Management > Finance > Dimensions > Dimensions\",\"nl-NL\":\"Niveau code van de globale dimensie. NAV: Functioneel beheer > Financieel > Dimensies > Dimensies > Dimensiewaarden\"}"
        }
      ]
    },
    {
      "name": "LevelName3",
      "dataType": "string",
      "description": "Level name of Financial Dimension. NAV: Functional Management > Finance > Dimensions > Dimensions",
      "isHidden": true,
      "sourceColumn": "LevelName3",
      "annotations": [
        {
          "name": "TabularEditor_TranslatedNames",
          "value": "{\"de-DE\":\"Gruppen Name 3\",\"en-US\":\"Level Name 3\",\"nl-NL\":\"Niveau naam 3\"}"
        },
        {
          "name": "TabularEditor_TranslatedDescriptions",
          "value": "{\"de-DE\":\"Abteilungen > Verwaltung > Anwendung Einrichtung > Finanzmanagement > Dimensionen > Dimensionswerte\",\"en-US\":\"Level name of Financial Dimension. NAV: Functional Management > Finance > Dimensions > Dimensions\",\"nl-NL\":\"Niveau naam van de globale dimensie. NAV: Functioneel beheer > Financieel > Dimensies > Dimensies > Dimensiewaarden\"}"
        }
      ]
    },
    {
      "name": "LevelCodeName3",
      "dataType": "string",
      "description": "Level code and name of Financial Dimension. NAV: Functional Management > Finance > Dimensions > Dimensions",
      "sourceColumn": "LevelCodeName3",
      "annotations": [
        {
          "name": "TabularEditor_TranslatedNames",
          "value": "{\"de-DE\":\"Gruppen Code Name 3\",\"en-US\":\"Level 3\",\"nl-NL\":\"Niveau 3\"}"
        },
        {
          "name": "TabularEditor_TranslatedDescriptions",
          "value": "{\"de-DE\":\"Abteilungen > Verwaltung > Anwendung Einrichtung > Finanzmanagement > Dimensionen > Dimensionswerte\",\"en-US\":\"Level code and name of Financial Dimension. NAV: Functional Management > Finance > Dimensions > Dimensions\",\"nl-NL\":\"Niveau code en naam van de globale dimensie. NAV: Functioneel beheer > Financieel > Dimensies > Dimensies > Dimensiewaarden\"}"
        }
      ]
    },
    {
      "name": "LevelCode4",
      "dataType": "string",
      "description": "Level code of Financial Dimension. NAV: Functional Management > Finance > Dimensions > Dimensions",
      "isHidden": true,
      "sourceColumn": "LevelCode4",
      "annotations": [
        {
          "name": "TabularEditor_TranslatedNames",
          "value": "{\"de-DE\":\"Gruppen Code 4\",\"en-US\":\"Level Code 4\",\"nl-NL\":\"Niveau code 4\"}"
        },
        {
          "name": "TabularEditor_TranslatedDescriptions",
          "value": "{\"de-DE\":\"Abteilungen > Verwaltung > Anwendung Einrichtung > Finanzmanagement > Dimensionen > Dimensionswerte\",\"en-US\":\"Level code of Financial Dimension. NAV: Functional Management > Finance > Dimensions > Dimensions\",\"nl-NL\":\"Niveau code van de globale dimensie. NAV: Functioneel beheer > Financieel > Dimensies > Dimensies > Dimensiewaarden\"}"
        }
      ]
    },
    {
      "name": "LevelName4",
      "dataType": "string",
      "description": "Level name of Financial Dimension. NAV: Functional Management > Finance > Dimensions > Dimensions",
      "isHidden": true,
      "sourceColumn": "LevelName4",
      "annotations": [
        {
          "name": "TabularEditor_TranslatedNames",
          "value": "{\"de-DE\":\"Gruppen Name 4\",\"en-US\":\"Level Name 4\",\"nl-NL\":\"Niveau naam 4\"}"
        },
        {
          "name": "TabularEditor_TranslatedDescriptions",
          "value": "{\"de-DE\":\"Abteilungen > Verwaltung > Anwendung Einrichtung > Finanzmanagement > Dimensionen > Dimensionswerte\",\"en-US\":\"Level name of Financial Dimension. NAV: Functional Management > Finance > Dimensions > Dimensions\",\"nl-NL\":\"Niveau naam van de globale dimensie. NAV: Functioneel beheer > Financieel > Dimensies > Dimensies > Dimensiewaarden\"}"
        }
      ]
    },
    {
      "name": "LevelCodeName4",
      "dataType": "string",
      "description": "Level code and name of Financial Dimension. NAV: Functional Management > Finance > Dimensions > Dimensions",
      "sourceColumn": "LevelCodeName4",
      "annotations": [
        {
          "name": "TabularEditor_TranslatedNames",
          "value": "{\"de-DE\":\"Gruppen Code Name 4\",\"en-US\":\"Level 4\",\"nl-NL\":\"Niveau 4\"}"
        },
        {
          "name": "TabularEditor_TranslatedDescriptions",
          "value": "{\"de-DE\":\"Abteilungen > Verwaltung > Anwendung Einrichtung > Finanzmanagement > Dimensionen > Dimensionswerte\",\"en-US\":\"Level code and name of Financial Dimension. NAV: Functional Management > Finance > Dimensions > Dimensions\",\"nl-NL\":\"Niveau code en naam van de globale dimensie. NAV: Functioneel beheer > Financieel > Dimensies > Dimensies > Dimensiewaarden\"}"
        }
      ]
    }
  ],
  "partitions": [
    {
      "name": "New Partition",
      "source": {
        "type": "query",
        "query": "SELECT * FROM tabular.FinancialDimension8",
        "dataSource": "Birds"
      }
    }
  ],
  "annotations": [
    {
      "name": "ContentPacks",
      "value": "Standard"
    },
    {
      "name": "TabularEditor_TranslatedNames",
      "value": "{\"de-DE\":\"Finanzdimension 8\",\"en-US\":\"Financial Dimension 8\",\"nl-NL\":\"Financiele Dimensie 8\"}"
    },
    {
      "name": "TabularEditor_Relationships",
      "value": "[]"
    }
  ]
}