{
  "name": "TransferOrderQuantityShippedBase_SPLY_Variance_TO",
  "description": " SPLY Variance",
  "expression": "[TransferOrderQuantityShippedBase_TO] - [TransferOrderQuantityShippedBase_SPLY_TO]",
  "formatString": "#,##0.00",
  "displayFolder": "Σ SPLY Variance",
  "annotations": [
    {
      "name": "TabularEditor_TranslatedNames",
      "value": "{\"de-DE\":\"Umlagerungsaufträge Menge geliefert (Basis) SPLY Varianz\",\"en-US\":\"Quantity Shipped (Base) SPLY Variance\",\"nl-NL\":\"Verzonden aantal (basis) SPLY Variance\"}"
    },
    {
      "name": "TabularEditor_TranslatedDescriptions",
      "value": "{\"de-DE\":\"Abteilungen/Lager/Aufträge & Kontakte/Umlagerungsaufträge/Zeilen\",\"en-US\":\"Departments/Inventory and Warehouse/Order Processing/General/Transfer Orders/Quantity Shipped (Base) SPLY Variance\",\"nl-NL\":\"Afdelingen/Voorraad en magazijn/Orderverwerking/Algemeen/Transferorders/Verzonden aantal (basis) SPLY Variance\"}"
    },
    {
      "name": "TabularEditor_TranslatedDisplayFolders",
      "value": "{\"de-DE\":\"Σ SPLY Varianz\",\"en-US\":\"Σ SPLY Variance\",\"nl-NL\":\"Σ SPLY Variance\"}"
    }
  ]
}