{
  "name": "TransferOrderOutstandingQuantityBase_SPLY_Variance%_TO",
  "description": " SPLY Variance %",
  "expression": "DIVIDE ( [TransferOrderOutstandingQuantityBase_TO] - [TransferOrderOutstandingQuantityBase_SPLY_TO], [TransferOrderOutstandingQuantityBase_SPLY_TO] )",
  "formatString": "#,##0.0 %",
  "displayFolder": "Σ SPLY Variance",
  "annotations": [
    {
      "name": "TabularEditor_TranslatedNames",
      "value": "{\"de-DE\":\"Umlagerungsaufträge Restauftragsmenge (Basis) SPLY Varianz %\",\"en-US\":\"Outstanding Quantity (Base) SPLY Variance %\",\"nl-NL\":\"Openstaand aantal (basis) SPLY Variance %\"}"
    },
    {
      "name": "TabularEditor_TranslatedDescriptions",
      "value": "{\"de-DE\":\"Abteilungen/Lager/Aufträge & Kontakte/Umlagerungsaufträge/Zeilen\",\"en-US\":\"Departments/Inventory and Warehouse/Order Processing/General/Transfer Orders/Outstanding Quantity (Base) SPLY Variance %\",\"nl-NL\":\"Afdelingen/Voorraad en magazijn/Orderverwerking/Algemeen/Transferorders/Openstaand aantal (basis) SPLY Variance %\"}"
    },
    {
      "name": "TabularEditor_TranslatedDisplayFolders",
      "value": "{\"de-DE\":\"Σ SPLY Varianz\",\"en-US\":\"Σ SPLY Variance\",\"nl-NL\":\"Σ SPLY Variance\"}"
    }
  ]
}