{
  "name": "CostAmountPostedToGL_SPLY_Variance%_PVE",
  "description": "Departments/Item Management/General Data/Items > Items > Entries > Value Entries > item ledger entry type = purchase > Cost Amount Posted To GL",
  "expression": [
    "DIVIDE (",
    "    [CostAmountPostedToGL_SPLY_Variance_PVE],",
    "    [CostAmountPostedToGL_SPLY_PVE]",
    ")"
  ],
  "formatString": "#,##0.0 %",
  "displayFolder": "Σ SPLY Variance",
  "annotations": [
    {
      "name": "TabularEditor_TranslatedNames",
      "value": "{\"de-DE\":\"Gebuchte Lagerregulierung (BW) SPLY Varianz %\",\"en-US\":\"Cost Amount Posted To GL SPLY Variance %\",\"nl-NL\":\"Geboekte kosten SPLY verschil %\"}"
    },
    {
      "name": "TabularEditor_TranslatedDescriptions",
      "value": "{\"de-DE\":\"Startseite/Artikel/Posten/Posten/Wertposten\",\"en-US\":\"Departments/Item Management/General Data/Items > Items > Entries > Value Entries > item ledger entry type = purchase > Cost Amount Posted To GL\",\"nl-NL\":\"Afdelingen/Artikelbeheer/Stamgegevens/Artikelen > Posten > Waardeposten > Voorraad waarde geboekt\"}"
    },
    {
      "name": "TabularEditor_TranslatedDisplayFolders",
      "value": "{\"de-DE\":\"Σ SPLY Varianz\",\"en-US\":\"Σ SPLY Variance\"}"
    }
  ]
}