{
  "name": "DiscountAmount_YTD_PVE",
  "description": "Departments/Item Management/General Data/Items > Items > Entries > Value Entries > item ledger entry type = purchase > Discount Amount",
  "expression": [
    "VAR YTD0 =",
    "    FILTER (",
    "        ALL ( 'Date' ),",
    "        'Date'[CYearNo] = MAX ( 'Date'[CYearNo] )",
    "            && 'Date'[DateID] <= MAX ( 'Date'[DateID] )",
    "    )",
    "RETURN",
    "    CALCULATE ( [DiscountAmount_PVE], YTD0 )"
  ],
  "formatString": "#,##0.00",
  "displayFolder": "Σ YTD",
  "annotations": [
    {
      "name": "TabularEditor_TranslatedNames",
      "value": "{\"de-DE\":\"Rabatt YTD\",\"en-US\":\"Discount Amount YTD\",\"nl-NL\":\"Korting YTD\"}"
    },
    {
      "name": "TabularEditor_TranslatedDescriptions",
      "value": "{\"de-DE\":\"Startseite/Artikel/Posten/Posten/Wertposten\",\"en-US\":\"Departments/Item Management/General Data/Items > Items > Entries > Value Entries > item ledger entry type = purchase > Discount Amount\",\"nl-NL\":\"Afdelingen/Artikelbeheer/Stamgegevens/Artikelen > Posten > Waardeposten > Totale Korting\"}"
    },
    {
      "name": "TabularEditor_TranslatedDisplayFolders",
      "value": "{\"de-DE\":\"Σ YTD\",\"en-US\":\"Σ YTD\",\"nl-NL\":\"Σ YTD\"}"
    }
  ]
}