{
  "name": "GrossAmount_SPLY_Index_PVE",
  "description": "Purchase Amount + Discount Amount",
  "expression": "DIVIDE ( [GrossAmount_PVE], [GrossAmount_SPLY_PVE] ) * 100",
  "formatString": "#,##0.00",
  "displayFolder": "Σ SPLY Variance",
  "annotations": [
    {
      "name": "TabularEditor_TranslatedNames",
      "value": "{\"de-DE\":\"Brutto Einkaufsbetrag SPLY Index\",\"en-US\":\"Gross Amount SPLY Index\",\"nl-NL\":\"Bruto inkoopbedrag SPLY Index\"}"
    },
    {
      "name": "TabularEditor_TranslatedDescriptions",
      "value": "{\"de-DE\":\"Startseite/Artikel/Posten/Posten/Wertposten\",\"en-US\":\"Purchase Amount + Discount Amount\",\"nl-NL\":\"Geboekte kosten - Korting\"}"
    },
    {
      "name": "TabularEditor_TranslatedDisplayFolders",
      "value": "{\"de-DE\":\"Σ SPLY Varianz\",\"en-US\":\"Σ SPLY Variance\"}"
    }
  ]
}