{
  "name": "Quantity_RY_IIL",
  "description": "Departments/Item Management/General Data/Items > Entries > Ledger Entry > Quantity ",
  "expression": [
    "VAR RY0 =",
    "    FILTER (",
    "        ALL ( 'Date' ),",
    "        'Date'[DateID] <= MAX ( 'Date'[DateID] )",
    "            && 'Date'[Date] > MAX ( 'Date'[TDatePY] )",
    "    )",
    "RETURN",
    "    CALCULATE ( [Quantity_IIL], RY0 )"
  ],
  "formatString": "#,##0",
  "displayFolder": "Σ RY",
  "annotations": [
    {
      "name": "TabularEditor_TranslatedNames",
      "value": "{\"de-DE\":\"Menge RY\",\"en-US\":\"Quantity RY\",\"nl-NL\":\"Aantallen RY\"}"
    },
    {
      "name": "TabularEditor_TranslatedDescriptions",
      "value": "{\"de-DE\":\"Abteilungen/Lager/Historie/Historie/Artikelposten/Zeilen\",\"en-US\":\"Departments/Item Management/General Data/Items > Entries > Ledger Entry > Quantity \",\"nl-NL\":\"Afdelingen/Artikelbeheer/Stamgegevens/Artikelen > Posten > Posten > Aantal waar volgnummer = 1,3,5\"}"
    },
    {
      "name": "TabularEditor_TranslatedDisplayFolders",
      "value": "{\"de-DE\":\"Σ RY\",\"en-US\":\"Σ RY\",\"nl-NL\":\"Σ RY\"}"
    }
  ]
}