{
  "name": "SKUonStock_MTD_IIL",
  "description": "Count of unique items which have an inventory quantity higher than 0 ",
  "expression": [
    "VAR MTD0 =",
    "    FILTER (",
    "        ALL ( 'Date' ),",
    "        'Date'[DateID] <= MAX ( 'Date'[DateID] )",
    "            && 'Date'[CYearMonthNo] = MAX ( 'Date'[CYearMonthNo] )",
    "    )",
    "RETURN",
    "    CALCULATE ( [SKUonStock_IIL], MTD0 )"
  ],
  "displayFolder": "Σ MTD",
  "annotations": [
    {
      "name": "TabularEditor_TranslatedNames",
      "value": "{\"de-DE\":\"Lagerbestand MTD\",\"en-US\":\"#SKU on Stock MTD\",\"nl-NL\":\"Artikelen op voorraad MTD\"}"
    },
    {
      "name": "TabularEditor_TranslatedDescriptions",
      "value": "{\"de-DE\":\"Abteilungen/Lager/Historie/Historie/Artikelposten/Zeilen\",\"en-US\":\"Count of unique items which have an inventory quantity higher than 0 \",\"nl-NL\":\"Telling van uniek aantal artikelen met een voorraadhoeveelheid hoger dan 0 \"}"
    },
    {
      "name": "TabularEditor_TranslatedDisplayFolders",
      "value": "{\"de-DE\":\"Σ MTD\",\"en-US\":\"Σ MTD\",\"nl-NL\":\"Σ MTD\"}"
    }
  ]
}