{
  "base_name": "CashFlowForecastEntry",
  "category": "fact",
  "database_object": {
    "table_identifier": "fact.CashFlowForecastEntry",
    "columns": [
      {
        "column_name": "ExecutionTimestamp",
        "data_type": "timestamp",
        "character_maximum_length": null,
        "numeric_precision": null,
        "numeric_scale": null,
        "nullable": false,
        "business_key": false
      },
      {
        "column_name": "ComponentExecutionID",
        "data_type": "int",
        "character_maximum_length": null,
        "numeric_precision": 10,
        "numeric_scale": 0,
        "nullable": false,
        "business_key": false
      },
      {
        "column_name": "ExecutionFlag",
        "data_type": "nvarchar",
        "character_maximum_length": 10,
        "numeric_precision": null,
        "numeric_scale": null,
        "nullable": false,
        "business_key": false
      },
      {
        "column_name": "FinancialDimension1ID",
        "data_type": "int",
        "character_maximum_length": null,
        "numeric_precision": 10,
        "numeric_scale": 0,
        "nullable": true,
        "business_key": false
      },
      {
        "column_name": "FinancialDimension2ID",
        "data_type": "int",
        "character_maximum_length": null,
        "numeric_precision": 10,
        "numeric_scale": 0,
        "nullable": true,
        "business_key": false
      },
      {
        "column_name": "FinancialDimension3ID",
        "data_type": "int",
        "character_maximum_length": null,
        "numeric_precision": 10,
        "numeric_scale": 0,
        "nullable": true,
        "business_key": false
      },
      {
        "column_name": "FinancialDimension4ID",
        "data_type": "int",
        "character_maximum_length": null,
        "numeric_precision": 10,
        "numeric_scale": 0,
        "nullable": true,
        "business_key": false
      },
      {
        "column_name": "FinancialDimension5ID",
        "data_type": "int",
        "character_maximum_length": null,
        "numeric_precision": 10,
        "numeric_scale": 0,
        "nullable": true,
        "business_key": false
      },
      {
        "column_name": "FinancialDimension6ID",
        "data_type": "int",
        "character_maximum_length": null,
        "numeric_precision": 10,
        "numeric_scale": 0,
        "nullable": true,
        "business_key": false
      },
      {
        "column_name": "FinancialDimension7ID",
        "data_type": "int",
        "character_maximum_length": null,
        "numeric_precision": 10,
        "numeric_scale": 0,
        "nullable": true,
        "business_key": false
      },
      {
        "column_name": "FinancialDimension8ID",
        "data_type": "int",
        "character_maximum_length": null,
        "numeric_precision": 10,
        "numeric_scale": 0,
        "nullable": true,
        "business_key": false
      },
      {
        "column_name": "StageID",
        "data_type": "int",
        "character_maximum_length": null,
        "numeric_precision": 10,
        "numeric_scale": 0,
        "nullable": false,
        "business_key": false
      },
      {
        "column_name": "CompanyID",
        "data_type": "int",
        "character_maximum_length": null,
        "numeric_precision": 10,
        "numeric_scale": 0,
        "nullable": false,
        "business_key": false
      },
      {
        "column_name": "DataConnectionID",
        "data_type": "int",
        "character_maximum_length": null,
        "numeric_precision": 10,
        "numeric_scale": 0,
        "nullable": false,
        "business_key": false
      },
      {
        "column_name": "BudgetModelID",
        "data_type": "int",
        "character_maximum_length": null,
        "numeric_precision": 10,
        "numeric_scale": 0,
        "nullable": false,
        "business_key": false
      },
      {
        "column_name": "CashflowSourceTypeID",
        "data_type": "int",
        "character_maximum_length": null,
        "numeric_precision": 10,
        "numeric_scale": 0,
        "nullable": false,
        "business_key": false
      },
      {
        "column_name": "CashflowAccountID",
        "data_type": "int",
        "character_maximum_length": null,
        "numeric_precision": 10,
        "numeric_scale": 0,
        "nullable": false,
        "business_key": false
      },
      {
        "column_name": "CashflowForecastDateID",
        "data_type": "int",
        "character_maximum_length": null,
        "numeric_precision": 10,
        "numeric_scale": 0,
        "nullable": false,
        "business_key": false
      },
      {
        "column_name": "CashFlowForecastID",
        "data_type": "int",
        "character_maximum_length": null,
        "numeric_precision": 10,
        "numeric_scale": 0,
        "nullable": false,
        "business_key": false
      },
      {
        "column_name": "DocumentCashflowID",
        "data_type": "int",
        "character_maximum_length": null,
        "numeric_precision": 10,
        "numeric_scale": 0,
        "nullable": false,
        "business_key": false
      },
      {
        "column_name": "Amount_LCY",
        "data_type": "decimal",
        "character_maximum_length": null,
        "numeric_precision": 19,
        "numeric_scale": 4,
        "nullable": true,
        "business_key": false
      },
      {
        "column_name": "PaymentDiscountAmount_LCY",
        "data_type": "decimal",
        "character_maximum_length": null,
        "numeric_precision": 19,
        "numeric_scale": 4,
        "nullable": true,
        "business_key": false
      },
      {
        "column_name": "Amount_RCY",
        "data_type": "decimal",
        "character_maximum_length": null,
        "numeric_precision": 19,
        "numeric_scale": 4,
        "nullable": true,
        "business_key": false
      },
      {
        "column_name": "PaymentDiscountAmount_RCY",
        "data_type": "decimal",
        "character_maximum_length": null,
        "numeric_precision": 19,
        "numeric_scale": 4,
        "nullable": true,
        "business_key": false
      }
    ],
    "indexes": []
  },
  "load_procedures": [],
  "views": null,
  "queries": [
    {
      "name": "default",
      "select_file_path": "default.sql",
      "sequence": 200,
      "aliases": [
        {
          "name": "CFFE",
          "type": "primary"
        }
      ]
    }
  ],
  "query_columns": [
    {
      "column_sequence": 1,
      "column_name": "StageID",
      "data_type_full": "int",
      "type": "incremental_key"
    },
    {
      "column_sequence": 2,
      "column_name": "CompanyID",
      "data_type_full": "int",
      "type": "system_key"
    },
    {
      "column_sequence": 3,
      "column_name": "DataConnectionID",
      "data_type_full": "int",
      "type": "system_key"
    },
    {
      "column_sequence": 4,
      "column_name": "BudgetModelName",
      "data_type_full": "nvarchar(255)",
      "type": "dimension_business_key"
    },
    {
      "column_sequence": 5,
      "column_name": "CashflowDocumentCode",
      "data_type_full": "nvarchar(255)",
      "type": "dimension_business_key"
    },
    {
      "column_sequence": 6,
      "column_name": "CashflowDocumentEntryNo",
      "data_type_full": "int",
      "type": "dimension_business_key"
    },
    {
      "column_sequence": 7,
      "column_name": "CashflowAccountCode",
      "data_type_full": "nvarchar(255)",
      "type": "dimension_business_key"
    },
    {
      "column_sequence": 8,
      "column_name": "CashflowForecastCode",
      "data_type_full": "nvarchar(255)",
      "type": "dimension_business_key"
    },
    {
      "column_sequence": 9,
      "column_name": "CashflowForecastSourceCode",
      "data_type_full": "nvarchar(255)",
      "type": "dimension_business_key"
    },
    {
      "column_sequence": 10,
      "column_name": "CashflowForecastDate",
      "data_type_full": "datetime2",
      "type": "dimension_business_key"
    },
    {
      "column_sequence": 11,
      "column_name": "CashflowSourceTypeCode",
      "data_type_full": "int",
      "type": "dimension_business_key"
    },
    {
      "column_sequence": 12,
      "column_name": "FinancialDimension1ID",
      "data_type_full": "int",
      "type": "attribute"
    },
    {
      "column_sequence": 13,
      "column_name": "FinancialDimension2ID",
      "data_type_full": "int",
      "type": "attribute"
    },
    {
      "column_sequence": 14,
      "column_name": "FinancialDimension3ID",
      "data_type_full": "int",
      "type": "attribute"
    },
    {
      "column_sequence": 15,
      "column_name": "FinancialDimension4ID",
      "data_type_full": "int",
      "type": "attribute"
    },
    {
      "column_sequence": 16,
      "column_name": "FinancialDimension5ID",
      "data_type_full": "int",
      "type": "attribute"
    },
    {
      "column_sequence": 17,
      "column_name": "FinancialDimension6ID",
      "data_type_full": "int",
      "type": "attribute"
    },
    {
      "column_sequence": 18,
      "column_name": "FinancialDimension7ID",
      "data_type_full": "int",
      "type": "attribute"
    },
    {
      "column_sequence": 19,
      "column_name": "FinancialDimension8ID",
      "data_type_full": "int",
      "type": "attribute"
    },
    {
      "column_sequence": 20,
      "column_name": "Amount_LCY",
      "data_type_full": "decimal(19, 4)",
      "type": "measure"
    },
    {
      "column_sequence": 21,
      "column_name": "PaymentDiscountAmount_LCY",
      "data_type_full": "decimal(19, 4)",
      "type": "measure"
    },
    {
      "column_sequence": 22,
      "column_name": "Amount_RCY",
      "data_type_full": "decimal(19, 4)",
      "type": "measure"
    },
    {
      "column_sequence": 23,
      "column_name": "PaymentDiscountAmount_RCY",
      "data_type_full": "decimal(19, 4)",
      "type": "measure"
    }
  ],
  "dimensions": [
    {
      "dimension": "BudgetModel",
      "role_playing": "BudgetModel",
      "dimension_joins": [
        {
          "delta_column": "CompanyID",
          "dimension_column": "CompanyID"
        },
        {
          "delta_column": "DataConnectionID",
          "dimension_column": "DataConnectionID"
        },
        {
          "delta_column": "BudgetModelName",
          "dimension_column": "BudgetModelName"
        }
      ]
    },
    {
      "dimension": "CashflowSourceType",
      "role_playing": "CashflowSourceType",
      "dimension_joins": [
        {
          "delta_column": "CashflowSourceTypeCode",
          "dimension_column": "CashflowSourceTypeCode"
        },
        {
          "delta_column": "DataConnectionID",
          "dimension_column": "DataConnectionID"
        }
      ]
    },
    {
      "dimension": "CashflowAccount",
      "role_playing": "CashflowAccount",
      "dimension_joins": [
        {
          "delta_column": "CompanyID",
          "dimension_column": "CompanyID"
        },
        {
          "delta_column": "DataConnectionID",
          "dimension_column": "DataConnectionID"
        },
        {
          "delta_column": "CashflowAccountCode",
          "dimension_column": "CashflowAccountCode"
        }
      ]
    },
    {
      "dimension": "Date",
      "role_playing": "CashflowForecastDate",
      "dimension_joins": [
        {
          "delta_column": "CashflowForecastDate",
          "dimension_column": "Date"
        }
      ]
    },
    {
      "dimension": "CashFlowForecast",
      "role_playing": "CashFlowForecast",
      "dimension_joins": [
        {
          "delta_column": "CompanyID",
          "dimension_column": "CompanyID"
        },
        {
          "delta_column": "DataConnectionID",
          "dimension_column": "DataConnectionID"
        },
        {
          "delta_column": "CashflowForecastCode",
          "dimension_column": "CashflowForecastCode"
        }
      ]
    },
    {
      "dimension": "DocumentCashflow",
      "role_playing": "DocumentCashflow",
      "dimension_joins": [
        {
          "delta_column": "CompanyID",
          "dimension_column": "CompanyID"
        },
        {
          "delta_column": "DataConnectionID",
          "dimension_column": "DataConnectionID"
        },
        {
          "delta_column": "CashflowDocumentCode",
          "dimension_column": "CashflowDocumentCode"
        },
        {
          "delta_column": "CashflowDocumentEntryNo",
          "dimension_column": "CashflowDocumentEntryNo"
        }
      ]
    }
  ],
  "load_type": 1,
  "manual_mode": false,
  "is_customized": false
}