{
  "name": "factSalesOrder",
  "columns": [
    {
      "name": "CompanyID",
      "dataType": "int64",
      "description": "System column for technical purposes",
      "isHidden": true,
      "sourceColumn": "CompanyID",
      "sourceProviderType": "Int32",
      "annotations": [
        {
          "name": "TabularEditor_TranslatedNames",
          "value": "{\"de-DE\":\"CompanyID\",\"en-US\":\"CompanyID\",\"nl-NL\":\"CompanyID\"}"
        },
        {
          "name": "TabularEditor_TranslatedDescriptions",
          "value": "{\"de-DE\":\"Kennung für Company\",\"en-US\":\"System column for technical purposes\",\"nl-NL\":\"Systeemkolom technische doeleinden\"}"
        }
      ]
    },
    {
      "name": "FinancialDimension1ID",
      "dataType": "int64",
      "description": "System column for technical purposes",
      "isHidden": true,
      "sourceColumn": "FinancialDimension1ID",
      "sourceProviderType": "Int32",
      "annotations": [
        {
          "name": "TabularEditor_TranslatedNames",
          "value": "{\"de-DE\":\"FinancialDimension1ID\",\"en-US\":\"FinancialDimension1ID\",\"nl-NL\":\"FinancialDimension1ID\"}"
        },
        {
          "name": "TabularEditor_TranslatedDescriptions",
          "value": "{\"de-DE\":\"Kennung für Financialdimension1\",\"en-US\":\"System column for technical purposes\",\"nl-NL\":\"Systeemkolom technische doeleinden\"}"
        }
      ]
    },
    {
      "name": "FinancialDimension2ID",
      "dataType": "int64",
      "description": "System column for technical purposes",
      "isHidden": true,
      "sourceColumn": "FinancialDimension2ID",
      "sourceProviderType": "Int32",
      "annotations": [
        {
          "name": "TabularEditor_TranslatedNames",
          "value": "{\"de-DE\":\"FinancialDimension2ID\",\"en-US\":\"FinancialDimension2ID\",\"nl-NL\":\"FinancialDimension2ID\"}"
        },
        {
          "name": "TabularEditor_TranslatedDescriptions",
          "value": "{\"de-DE\":\"Kennung für Financialdimension2\",\"en-US\":\"System column for technical purposes\",\"nl-NL\":\"Systeemkolom technische doeleinden\"}"
        }
      ]
    },
    {
      "name": "FinancialDimension3ID",
      "dataType": "int64",
      "description": "System column for technical purposes",
      "isHidden": true,
      "sourceColumn": "FinancialDimension3ID",
      "sourceProviderType": "Int32",
      "annotations": [
        {
          "name": "TabularEditor_TranslatedNames",
          "value": "{\"de-DE\":\"FinancialDimension3ID\",\"en-US\":\"FinancialDimension3ID\",\"nl-NL\":\"FinancialDimension3ID\"}"
        },
        {
          "name": "TabularEditor_TranslatedDescriptions",
          "value": "{\"de-DE\":\"Kennung für Financialdimension3\",\"en-US\":\"System column for technical purposes\",\"nl-NL\":\"Systeemkolom technische doeleinden\"}"
        }
      ]
    },
    {
      "name": "FinancialDimension4ID",
      "dataType": "int64",
      "description": "System column for technical purposes",
      "isHidden": true,
      "sourceColumn": "FinancialDimension4ID",
      "sourceProviderType": "Int32",
      "annotations": [
        {
          "name": "TabularEditor_TranslatedNames",
          "value": "{\"de-DE\":\"FinancialDimension4ID\",\"en-US\":\"FinancialDimension4ID\",\"nl-NL\":\"FinancialDimension4ID\"}"
        },
        {
          "name": "TabularEditor_TranslatedDescriptions",
          "value": "{\"de-DE\":\"Kennung für Financialdimension4\",\"en-US\":\"System column for technical purposes\",\"nl-NL\":\"Systeemkolom technische doeleinden\"}"
        }
      ]
    },
    {
      "name": "FinancialDimension5ID",
      "dataType": "int64",
      "description": "System column for technical purposes",
      "isHidden": true,
      "sourceColumn": "FinancialDimension5ID",
      "sourceProviderType": "Int32",
      "annotations": [
        {
          "name": "TabularEditor_TranslatedNames",
          "value": "{\"de-DE\":\"FinancialDimension5ID\",\"en-US\":\"FinancialDimension5ID\",\"nl-NL\":\"FinancialDimension5ID\"}"
        },
        {
          "name": "TabularEditor_TranslatedDescriptions",
          "value": "{\"de-DE\":\"Kennung für Financialdimension5\",\"en-US\":\"System column for technical purposes\",\"nl-NL\":\"Systeemkolom technische doeleinden\"}"
        }
      ]
    },
    {
      "name": "FinancialDimension6ID",
      "dataType": "int64",
      "description": "System column for technical purposes",
      "isHidden": true,
      "sourceColumn": "FinancialDimension6ID",
      "sourceProviderType": "Int32",
      "annotations": [
        {
          "name": "TabularEditor_TranslatedNames",
          "value": "{\"de-DE\":\"FinancialDimension6ID\",\"en-US\":\"FinancialDimension6ID\",\"nl-NL\":\"FinancialDimension6ID\"}"
        },
        {
          "name": "TabularEditor_TranslatedDescriptions",
          "value": "{\"de-DE\":\"Kennung für Financialdimension6\",\"en-US\":\"System column for technical purposes\",\"nl-NL\":\"Systeemkolom technische doeleinden\"}"
        }
      ]
    },
    {
      "name": "FinancialDimension7ID",
      "dataType": "int64",
      "description": "System column for technical purposes",
      "isHidden": true,
      "sourceColumn": "FinancialDimension7ID",
      "sourceProviderType": "Int32",
      "annotations": [
        {
          "name": "TabularEditor_TranslatedNames",
          "value": "{\"de-DE\":\"FinancialDimension7ID\",\"en-US\":\"FinancialDimension7ID\",\"nl-NL\":\"FinancialDimension7ID\"}"
        },
        {
          "name": "TabularEditor_TranslatedDescriptions",
          "value": "{\"de-DE\":\"Kennung für Financialdimension7\",\"en-US\":\"System column for technical purposes\",\"nl-NL\":\"Systeemkolom technische doeleinden\"}"
        }
      ]
    },
    {
      "name": "FinancialDimension8ID",
      "dataType": "int64",
      "description": "System column for technical purposes",
      "isHidden": true,
      "sourceColumn": "FinancialDimension8ID",
      "sourceProviderType": "Int32",
      "annotations": [
        {
          "name": "TabularEditor_TranslatedNames",
          "value": "{\"de-DE\":\"FinancialDimension8ID\",\"en-US\":\"FinancialDimension8ID\",\"nl-NL\":\"FinancialDimension8ID\"}"
        },
        {
          "name": "TabularEditor_TranslatedDescriptions",
          "value": "{\"de-DE\":\"Kennung für Financialdimension8\",\"en-US\":\"System column for technical purposes\",\"nl-NL\":\"Systeemkolom technische doeleinden\"}"
        }
      ]
    },
    {
      "name": "SelltoCustomerID",
      "dataType": "int64",
      "description": "System column for technical purposes",
      "isHidden": true,
      "sourceColumn": "SelltoCustomerID",
      "sourceProviderType": "Int32",
      "annotations": [
        {
          "name": "TabularEditor_TranslatedNames",
          "value": "{\"de-DE\":\"SelltoDebitorenID\",\"en-US\":\"SelltoCustomerID\",\"nl-NL\":\"SelltoCustomerID\"}"
        },
        {
          "name": "TabularEditor_TranslatedDescriptions",
          "value": "{\"de-DE\":\"Kennung für SelltoDebitoren\",\"en-US\":\"System column for technical purposes\",\"nl-NL\":\"Systeemkolom technische doeleinden\"}"
        }
      ]
    },
    {
      "name": "BilltoCustomerID",
      "dataType": "int64",
      "description": "System column for technical purposes",
      "isHidden": true,
      "sourceColumn": "BilltoCustomerID",
      "sourceProviderType": "Int32",
      "annotations": [
        {
          "name": "TabularEditor_TranslatedNames",
          "value": "{\"de-DE\":\"BilltoDebitorenID\",\"en-US\":\"BilltoCustomerID\",\"nl-NL\":\"BilltoCustomerID\"}"
        },
        {
          "name": "TabularEditor_TranslatedDescriptions",
          "value": "{\"de-DE\":\"Kennung für BilltoDebitoren\",\"en-US\":\"System column for technical purposes\",\"nl-NL\":\"Systeemkolom technische doeleinden\"}"
        }
      ]
    },
    {
      "name": "ShiptoCustomerID",
      "dataType": "int64",
      "description": "System column for technical purposes",
      "isHidden": true,
      "sourceColumn": "ShiptoCustomerID",
      "sourceProviderType": "Int32",
      "annotations": [
        {
          "name": "TabularEditor_TranslatedNames",
          "value": "{\"de-DE\":\"ShiptoDebitorenID\",\"en-US\":\"ShiptoCustomerID\",\"nl-NL\":\"ShiptoCustomerID\"}"
        },
        {
          "name": "TabularEditor_TranslatedDescriptions",
          "value": "{\"de-DE\":\"Kennung für ShiptoDebitoren\",\"en-US\":\"System column for technical purposes\",\"nl-NL\":\"Systeemkolom technische doeleinden\"}"
        }
      ]
    },
    {
      "name": "ItemID",
      "dataType": "int64",
      "description": "System column for technical purposes",
      "isHidden": true,
      "sourceColumn": "ItemID",
      "sourceProviderType": "Int32",
      "annotations": [
        {
          "name": "TabularEditor_TranslatedNames",
          "value": "{\"de-DE\":\"ItemID\",\"en-US\":\"ItemID\",\"nl-NL\":\"ItemID\"}"
        },
        {
          "name": "TabularEditor_TranslatedDescriptions",
          "value": "{\"de-DE\":\"Kennung für Item\",\"en-US\":\"System column for technical purposes\",\"nl-NL\":\"Systeemkolom technische doeleinden\"}"
        }
      ]
    },
    {
      "name": "ItemVariantID",
      "dataType": "int64",
      "description": "System column for technical purposes",
      "isHidden": true,
      "sourceColumn": "ItemVariantID",
      "sourceProviderType": "Int32",
      "annotations": [
        {
          "name": "TabularEditor_TranslatedNames",
          "value": "{\"de-DE\":\"ItemVariantID\",\"en-US\":\"ItemVariantID\",\"nl-NL\":\"ItemVariantID\"}"
        },
        {
          "name": "TabularEditor_TranslatedDescriptions",
          "value": "{\"de-DE\":\"Kennung für Itemvariant\",\"en-US\":\"System column for technical purposes\",\"nl-NL\":\"Systeemkolom technische doeleinden\"}"
        }
      ]
    },
    {
      "name": "LocationID",
      "dataType": "int64",
      "description": "System column for technical purposes",
      "isHidden": true,
      "sourceColumn": "LocationID",
      "sourceProviderType": "Int32",
      "annotations": [
        {
          "name": "TabularEditor_TranslatedNames",
          "value": "{\"de-DE\":\"LocationID\",\"en-US\":\"LocationID\",\"nl-NL\":\"LocationID\"}"
        },
        {
          "name": "TabularEditor_TranslatedDescriptions",
          "value": "{\"de-DE\":\"Kennung für Location\",\"en-US\":\"System column for technical purposes\",\"nl-NL\":\"Systeemkolom technische doeleinden\"}"
        }
      ]
    },
    {
      "name": "GeneralProductPostingGroupID",
      "dataType": "int64",
      "description": "System column for technical purposes",
      "isHidden": true,
      "sourceColumn": "GeneralProductPostingGroupID",
      "sourceProviderType": "Int32",
      "annotations": [
        {
          "name": "TabularEditor_TranslatedNames",
          "value": "{\"de-DE\":\"GeneralProductPostingGroupID\",\"en-US\":\"GeneralProductPostingGroupID\",\"nl-NL\":\"GeneralProductPostingGroupID\"}"
        },
        {
          "name": "TabularEditor_TranslatedDescriptions",
          "value": "{\"de-DE\":\"Kennung für GeneralProductPostingGroup\",\"en-US\":\"System column for technical purposes\",\"nl-NL\":\"Systeemkolom technische doeleinden\"}"
        }
      ]
    },
    {
      "name": "GeneralBusinessPostingGroupID",
      "dataType": "int64",
      "description": "System column for technical purposes",
      "isHidden": true,
      "sourceColumn": "GeneralBusinessPostingGroupID",
      "sourceProviderType": "Int32",
      "annotations": [
        {
          "name": "TabularEditor_TranslatedNames",
          "value": "{\"de-DE\":\"GeneralBusinessPostingGroupID\",\"en-US\":\"GeneralBusinessPostingGroupID\",\"nl-NL\":\"GeneralBusinessPostingGroupID\"}"
        },
        {
          "name": "TabularEditor_TranslatedDescriptions",
          "value": "{\"de-DE\":\"Kennung für GeneralBusinessPostingGroup\",\"en-US\":\"System column for technical purposes\",\"nl-NL\":\"Systeemkolom technische doeleinden\"}"
        }
      ]
    },
    {
      "name": "ShippingAgentID",
      "dataType": "int64",
      "description": "System column for technical purposes",
      "isHidden": true,
      "sourceColumn": "ShippingAgentID",
      "sourceProviderType": "Int32",
      "annotations": [
        {
          "name": "TabularEditor_TranslatedNames",
          "value": "{\"de-DE\":\"ShippingAgentID\",\"en-US\":\"ShippingAgentID\",\"nl-NL\":\"ShippingAgentID\"}"
        },
        {
          "name": "TabularEditor_TranslatedDescriptions",
          "value": "{\"de-DE\":\"Kennung für Shippingagent\",\"en-US\":\"System column for technical purposes\",\"nl-NL\":\"Systeemkolom technische doeleinden\"}"
        }
      ]
    },
    {
      "name": "ShippingAgentServicesID",
      "dataType": "int64",
      "description": "System column for technical purposes",
      "isHidden": true,
      "sourceColumn": "ShippingAgentServicesID",
      "sourceProviderType": "Int32",
      "annotations": [
        {
          "name": "TabularEditor_TranslatedNames",
          "value": "{\"de-DE\":\"ShippingAgentServicesID\",\"en-US\":\"ShippingAgentServicesID\",\"nl-NL\":\"ShippingAgentServicesID\"}"
        },
        {
          "name": "TabularEditor_TranslatedDescriptions",
          "value": "{\"de-DE\":\"Kennung für Shippingagentservices\",\"en-US\":\"System column for technical purposes\",\"nl-NL\":\"Systeemkolom technische doeleinden\"}"
        }
      ]
    },
    {
      "name": "SalespersonPurchaserID",
      "dataType": "int64",
      "description": "System column for technical purposes",
      "isHidden": true,
      "sourceColumn": "SalespersonPurchaserID",
      "sourceProviderType": "Int32",
      "annotations": [
        {
          "name": "TabularEditor_TranslatedNames",
          "value": "{\"de-DE\":\"SalespersonPurchaserID\",\"en-US\":\"SalespersonPurchaserID\",\"nl-NL\":\"SalespersonPurchaserID\"}"
        },
        {
          "name": "TabularEditor_TranslatedDescriptions",
          "value": "{\"de-DE\":\"Kennung für Salespersonpurchaser\",\"en-US\":\"System column for technical purposes\",\"nl-NL\":\"Systeemkolom technische doeleinden\"}"
        }
      ]
    },
    {
      "name": "ShipmentMethodID",
      "dataType": "int64",
      "description": "System column for technical purposes",
      "isHidden": true,
      "sourceColumn": "ShipmentMethodID",
      "sourceProviderType": "Int32",
      "annotations": [
        {
          "name": "TabularEditor_TranslatedNames",
          "value": "{\"de-DE\":\"ShipmentMethodID\",\"en-US\":\"ShipmentMethodID\",\"nl-NL\":\"ShipmentMethodID\"}"
        },
        {
          "name": "TabularEditor_TranslatedDescriptions",
          "value": "{\"de-DE\":\"Kennung für Shippingmethod\",\"en-US\":\"System column for technical purposes\",\"nl-NL\":\"Systeemkolom technische doeleinden\"}"
        }
      ]
    },
    {
      "name": "TransportMethodID",
      "dataType": "int64",
      "description": "System column for technical purposes",
      "isHidden": true,
      "sourceColumn": "TransportMethodID",
      "sourceProviderType": "Int32",
      "annotations": [
        {
          "name": "TabularEditor_TranslatedNames",
          "value": "{\"de-DE\":\"TransportMethodID\",\"en-US\":\"TransportMethodID\",\"nl-NL\":\"TransportMethodID\"}"
        },
        {
          "name": "TabularEditor_TranslatedDescriptions",
          "value": "{\"de-DE\":\"Kennung für Transportmethod\",\"en-US\":\"System column for technical purposes\",\"nl-NL\":\"Systeemkolom technische doeleinden\"}"
        }
      ]
    },
    {
      "name": "OrderDateID",
      "dataType": "int64",
      "description": "System column for technical purposes",
      "isHidden": true,
      "sourceColumn": "OrderDateID",
      "sourceProviderType": "Int32",
      "annotations": [
        {
          "name": "TabularEditor_TranslatedNames",
          "value": "{\"de-DE\":\"OrderDatumID\",\"en-US\":\"OrderDateID\",\"nl-NL\":\"OrderDateID\"}"
        },
        {
          "name": "TabularEditor_TranslatedDescriptions",
          "value": "{\"de-DE\":\"Kennung für OrderDatum\",\"en-US\":\"System column for technical purposes\",\"nl-NL\":\"Systeemkolom technische doeleinden\"}"
        }
      ]
    },
    {
      "name": "ShipmentDateID",
      "dataType": "int64",
      "description": "System column for technical purposes",
      "isHidden": true,
      "sourceColumn": "ShipmentDateID",
      "sourceProviderType": "Int32",
      "annotations": [
        {
          "name": "TabularEditor_TranslatedNames",
          "value": "{\"de-DE\":\"ShipmentDatumID\",\"en-US\":\"ShipmentDateID\",\"nl-NL\":\"ShipmentDateID\"}"
        },
        {
          "name": "TabularEditor_TranslatedDescriptions",
          "value": "{\"de-DE\":\"Kennung für ShipmentDatum\",\"en-US\":\"System column for technical purposes\",\"nl-NL\":\"Systeemkolom technische doeleinden\"}"
        }
      ]
    },
    {
      "name": "PlannedDeliveryDateID",
      "dataType": "int64",
      "description": "System column for technical purposes",
      "isHidden": true,
      "sourceColumn": "PlannedDeliveryDateID",
      "sourceProviderType": "Int32",
      "annotations": [
        {
          "name": "TabularEditor_TranslatedNames",
          "value": "{\"de-DE\":\"PlannedDeliveryDatumID\",\"en-US\":\"PlannedDeliveryDateID\",\"nl-NL\":\"PlannedDeliveryDateID\"}"
        },
        {
          "name": "TabularEditor_TranslatedDescriptions",
          "value": "{\"de-DE\":\"Kennung für PlanneddeliveryDatum\",\"en-US\":\"System column for technical purposes\",\"nl-NL\":\"Systeemkolom technische doeleinden\"}"
        }
      ]
    },
    {
      "name": "PromisedDeliveryDateID",
      "dataType": "int64",
      "description": "System column for technical purposes",
      "isHidden": true,
      "sourceColumn": "PromisedDeliveryDateID",
      "sourceProviderType": "Int32",
      "annotations": [
        {
          "name": "TabularEditor_TranslatedNames",
          "value": "{\"de-DE\":\"PromisedDeliveryDatumID\",\"en-US\":\"PromisedDeliveryDateID\",\"nl-NL\":\"PromisedDeliveryDateID\"}"
        },
        {
          "name": "TabularEditor_TranslatedDescriptions",
          "value": "{\"de-DE\":\"Kennung für PromiseddeliveryDatum\",\"en-US\":\"System column for technical purposes\",\"nl-NL\":\"Systeemkolom technische doeleinden\"}"
        }
      ]
    },
    {
      "name": "PlannedShipmentDateID",
      "dataType": "int64",
      "description": "System column for technical purposes",
      "isHidden": true,
      "sourceColumn": "PlannedShipmentDateID",
      "sourceProviderType": "Int32",
      "annotations": [
        {
          "name": "TabularEditor_TranslatedNames",
          "value": "{\"de-DE\":\"PlannedShipmentDatumID\",\"en-US\":\"PlannedShipmentDateID\",\"nl-NL\":\"PlannedShipmentDateID\"}"
        },
        {
          "name": "TabularEditor_TranslatedDescriptions",
          "value": "{\"de-DE\":\"Kennung für PlannedshipmentDatum\",\"en-US\":\"System column for technical purposes\",\"nl-NL\":\"Systeemkolom technische doeleinden\"}"
        }
      ]
    },
    {
      "name": "SalesOrderShippedGrossWeight",
      "dataType": "decimal",
      "description": "Departments/Sales & Marketing/Order Processing/Sales Orders > Lines > Sales Order Shipped Gross Weight",
      "isHidden": true,
      "sourceColumn": "SalesOrderShippedGrossWeight",
      "sourceProviderType": "Decimal",
      "annotations": [
        {
          "name": "TabularEditor_TranslatedNames",
          "value": "{\"de-DE\":\"Bruttogewicht\",\"en-US\":\"Sales Order Shipped Gross Weight\",\"nl-NL\":\"Verkooporder verzonden bruto gewicht\"}"
        },
        {
          "name": "TabularEditor_TranslatedDescriptions",
          "value": "{\"de-DE\":\"Abteilungen/Verkauf & Marketing/Auftragsabwicklung/Aufträge/Zeilen\",\"en-US\":\"Departments/Sales & Marketing/Order Processing/Sales Orders > Lines > Sales Order Shipped Gross Weight > Sales Order Shipped Gross Weight\",\"nl-NL\":\"Afdelingen/Verkoop/Orderverwerking/Verkooporders > De regels in een verkooporder > Verkooporder verzonden bruto gewicht\"}"
        }
      ]
    },
    {
      "name": "SalesOrderShippedNetWeight",
      "dataType": "decimal",
      "description": "Departments/Sales & Marketing/Order Processing/Sales Orders > Lines > Sales Order Shipped Net Weight",
      "isHidden": true,
      "sourceColumn": "SalesOrderShippedNetWeight",
      "sourceProviderType": "Decimal",
      "annotations": [
        {
          "name": "TabularEditor_TranslatedNames",
          "value": "{\"de-DE\":\"Nettogewicht\",\"en-US\":\"Sales Order Shipped Net Weight\",\"nl-NL\":\"Verkooporder verzonden netto gewicht\"}"
        },
        {
          "name": "TabularEditor_TranslatedDescriptions",
          "value": "{\"de-DE\":\"Abteilungen/Verkauf & Marketing/Auftragsabwicklung/Aufträge/Zeilen\",\"en-US\":\"Departments/Sales & Marketing/Order Processing/Sales Orders > Lines > Sales Order Shipped Net Weight > Sales Order Shipped Net Weight\",\"nl-NL\":\"Afdelingen/Verkoop/Orderverwerking/Verkooporders > De regels in een verkooporder > Verkooporder verzonden netto gewicht\"}"
        }
      ]
    },
    {
      "name": "SalesOrderQuantity",
      "dataType": "decimal",
      "description": "Departments/Sales & Marketing/Order Processing/Sales Orders > Lines > Sales Order Quantity",
      "isHidden": true,
      "sourceColumn": "SalesOrderQuantity",
      "sourceProviderType": "Decimal",
      "annotations": [
        {
          "name": "TabularEditor_TranslatedNames",
          "value": "{\"de-DE\":\"Auftrage Menge\",\"en-US\":\"Sales Order Quantity\",\"nl-NL\":\"Verkooporder aantal\"}"
        },
        {
          "name": "TabularEditor_TranslatedDescriptions",
          "value": "{\"de-DE\":\"Abteilungen/Verkauf & Marketing/Auftragsabwicklung/Aufträge/Zeilen\",\"en-US\":\"Departments/Sales & Marketing/Order Processing/Sales Orders > Lines > Sales Order Quantity > Sales Order Quantity\",\"nl-NL\":\"Afdelingen/Verkoop/Orderverwerking/Verkooporders > De regels in een verkooporder > Verkooporder aantal\"}"
        }
      ]
    },
    {
      "name": "SalesOrderOutstandingQuantity",
      "dataType": "decimal",
      "description": "Departments/Sales & Marketing/Order Processing/Sales Orders > Lines > Sales Order Outstanding Quantity",
      "isHidden": true,
      "sourceColumn": "SalesOrderOutstandingQuantity",
      "sourceProviderType": "Decimal",
      "annotations": [
        {
          "name": "TabularEditor_TranslatedNames",
          "value": "{\"de-DE\":\"Restauftragsmenge\",\"en-US\":\"Sales Order Outstanding Quantity\",\"nl-NL\":\"Verkooporder openstaand aantal\"}"
        },
        {
          "name": "TabularEditor_TranslatedDescriptions",
          "value": "{\"de-DE\":\"Abteilungen/Verkauf & Marketing/Auftragsabwicklung/Aufträge/Zeilen\",\"en-US\":\"Departments/Sales & Marketing/Order Processing/Sales Orders > Lines > Sales Order Outstanding Quantity > Sales Order Outstanding Quantity\",\"nl-NL\":\"Afdelingen/Verkoop/Orderverwerking/Verkooporders > De regels in een verkooporder > Verkooporder openstaand aantal\"}"
        }
      ]
    },
    {
      "name": "SalesOrderShippedQuantity",
      "dataType": "decimal",
      "description": "Departments/Sales & Marketing/Order Processing/Sales Orders > Lines > Sales Order Shipped Quantity",
      "isHidden": true,
      "sourceColumn": "SalesOrderShippedQuantity",
      "sourceProviderType": "Decimal",
      "annotations": [
        {
          "name": "TabularEditor_TranslatedNames",
          "value": "{\"de-DE\":\"Auftrage Menge geliefert\",\"en-US\":\"Sales Order Shipped Quantity\",\"nl-NL\":\"Verkooporder verzonden aantal\"}"
        },
        {
          "name": "TabularEditor_TranslatedDescriptions",
          "value": "{\"de-DE\":\"Abteilungen/Verkauf & Marketing/Auftragsabwicklung/Aufträge/Zeilen\",\"en-US\":\"Departments/Sales & Marketing/Order Processing/Sales Orders > Lines > Sales Order Shipped Quantity > Sales Order Shipped Quantity\",\"nl-NL\":\"Afdelingen/Verkoop/Orderverwerking/Verkooporders > De regels in een verkooporder > Verkooporder verzonden aantal\"}"
        }
      ]
    },
    {
      "name": "SalesOrderInvoicedQuantity",
      "dataType": "decimal",
      "description": "Departments/Sales & Marketing/Order Processing/Sales Orders > Lines > Sales Order Invoiced Quantity",
      "isHidden": true,
      "sourceColumn": "SalesOrderInvoicedQuantity",
      "sourceProviderType": "Decimal",
      "annotations": [
        {
          "name": "TabularEditor_TranslatedNames",
          "value": "{\"de-DE\":\"Auftrage Menge fakturiert\",\"en-US\":\"Sales Order Invoiced Quantity\",\"nl-NL\":\"Verkooporder gefactureerd aantal\"}"
        },
        {
          "name": "TabularEditor_TranslatedDescriptions",
          "value": "{\"de-DE\":\"Abteilungen/Verkauf & Marketing/Auftragsabwicklung/Aufträge/Zeilen\",\"en-US\":\"Departments/Sales & Marketing/Order Processing/Sales Orders > Lines > Sales Order Invoiced Quantity > Sales Order Invoiced Quantity\",\"nl-NL\":\"Afdelingen/Verkoop/Orderverwerking/Verkooporders > De regels in een verkooporder > Verkooporder gefactureerd aantal\"}"
        }
      ]
    },
    {
      "name": "SalesOrderToInvoiceQuantity",
      "dataType": "decimal",
      "description": "Departments/Sales & Marketing/Order Processing/Sales Orders > Lines > Sales Order To Invoice Quantity",
      "isHidden": true,
      "sourceColumn": "SalesOrderToInvoiceQuantity",
      "sourceProviderType": "Decimal",
      "annotations": [
        {
          "name": "TabularEditor_TranslatedNames",
          "value": "{\"de-DE\":\"Auftrage zu fakturieren\",\"en-US\":\"Sales Order To Invoice Quantity\",\"nl-NL\":\"Verkooporder te factureren aantal\"}"
        },
        {
          "name": "TabularEditor_TranslatedDescriptions",
          "value": "{\"de-DE\":\"Abteilungen/Verkauf & Marketing/Auftragsabwicklung/Aufträge/Zeilen\",\"en-US\":\"Departments/Sales & Marketing/Order Processing/Sales Orders > Lines > Sales Order To Invoice Quantity > Sales Order To Invoice Quantity\",\"nl-NL\":\"Afdelingen/Verkoop/Orderverwerking/Verkooporders > De regels in een verkooporder > Verkooporder te factureren aantal\"}"
        }
      ]
    },
    {
      "name": "SalesOrderToShipQuantity",
      "dataType": "decimal",
      "description": "Departments/Sales & Marketing/Order Processing/Sales Orders > Lines > Sales Order To Ship Quantity",
      "isHidden": true,
      "sourceColumn": "SalesOrderToShipQuantity",
      "sourceProviderType": "Decimal",
      "annotations": [
        {
          "name": "TabularEditor_TranslatedNames",
          "value": "{\"de-DE\":\"Auftrage zu liefern\",\"en-US\":\"Sales Order To Ship Quantity\",\"nl-NL\":\"Verkooporder te verzenden aantal\"}"
        },
        {
          "name": "TabularEditor_TranslatedDescriptions",
          "value": "{\"de-DE\":\"Abteilungen/Verkauf & Marketing/Auftragsabwicklung/Aufträge/Zeilen\",\"en-US\":\"Departments/Sales & Marketing/Order Processing/Sales Orders > Lines > Sales Order To Ship Quantity > Sales Order To Ship Quantity\",\"nl-NL\":\"Afdelingen/Verkoop/Orderverwerking/Verkooporders > De regels in een verkooporder > Verkooporder te verzenden aantal\"}"
        }
      ]
    },
    {
      "name": "SalesOrderShippedNotInvoicedQuantity",
      "dataType": "decimal",
      "description": "Departments/Sales & Marketing/Order Processing/Sales Orders > Lines > Sales Order Shipped Not Invoiced Quantity",
      "isHidden": true,
      "sourceColumn": "SalesOrderShippedNotInvoicedQuantity",
      "sourceProviderType": "Decimal",
      "annotations": [
        {
          "name": "TabularEditor_TranslatedNames",
          "value": "{\"de-DE\":\"Verkooporder verzonden niet gefactureerd aantal\",\"en-US\":\"Sales Order Shipped Not Invoiced Quantity\",\"nl-NL\":\"Verkooporder verzonden niet gefactureerd aantal\"}"
        },
        {
          "name": "TabularEditor_TranslatedDescriptions",
          "value": "{\"de-DE\":\"Abteilungen/Verkauf & Marketing/Auftragsabwicklung/Aufträge/Zeilen\",\"en-US\":\"Departments/Sales & Marketing/Order Processing/Sales Orders > Lines > Sales Order Shipped Not Invoiced Quantity > Sales Order Shipped Not Invoiced Quantity\",\"nl-NL\":\"Afdelingen/Verkoop/Orderverwerking/Verkooporders > De regels in een verkooporder > Verkooporder verzonden niet gefactureerd aantal\"}"
        }
      ]
    },
    {
      "name": "SalesOrderAmount_LCY",
      "dataType": "decimal",
      "description": "Departments/Sales & Marketing/Order Processing/Sales Orders > Lines > Sales Order Amount",
      "isHidden": true,
      "sourceColumn": "SalesOrderAmount_LCY",
      "sourceProviderType": "Decimal",
      "annotations": [
        {
          "name": "TabularEditor_TranslatedNames",
          "value": "{\"de-DE\":\"Auftrage Betrag\",\"en-US\":\"Sales Order Amount\",\"nl-NL\":\"Verkooporder bedrag\"}"
        },
        {
          "name": "TabularEditor_TranslatedDescriptions",
          "value": "{\"de-DE\":\"Abteilungen/Verkauf & Marketing/Auftragsabwicklung/Aufträge/Zeilen\",\"en-US\":\"Departments/Sales & Marketing/Order Processing/Sales Orders > Lines > Sales Order Amount > Sales Order Amount\",\"nl-NL\":\"Afdelingen/Verkoop/Orderverwerking/Verkooporders > De regels in een verkooporder > Verkooporder bedrag\"}"
        }
      ]
    },
    {
      "name": "SalesOrderCostAmount_LCY",
      "dataType": "decimal",
      "description": "Departments/Sales & Marketing/Order Processing/Sales Orders > Lines > Sales Order Cost Amount",
      "isHidden": true,
      "sourceColumn": "SalesOrderCostAmount_LCY",
      "sourceProviderType": "Decimal",
      "annotations": [
        {
          "name": "TabularEditor_TranslatedNames",
          "value": "{\"de-DE\":\"Auftrage Eindstandsbetrag\",\"en-US\":\"Sales Order Cost Amount\",\"nl-NL\":\"Verkooporder kosten bedrag\"}"
        },
        {
          "name": "TabularEditor_TranslatedDescriptions",
          "value": "{\"de-DE\":\"Abteilungen/Verkauf & Marketing/Auftragsabwicklung/Aufträge/Zeilen\",\"en-US\":\"Departments/Sales & Marketing/Order Processing/Sales Orders > Lines > Sales Order Cost Amount > Sales Order Cost Amount\",\"nl-NL\":\"Afdelingen/Verkoop/Orderverwerking/Verkooporders > De regels in een verkooporder > Verkooporder kosten bedrag\"}"
        }
      ]
    },
    {
      "name": "SalesOrderGrossAmount_LCY",
      "dataType": "decimal",
      "description": "Departments/Sales & Marketing/Order Processing/Sales Orders > Lines > Sales Order Gross Amount",
      "isHidden": true,
      "sourceColumn": "SalesOrderGrossAmount_LCY",
      "sourceProviderType": "Decimal",
      "annotations": [
        {
          "name": "TabularEditor_TranslatedNames",
          "value": "{\"de-DE\":\"Total ohne MwSt.\",\"en-US\":\"Sales Order Gross Amount\",\"nl-NL\":\"Verkooporder bruto bedrag\"}"
        },
        {
          "name": "TabularEditor_TranslatedDescriptions",
          "value": "{\"de-DE\":\"Abteilungen/Verkauf & Marketing/Auftragsabwicklung/Aufträge/Zeilen\",\"en-US\":\"Departments/Sales & Marketing/Order Processing/Sales Orders > Lines > Sales Order Gross Amount > Sales Order Gross Amount\",\"nl-NL\":\"Afdelingen/Verkoop/Orderverwerking/Verkooporders > De regels in een verkooporder > Verkooporder bruto bedrag\"}"
        }
      ]
    },
    {
      "name": "SalesOrderOutstandingAmount_LCY",
      "dataType": "decimal",
      "description": "Departments/Sales & Marketing/Order Processing/Sales Orders > Lines > Sales Order Outstanding Amount",
      "isHidden": true,
      "sourceColumn": "SalesOrderOutstandingAmount_LCY",
      "sourceProviderType": "Decimal",
      "annotations": [
        {
          "name": "TabularEditor_TranslatedNames",
          "value": "{\"de-DE\":\"Restauftragsbetrag \",\"en-US\":\"Sales Order Outstanding Amount\",\"nl-NL\":\"Verkooporder openstaand bedrag\"}"
        },
        {
          "name": "TabularEditor_TranslatedDescriptions",
          "value": "{\"de-DE\":\"Abteilungen/Verkauf & Marketing/Auftragsabwicklung/Aufträge/Zeilen\",\"en-US\":\"Departments/Sales & Marketing/Order Processing/Sales Orders > Lines > Sales Order Outstanding Amount > Sales Order Outstanding Amount\",\"nl-NL\":\"Afdelingen/Verkoop/Orderverwerking/Verkooporders > De regels in een verkooporder > Verkooporder openstaand bedrag\"}"
        }
      ]
    },
    {
      "name": "SalesOrderShippedAmount_LCY",
      "dataType": "decimal",
      "description": "Departments/Sales & Marketing/Order Processing/Sales Orders > Lines > Sales Order Shipped Amount",
      "isHidden": true,
      "sourceColumn": "SalesOrderShippedAmount_LCY",
      "sourceProviderType": "Decimal",
      "annotations": [
        {
          "name": "TabularEditor_TranslatedNames",
          "value": "{\"de-DE\":\"Geliefert Betrag\",\"en-US\":\"Sales Order Shipped Amount\",\"nl-NL\":\"Verkooporder verzonden bedrag\"}"
        },
        {
          "name": "TabularEditor_TranslatedDescriptions",
          "value": "{\"de-DE\":\"Abteilungen/Verkauf & Marketing/Auftragsabwicklung/Aufträge/Zeilen\",\"en-US\":\"Departments/Sales & Marketing/Order Processing/Sales Orders > Lines > Sales Order Shipped Amount > Sales Order Shipped Amount\",\"nl-NL\":\"Afdelingen/Verkoop/Orderverwerking/Verkooporders > De regels in een verkooporder > Verkooporder verzonden bedrag\"}"
        }
      ]
    },
    {
      "name": "SalesOrderInvoicedAmount_LCY",
      "dataType": "decimal",
      "description": "Departments/Sales & Marketing/Order Processing/Sales Orders > Lines > Sales Order Invoiced Amount",
      "isHidden": true,
      "sourceColumn": "SalesOrderInvoicedAmount_LCY",
      "sourceProviderType": "Decimal",
      "annotations": [
        {
          "name": "TabularEditor_TranslatedNames",
          "value": "{\"de-DE\":\"Fakturiert Betrag\",\"en-US\":\"Sales Order Invoiced Amount\",\"nl-NL\":\"Verkooporder gefactureerd bedrag\"}"
        },
        {
          "name": "TabularEditor_TranslatedDescriptions",
          "value": "{\"de-DE\":\"Abteilungen/Verkauf & Marketing/Auftragsabwicklung/Aufträge/Zeilen\",\"en-US\":\"Departments/Sales & Marketing/Order Processing/Sales Orders > Lines > Sales Order Invoiced Amount > Sales Order Invoiced Amount\",\"nl-NL\":\"Afdelingen/Verkoop/Orderverwerking/Verkooporders > De regels in een verkooporder > Verkooporder gefactureerd bedrag\"}"
        }
      ]
    },
    {
      "name": "SalesOrderToInvoiceAmount_LCY",
      "dataType": "decimal",
      "description": "Departments/Sales & Marketing/Order Processing/Sales Orders > Lines > Sales Order To Invoice Amount",
      "isHidden": true,
      "sourceColumn": "SalesOrderToInvoiceAmount_LCY",
      "sourceProviderType": "Decimal",
      "annotations": [
        {
          "name": "TabularEditor_TranslatedNames",
          "value": "{\"de-DE\":\"Zu fakturieren Betrag\",\"en-US\":\"Sales Order To Invoice Amount\",\"nl-NL\":\"Verkooporder te factureren bedrag\"}"
        },
        {
          "name": "TabularEditor_TranslatedDescriptions",
          "value": "{\"de-DE\":\"Abteilungen/Verkauf & Marketing/Auftragsabwicklung/Aufträge/Zeilen\",\"en-US\":\"Departments/Sales & Marketing/Order Processing/Sales Orders > Lines > Sales Order To Invoice Amount > Sales Order To Invoice Amount\",\"nl-NL\":\"Afdelingen/Verkoop/Orderverwerking/Verkooporders > De regels in een verkooporder > Verkooporder te factureren bedrag\"}"
        }
      ]
    },
    {
      "name": "SalesOrderToShipAmount_LCY",
      "dataType": "decimal",
      "description": "Departments/Sales & Marketing/Order Processing/Sales Orders > Lines > Sa;es Order To Ship Amount",
      "isHidden": true,
      "sourceColumn": "SalesOrderToShipAmount_LCY",
      "sourceProviderType": "Decimal",
      "annotations": [
        {
          "name": "TabularEditor_TranslatedNames",
          "value": "{\"de-DE\":\"Zu liefern Betrag\",\"en-US\":\"Sa;es Order To Ship Amount\",\"nl-NL\":\"Verkooporder te verzenden bedrag\"}"
        },
        {
          "name": "TabularEditor_TranslatedDescriptions",
          "value": "{\"de-DE\":\"Abteilungen/Verkauf & Marketing/Auftragsabwicklung/Aufträge/Zeilen\",\"en-US\":\"Departments/Sales & Marketing/Order Processing/Sales Orders > Lines > Sa;es Order To Ship Amount > Sa;es Order To Ship Amount\",\"nl-NL\":\"Afdelingen/Verkoop/Orderverwerking/Verkooporders > De regels in een verkooporder > Verkooporder te verzenden bedrag\"}"
        }
      ]
    },
    {
      "name": "SalesOrderShippedNotInvoicedAmount_LCY",
      "dataType": "decimal",
      "description": "Departments/Sales & Marketing/Order Processing/Sales Orders > Lines > Sales Order Shipped Not Invoiced Amount",
      "isHidden": true,
      "sourceColumn": "SalesOrderShippedNotInvoicedAmount_LCY",
      "sourceProviderType": "Decimal",
      "annotations": [
        {
          "name": "TabularEditor_TranslatedNames",
          "value": "{\"de-DE\":\"Auftrage gelieferte, nicht fakturierte Menge\",\"en-US\":\"Sales Order Shipped Not Invoiced Amount\",\"nl-NL\":\"Verkooporder verzonden niet gefactureerd bedrag\"}"
        },
        {
          "name": "TabularEditor_TranslatedDescriptions",
          "value": "{\"de-DE\":\"Abteilungen/Verkauf & Marketing/Auftragsabwicklung/Aufträge/Zeilen\",\"en-US\":\"Departments/Sales & Marketing/Order Processing/Sales Orders > Lines > Sales Order Shipped Not Invoiced Amount > Sales Order Shipped Not Invoiced Amount\",\"nl-NL\":\"Afdelingen/Verkoop/Orderverwerking/Verkooporders > De regels in een verkooporder > Verkooporder verzonden niet gefactureerd bedrag\"}"
        }
      ]
    },
    {
      "name": "SalesOrderDiscountAmount_LCY",
      "dataType": "decimal",
      "description": "Departments/Sales & Marketing/Order Processing/Sales Orders > Lines > Sales Order Discount Amount",
      "isHidden": true,
      "sourceColumn": "SalesOrderDiscountAmount_LCY",
      "sourceProviderType": "Decimal",
      "annotations": [
        {
          "name": "TabularEditor_TranslatedNames",
          "value": "{\"de-DE\":\"Auftrage Rabattbetrag\",\"en-US\":\"Sales Order Discount Amount\",\"nl-NL\":\"Verkooporder korting\"}"
        },
        {
          "name": "TabularEditor_TranslatedDescriptions",
          "value": "{\"de-DE\":\"Abteilungen/Verkauf & Marketing/Auftragsabwicklung/Aufträge/Zeilen\",\"en-US\":\"Departments/Sales & Marketing/Order Processing/Sales Orders > Lines > Sales Order Discount Amount > Sales Order Discount Amount\",\"nl-NL\":\"Afdelingen/Verkoop/Orderverwerking/Verkooporders > De regels in een verkooporder > Verkooporder korting\"}"
        }
      ]
    },
    {
      "name": "SalesOrderAmount_RCY",
      "dataType": "decimal",
      "description": "Departments/Sales & Marketing/Order Processing/Sales Orders > Lines > Sales Order Amount",
      "isHidden": true,
      "sourceColumn": "SalesOrderAmount_RCY",
      "sourceProviderType": "Decimal",
      "annotations": [
        {
          "name": "TabularEditor_TranslatedNames",
          "value": "{\"de-DE\":\"Auftrage Betrag\",\"en-US\":\"Sales Order Amount\",\"nl-NL\":\"Verkooporder bedrag\"}"
        },
        {
          "name": "TabularEditor_TranslatedDescriptions",
          "value": "{\"de-DE\":\"Abteilungen/Verkauf & Marketing/Auftragsabwicklung/Aufträge/Zeilen\",\"en-US\":\"Departments/Sales & Marketing/Order Processing/Sales Orders > Lines > Sales Order Amount > Sales Order Amount\",\"nl-NL\":\"Afdelingen/Verkoop/Orderverwerking/Verkooporders > De regels in een verkooporder > Verkooporder bedrag\"}"
        }
      ]
    },
    {
      "name": "SalesOrderCostAmount_RCY",
      "dataType": "decimal",
      "description": "Departments/Sales & Marketing/Order Processing/Sales Orders > Lines > Sales Order Cost Amount",
      "isHidden": true,
      "sourceColumn": "SalesOrderCostAmount_RCY",
      "sourceProviderType": "Decimal",
      "annotations": [
        {
          "name": "TabularEditor_TranslatedNames",
          "value": "{\"de-DE\":\"Auftrage Eindstandsbetrag\",\"en-US\":\"Sales Order Cost Amount\",\"nl-NL\":\"Verkooporder kosten bedrag\"}"
        },
        {
          "name": "TabularEditor_TranslatedDescriptions",
          "value": "{\"de-DE\":\"Abteilungen/Verkauf & Marketing/Auftragsabwicklung/Aufträge/Zeilen\",\"en-US\":\"Departments/Sales & Marketing/Order Processing/Sales Orders > Lines > Sales Order Cost Amount > Sales Order Cost Amount\",\"nl-NL\":\"Afdelingen/Verkoop/Orderverwerking/Verkooporders > De regels in een verkooporder > Verkooporder kosten bedrag\"}"
        }
      ]
    },
    {
      "name": "SalesOrderGrossAmount_RCY",
      "dataType": "decimal",
      "description": "Departments/Sales & Marketing/Order Processing/Sales Orders > Lines > Sales Order Gross Amount",
      "isHidden": true,
      "sourceColumn": "SalesOrderGrossAmount_RCY",
      "sourceProviderType": "Decimal",
      "annotations": [
        {
          "name": "TabularEditor_TranslatedNames",
          "value": "{\"de-DE\":\"Total ohne MwSt.\",\"en-US\":\"Sales Order Gross Amount\",\"nl-NL\":\"Verkooporder bruto bedrag\"}"
        },
        {
          "name": "TabularEditor_TranslatedDescriptions",
          "value": "{\"de-DE\":\"Abteilungen/Verkauf & Marketing/Auftragsabwicklung/Aufträge/Zeilen\",\"en-US\":\"Departments/Sales & Marketing/Order Processing/Sales Orders > Lines > Sales Order Gross Amount > Sales Order Gross Amount\",\"nl-NL\":\"Afdelingen/Verkoop/Orderverwerking/Verkooporders > De regels in een verkooporder > Verkooporder bruto bedrag\"}"
        }
      ]
    },
    {
      "name": "SalesOrderOutstandingAmount_RCY",
      "dataType": "decimal",
      "description": "Departments/Sales & Marketing/Order Processing/Sales Orders > Lines > Sales Order Outstanding Amount",
      "isHidden": true,
      "sourceColumn": "SalesOrderOutstandingAmount_RCY",
      "sourceProviderType": "Decimal",
      "annotations": [
        {
          "name": "TabularEditor_TranslatedNames",
          "value": "{\"de-DE\":\"Restauftragsbetrag \",\"en-US\":\"Sales Order Outstanding Amount\",\"nl-NL\":\"Verkooporder openstaand bedrag\"}"
        },
        {
          "name": "TabularEditor_TranslatedDescriptions",
          "value": "{\"de-DE\":\"Abteilungen/Verkauf & Marketing/Auftragsabwicklung/Aufträge/Zeilen\",\"en-US\":\"Departments/Sales & Marketing/Order Processing/Sales Orders > Lines > Sales Order Outstanding Amount > Sales Order Outstanding Amount\",\"nl-NL\":\"Afdelingen/Verkoop/Orderverwerking/Verkooporders > De regels in een verkooporder > Verkooporder openstaand bedrag\"}"
        }
      ]
    },
    {
      "name": "SalesOrderShippedAmount_RCY",
      "dataType": "decimal",
      "description": "Departments/Sales & Marketing/Order Processing/Sales Orders > Lines > Sales Order Shipped Amount",
      "isHidden": true,
      "sourceColumn": "SalesOrderShippedAmount_RCY",
      "sourceProviderType": "Decimal",
      "annotations": [
        {
          "name": "TabularEditor_TranslatedNames",
          "value": "{\"de-DE\":\"Geliefert Betrag\",\"en-US\":\"Sales Order Shipped Amount\",\"nl-NL\":\"Verkooporder verzonden bedrag\"}"
        },
        {
          "name": "TabularEditor_TranslatedDescriptions",
          "value": "{\"de-DE\":\"Abteilungen/Verkauf & Marketing/Auftragsabwicklung/Aufträge/Zeilen\",\"en-US\":\"Departments/Sales & Marketing/Order Processing/Sales Orders > Lines > Sales Order Shipped Amount > Sales Order Shipped Amount\",\"nl-NL\":\"Afdelingen/Verkoop/Orderverwerking/Verkooporders > De regels in een verkooporder > Verkooporder verzonden bedrag\"}"
        }
      ]
    },
    {
      "name": "SalesOrderInvoicedAmount_RCY",
      "dataType": "decimal",
      "description": "Departments/Sales & Marketing/Order Processing/Sales Orders > Lines > Sales Order Invoiced Amount",
      "isHidden": true,
      "sourceColumn": "SalesOrderInvoicedAmount_RCY",
      "sourceProviderType": "Decimal",
      "annotations": [
        {
          "name": "TabularEditor_TranslatedNames",
          "value": "{\"de-DE\":\"Fakturiert Betrag\",\"en-US\":\"Sales Order Invoiced Amount\",\"nl-NL\":\"Verkooporder gefactureerd bedrag\"}"
        },
        {
          "name": "TabularEditor_TranslatedDescriptions",
          "value": "{\"de-DE\":\"Abteilungen/Verkauf & Marketing/Auftragsabwicklung/Aufträge/Zeilen\",\"en-US\":\"Departments/Sales & Marketing/Order Processing/Sales Orders > Lines > Sales Order Invoiced Amount > Sales Order Invoiced Amount\",\"nl-NL\":\"Afdelingen/Verkoop/Orderverwerking/Verkooporders > De regels in een verkooporder > Verkooporder gefactureerd bedrag\"}"
        }
      ]
    },
    {
      "name": "SalesOrderToInvoiceAmount_RCY",
      "dataType": "decimal",
      "description": "Departments/Sales & Marketing/Order Processing/Sales Orders > Lines > Sales Order To Invoice Amount",
      "isHidden": true,
      "sourceColumn": "SalesOrderToInvoiceAmount_RCY",
      "sourceProviderType": "Decimal",
      "annotations": [
        {
          "name": "TabularEditor_TranslatedNames",
          "value": "{\"de-DE\":\"Zu fakturieren Betrag\",\"en-US\":\"Sales Order To Invoice Amount\",\"nl-NL\":\"Verkooporder te factureren bedrag\"}"
        },
        {
          "name": "TabularEditor_TranslatedDescriptions",
          "value": "{\"de-DE\":\"Abteilungen/Verkauf & Marketing/Auftragsabwicklung/Aufträge/Zeilen\",\"en-US\":\"Departments/Sales & Marketing/Order Processing/Sales Orders > Lines > Sales Order To Invoice Amount > Sales Order To Invoice Amount\",\"nl-NL\":\"Afdelingen/Verkoop/Orderverwerking/Verkooporders > De regels in een verkooporder > Verkooporder te factureren bedrag\"}"
        }
      ]
    },
    {
      "name": "SalesOrderToShipAmount_RCY",
      "dataType": "decimal",
      "description": "Departments/Sales & Marketing/Order Processing/Sales Orders > Lines > Sales Order To Ship Amount",
      "isHidden": true,
      "sourceColumn": "SalesOrderToShipAmount_RCY",
      "sourceProviderType": "Decimal",
      "annotations": [
        {
          "name": "TabularEditor_TranslatedNames",
          "value": "{\"de-DE\":\"Zu liefern Betrag\",\"en-US\":\"Sales Order To Ship Amount\",\"nl-NL\":\"Verkooporder te verzenden bedrag\"}"
        },
        {
          "name": "TabularEditor_TranslatedDescriptions",
          "value": "{\"de-DE\":\"Abteilungen/Verkauf & Marketing/Auftragsabwicklung/Aufträge/Zeilen\",\"en-US\":\"Departments/Sales & Marketing/Order Processing/Sales Orders > Lines > Sales Order To Ship Amount > Sales Order To Ship Amount\",\"nl-NL\":\"Afdelingen/Verkoop/Orderverwerking/Verkooporders > De regels in een verkooporder > Verkooporder te verzenden bedrag\"}"
        }
      ]
    },
    {
      "name": "SalesOrderShippedNotInvoicedAmount_RCY",
      "dataType": "decimal",
      "description": "Departments/Sales & Marketing/Order Processing/Sales Orders > Lines > Sales Order Shipped Not Invoiced Amount",
      "isHidden": true,
      "sourceColumn": "SalesOrderShippedNotInvoicedAmount_RCY",
      "sourceProviderType": "Decimal",
      "annotations": [
        {
          "name": "TabularEditor_TranslatedNames",
          "value": "{\"de-DE\":\"Nicht fakturierte Lieferung\",\"en-US\":\"Sales Order Shipped Not Invoiced Amount\",\"nl-NL\":\"Verkooporder verzonden niet gefactureerd bedrag\"}"
        },
        {
          "name": "TabularEditor_TranslatedDescriptions",
          "value": "{\"de-DE\":\"Abteilungen/Verkauf & Marketing/Auftragsabwicklung/Aufträge/Zeilen\",\"en-US\":\"Departments/Sales & Marketing/Order Processing/Sales Orders > Lines > Sales Order Shipped Not Invoiced Amount > Sales Order Shipped Not Invoiced Amount\",\"nl-NL\":\"Afdelingen/Verkoop/Orderverwerking/Verkooporders > De regels in een verkooporder > Verkooporder verzonden niet gefactureerd bedrag\"}"
        }
      ]
    },
    {
      "name": "SalesOrderDiscountAmount_RCY",
      "dataType": "decimal",
      "description": "Departments/Sales & Marketing/Order Processing/Sales Orders > Lines > Sales Order Discount Amount",
      "isHidden": true,
      "sourceColumn": "SalesOrderDiscountAmount_RCY",
      "sourceProviderType": "Decimal",
      "annotations": [
        {
          "name": "TabularEditor_TranslatedNames",
          "value": "{\"de-DE\":\"Auftrage Rabattbetrag\",\"en-US\":\"Sales Order Discount Amount\",\"nl-NL\":\"Verkooporder korting\"}"
        },
        {
          "name": "TabularEditor_TranslatedDescriptions",
          "value": "{\"de-DE\":\"Abteilungen/Verkauf & Marketing/Auftragsabwicklung/Aufträge/Zeilen\",\"en-US\":\"Departments/Sales & Marketing/Order Processing/Sales Orders > Lines > Sales Order Discount Amount > Sales Order Discount Amount\",\"nl-NL\":\"Afdelingen/Verkoop/Orderverwerking/Verkooporders > De regels in een verkooporder > Verkooporder korting\"}"
        }
      ]
    },
    {
      "name": "CustomerID",
      "dataType": "int64",
      "isHidden": true,
      "sourceColumn": "CustomerID"
    },
    {
      "name": "SalesOrderID",
      "dataType": "int64",
      "isHidden": true,
      "sourceColumn": "SalesOrderID"
    },
    {
      "name": "DateID",
      "dataType": "int64",
      "isHidden": true,
      "sourceColumn": "DateID"
    }
  ],
  "partitions": [
    {
      "name": "SalesOrder",
      "source": {
        "type": "query",
        "query": "SELECT * FROM tabular.factSalesOrder",
        "dataSource": "Birds"
      },
      "annotations": [
        {
          "name": "TabularEditor_TableSchema",
          "value": "{\"Name\":\"SalesOrder\",\"Schema\":\"fact\",\"Database\":\"BirdsDEVSales\",\"IncludedColumns\":[\"StageID\",\"CompanyID\",\"DataConnectionID\",\"ComponentExecutionID\",\"ExecutionFlag\",\"FinancialDimension1ID\",\"FinancialDimension2ID\",\"FinancialDimension3ID\",\"FinancialDimension4ID\",\"FinancialDimension5ID\",\"FinancialDimension6ID\",\"FinancialDimension7ID\",\"FinancialDimension8ID\",\"SelltoCustomerID\",\"BilltoCustomerID\",\"ShiptoCustomerID\",\"ItemID\",\"ItemVariantID\",\"LocationID\",\"GeneralProductPostingGroupID\",\"GeneralBusinessPostingGroupID\",\"ShippingAgentID\",\"ShippingAgentServicesID\",\"SalespersonPurchaserID\",\"ShipmentMethodID\",\"TransportMethodID\",\"DocumentSalesOrderID\",\"OrderDateID\",\"ShipmentDateID\",\"PlannedDeliveryDateID\",\"PromisedDeliveryDateID\",\"PlannedShipmentDateID\",\"SalesOrderShippedGrossWeight\",\"SalesOrderShippedNetWeight\",\"SalesOrderQuantity\",\"SalesOrderOutstandingQuantity\",\"SalesOrderShippedQuantity\",\"SalesOrderInvoicedQuantity\",\"SalesOrderToInvoiceQuantity\",\"SalesOrderToShipQuantity\",\"SalesOrderShippedNotInvoicedQuantity\",\"SalesOrderAmount_LCY\",\"SalesOrderCostAmount_LCY\",\"SalesOrderGrossAmount_LCY\",\"SalesOrderOutstandingAmount_LCY\",\"SalesOrderShippedAmount_LCY\",\"SalesOrderInvoicedAmount_LCY\",\"SalesOrderToInvoiceAmount_LCY\",\"SalesOrderToShipAmount_LCY\",\"SalesOrderShippedNotInvoicedAmount_LCY\",\"SalesOrderDiscountAmount_LCY\",\"SalesOrderAmount\",\"SalesOrderCostAmount\",\"SalesOrderGrossAmount\",\"SalesOrderOutstandingAmount\",\"SalesOrderShippedAmount\",\"SalesOrderInvoicedAmount\",\"SalesOrderToInvoiceAmount\",\"SalesOrderToShipAmount\",\"SalesOrderShippedNotInvoicedAmount\",\"SalesOrderDiscountAmount\"],\"SelectAll\":true}"
        }
      ]
    }
  ],
  "annotations": [
    {
      "name": "Postfix",
      "value": "SO"
    },
    {
      "name": "TabularEditor_TranslatedNames",
      "value": "{\"de-DE\":\"Σ Verkaufsaufträge\",\"en-US\":\"Σ Sales orders\",\"nl-NL\":\"Σ Verkooporders\"}"
    },
    {
      "name": "TabularEditor_Relationships",
      "value": [
        "[",
        "  {",
        "    \"fromTable\": \"factSalesOrder\",",
        "    \"fromColumn\": \"BilltoCustomerID\",",
        "    \"toTable\": \"BillToCustomer\",",
        "    \"toColumn\": \"CustomerID\"",
        "  },",
        "  {",
        "    \"fromTable\": \"factSalesOrder\",",
        "    \"fromColumn\": \"BilltoCustomerID\",",
        "    \"toTable\": \"Customer\",",
        "    \"toColumn\": \"CustomerID\",",
        "    \"isActive\": false",
        "  },",
        "  {",
        "    \"fromTable\": \"factSalesOrder\",",
        "    \"fromColumn\": \"CompanyID\",",
        "    \"toTable\": \"Company\",",
        "    \"toColumn\": \"CompanyID\"",
        "  },",
        "  {",
        "    \"fromTable\": \"factSalesOrder\",",
        "    \"fromColumn\": \"CustomerID\",",
        "    \"toTable\": \"Customer\",",
        "    \"toColumn\": \"CustomerID\",",
        "    \"isActive\": false",
        "  },",
        "  {",
        "    \"fromTable\": \"factSalesOrder\",",
        "    \"fromColumn\": \"DateID\",",
        "    \"toTable\": \"Date\",",
        "    \"toColumn\": \"DateID\",",
        "    \"isActive\": false",
        "  },",
        "  {",
        "    \"fromTable\": \"factSalesOrder\",",
        "    \"fromColumn\": \"FinancialDimension1ID\",",
        "    \"toTable\": \"FinancialDimension1\",",
        "    \"toColumn\": \"FinancialDimension1ID\"",
        "  },",
        "  {",
        "    \"fromTable\": \"factSalesOrder\",",
        "    \"fromColumn\": \"FinancialDimension2ID\",",
        "    \"toTable\": \"FinancialDimension2\",",
        "    \"toColumn\": \"FinancialDimension2ID\"",
        "  },",
        "  {",
        "    \"fromTable\": \"factSalesOrder\",",
        "    \"fromColumn\": \"FinancialDimension3ID\",",
        "    \"toTable\": \"FinancialDimension3\",",
        "    \"toColumn\": \"FinancialDimension3ID\"",
        "  },",
        "  {",
        "    \"fromTable\": \"factSalesOrder\",",
        "    \"fromColumn\": \"FinancialDimension4ID\",",
        "    \"toTable\": \"FinancialDimension4\",",
        "    \"toColumn\": \"FinancialDimension4ID\"",
        "  },",
        "  {",
        "    \"fromTable\": \"factSalesOrder\",",
        "    \"fromColumn\": \"FinancialDimension5ID\",",
        "    \"toTable\": \"FinancialDimension5\",",
        "    \"toColumn\": \"FinancialDimension5ID\"",
        "  },",
        "  {",
        "    \"fromTable\": \"factSalesOrder\",",
        "    \"fromColumn\": \"FinancialDimension6ID\",",
        "    \"toTable\": \"FinancialDimension6\",",
        "    \"toColumn\": \"FinancialDimension6ID\"",
        "  },",
        "  {",
        "    \"fromTable\": \"factSalesOrder\",",
        "    \"fromColumn\": \"FinancialDimension7ID\",",
        "    \"toTable\": \"FinancialDimension7\",",
        "    \"toColumn\": \"FinancialDimension7ID\"",
        "  },",
        "  {",
        "    \"fromTable\": \"factSalesOrder\",",
        "    \"fromColumn\": \"FinancialDimension8ID\",",
        "    \"toTable\": \"FinancialDimension8\",",
        "    \"toColumn\": \"FinancialDimension8ID\"",
        "  },",
        "  {",
        "    \"fromTable\": \"factSalesOrder\",",
        "    \"fromColumn\": \"GeneralBusinessPostingGroupID\",",
        "    \"toTable\": \"GeneralBusinessPostingGroup\",",
        "    \"toColumn\": \"GeneralBusinessPostingGroupID\"",
        "  },",
        "  {",
        "    \"fromTable\": \"factSalesOrder\",",
        "    \"fromColumn\": \"GeneralProductPostingGroupID\",",
        "    \"toTable\": \"GeneralProductPostingGroup\",",
        "    \"toColumn\": \"GeneralProductPostingGroupID\"",
        "  },",
        "  {",
        "    \"fromTable\": \"factSalesOrder\",",
        "    \"fromColumn\": \"ItemID\",",
        "    \"toTable\": \"Item\",",
        "    \"toColumn\": \"ItemID\"",
        "  },",
        "  {",
        "    \"fromTable\": \"factSalesOrder\",",
        "    \"fromColumn\": \"ItemVariantID\",",
        "    \"toTable\": \"ItemVariant\",",
        "    \"toColumn\": \"ItemVariantID\"",
        "  },",
        "  {",
        "    \"fromTable\": \"factSalesOrder\",",
        "    \"fromColumn\": \"LocationID\",",
        "    \"toTable\": \"Location\",",
        "    \"toColumn\": \"LocationID\"",
        "  },",
        "  {",
        "    \"fromTable\": \"factSalesOrder\",",
        "    \"fromColumn\": \"OrderDateID\",",
        "    \"toTable\": \"Date\",",
        "    \"toColumn\": \"DateID\"",
        "  },",
        "  {",
        "    \"fromTable\": \"factSalesOrder\",",
        "    \"fromColumn\": \"OrderDateID\",",
        "    \"toTable\": \"OrderDate\",",
        "    \"toColumn\": \"DateID\"",
        "  },",
        "  {",
        "    \"fromTable\": \"factSalesOrder\",",
        "    \"fromColumn\": \"PlannedDeliveryDateID\",",
        "    \"toTable\": \"Date\",",
        "    \"toColumn\": \"DateID\",",
        "    \"isActive\": false",
        "  },",
        "  {",
        "    \"fromTable\": \"factSalesOrder\",",
        "    \"fromColumn\": \"PlannedDeliveryDateID\",",
        "    \"toTable\": \"PlannedDeliveryDate\",",
        "    \"toColumn\": \"DateID\"",
        "  },",
        "  {",
        "    \"fromTable\": \"factSalesOrder\",",
        "    \"fromColumn\": \"PlannedShipmentDateID\",",
        "    \"toTable\": \"Date\",",
        "    \"toColumn\": \"DateID\",",
        "    \"isActive\": false",
        "  },",
        "  {",
        "    \"fromTable\": \"factSalesOrder\",",
        "    \"fromColumn\": \"PlannedShipmentDateID\",",
        "    \"toTable\": \"PlannedShipmentDate\",",
        "    \"toColumn\": \"DateID\"",
        "  },",
        "  {",
        "    \"fromTable\": \"factSalesOrder\",",
        "    \"fromColumn\": \"PlannedShipmentDateID\",",
        "    \"toTable\": \"ShipmentDate\",",
        "    \"toColumn\": \"DateID\",",
        "    \"isActive\": false",
        "  },",
        "  {",
        "    \"fromTable\": \"factSalesOrder\",",
        "    \"fromColumn\": \"PromisedDeliveryDateID\",",
        "    \"toTable\": \"Date\",",
        "    \"toColumn\": \"DateID\",",
        "    \"isActive\": false",
        "  },",
        "  {",
        "    \"fromTable\": \"factSalesOrder\",",
        "    \"fromColumn\": \"PromisedDeliveryDateID\",",
        "    \"toTable\": \"PromisedDeliveryDate\",",
        "    \"toColumn\": \"DateID\"",
        "  },",
        "  {",
        "    \"fromTable\": \"factSalesOrder\",",
        "    \"fromColumn\": \"SalesOrderID\",",
        "    \"toTable\": \"SalesOrder\",",
        "    \"toColumn\": \"SalesOrderID\"",
        "  },",
        "  {",
        "    \"fromTable\": \"factSalesOrder\",",
        "    \"fromColumn\": \"SalespersonPurchaserID\",",
        "    \"toTable\": \"SalespersonPurchaser\",",
        "    \"toColumn\": \"SalespersonPurchaserID\"",
        "  },",
        "  {",
        "    \"fromTable\": \"factSalesOrder\",",
        "    \"fromColumn\": \"SelltoCustomerID\",",
        "    \"toTable\": \"Customer\",",
        "    \"toColumn\": \"CustomerID\"",
        "  },",
        "  {",
        "    \"fromTable\": \"factSalesOrder\",",
        "    \"fromColumn\": \"SelltoCustomerID\",",
        "    \"toTable\": \"SellToCustomer\",",
        "    \"toColumn\": \"CustomerID\"",
        "  },",
        "  {",
        "    \"fromTable\": \"factSalesOrder\",",
        "    \"fromColumn\": \"ShipmentDateID\",",
        "    \"toTable\": \"Date\",",
        "    \"toColumn\": \"DateID\",",
        "    \"isActive\": false",
        "  },",
        "  {",
        "    \"fromTable\": \"factSalesOrder\",",
        "    \"fromColumn\": \"ShipmentDateID\",",
        "    \"toTable\": \"ShipmentDate\",",
        "    \"toColumn\": \"DateID\"",
        "  },",
        "  {",
        "    \"fromTable\": \"factSalesOrder\",",
        "    \"fromColumn\": \"ShipmentMethodID\",",
        "    \"toTable\": \"ShipmentMethod\",",
        "    \"toColumn\": \"ShipmentMethodID\"",
        "  },",
        "  {",
        "    \"fromTable\": \"factSalesOrder\",",
        "    \"fromColumn\": \"ShippingAgentID\",",
        "    \"toTable\": \"ShippingAgent\",",
        "    \"toColumn\": \"ShippingAgentID\"",
        "  },",
        "  {",
        "    \"fromTable\": \"factSalesOrder\",",
        "    \"fromColumn\": \"ShippingAgentServicesID\",",
        "    \"toTable\": \"ShippingAgentServices\",",
        "    \"toColumn\": \"ShippingAgentServicesID\"",
        "  },",
        "  {",
        "    \"fromTable\": \"factSalesOrder\",",
        "    \"fromColumn\": \"ShiptoCustomerID\",",
        "    \"toTable\": \"Customer\",",
        "    \"toColumn\": \"CustomerID\",",
        "    \"isActive\": false",
        "  },",
        "  {",
        "    \"fromTable\": \"factSalesOrder\",",
        "    \"fromColumn\": \"ShiptoCustomerID\",",
        "    \"toTable\": \"ShipToCustomer\",",
        "    \"toColumn\": \"CustomerID\"",
        "  },",
        "  {",
        "    \"fromTable\": \"factSalesOrder\",",
        "    \"fromColumn\": \"TransportMethodID\",",
        "    \"toTable\": \"TransportMethod\",",
        "    \"toColumn\": \"TransportMethodID\"",
        "  }",
        "]"
      ]
    }
  ]
}