{
  "name": "SalesOrderShippedGrossWeight_YTD_Variance%_SO",
  "description": "Departments/Sales & Marketing/Order Processing/Sales Orders > Lines > Sales Order Shipped Gross Weight YTD Variance %",
  "expression": "DIVIDE ( [SalesOrderShippedGrossWeight_YTD_SO] - [SalesOrderShippedGrossWeight_LYTD_SO], [SalesOrderShippedGrossWeight_LYTD_SO] )",
  "formatString": "#,##0.0 %",
  "displayFolder": "Σ YTD Variance",
  "annotations": [
    {
      "name": "TabularEditor_TranslatedNames",
      "value": "{\"de-DE\":\"Bruttogewicht YTD Varianz %\",\"en-US\":\"Sales Order Shipped Gross Weight YTD Variance %\",\"nl-NL\":\"Verkooporder verzonden bruto gewicht YTD Variance %\"}"
    },
    {
      "name": "TabularEditor_TranslatedDescriptions",
      "value": "{\"de-DE\":\"Abteilungen/Verkauf & Marketing/Auftragsabwicklung/Aufträge/Zeilen\",\"en-US\":\"Departments/Sales & Marketing/Order Processing/Sales Orders > Lines > Sales Order Shipped Gross Weight > Sales Order Shipped Gross Weight YTD Variance %\",\"nl-NL\":\"Afdelingen/Verkoop/Orderverwerking/Verkooporders > De regels in een verkooporder > Verkooporder verzonden bruto gewicht YTD Variance %\"}"
    },
    {
      "name": "TabularEditor_TranslatedDisplayFolders",
      "value": "{\"de-DE\":\"Σ YTD Varianz\",\"en-US\":\"Σ YTD Variance\",\"nl-NL\":\"Σ YTD Variance\"}"
    }
  ]
}