{
  "name": "SalesOrderShippedQuantity_SO",
  "description": "Departments/Sales & Marketing/Order Processing/Sales Orders > Lines > Sales Order Shipped Quantity",
  "expression": "SUM ( 'factSalesOrder'[SalesOrderShippedQuantity] )",
  "formatString": "#,##0.00",
  "annotations": [
    {
      "name": "TabularEditor_TranslatedNames",
      "value": "{\"de-DE\":\"Auftrage Menge geliefert\",\"en-US\":\"Sales Order Shipped Quantity\",\"nl-NL\":\"Verkooporder verzonden aantal\"}"
    },
    {
      "name": "TabularEditor_TranslatedDescriptions",
      "value": "{\"de-DE\":\"Abteilungen/Verkauf & Marketing/Auftragsabwicklung/Aufträge/Zeilen\",\"en-US\":\"Departments/Sales & Marketing/Order Processing/Sales Orders > Lines > Sales Order Shipped Quantity > Sales Order Shipped Quantity\",\"nl-NL\":\"Afdelingen/Verkoop/Orderverwerking/Verkooporders > De regels in een verkooporder > Verkooporder verzonden aantal\"}"
    }
  ]
}