{
  "name": "SalesOrderShippedNetWeight_SPLY_Variance%_SO",
  "description": "Departments/Sales & Marketing/Order Processing/Sales Orders > Lines > Sales Order Shipped Net Weight SPLY Variance %",
  "expression": "DIVIDE ( [SalesOrderShippedNetWeight_SO] - [SalesOrderShippedNetWeight_SPLY_SO], [SalesOrderShippedNetWeight_SPLY_SO] )",
  "formatString": "#,##0.0 %",
  "displayFolder": "Σ SPLY Variance",
  "annotations": [
    {
      "name": "TabularEditor_TranslatedNames",
      "value": "{\"de-DE\":\"Nettogewicht SPLY Varianz %\",\"en-US\":\"Sales Order Shipped Net Weight SPLY Variance %\",\"nl-NL\":\"Verkooporder verzonden netto gewicht SPLY Variance %\"}"
    },
    {
      "name": "TabularEditor_TranslatedDescriptions",
      "value": "{\"de-DE\":\"Abteilungen/Verkauf & Marketing/Auftragsabwicklung/Aufträge/Zeilen\",\"en-US\":\"Departments/Sales & Marketing/Order Processing/Sales Orders > Lines > Sales Order Shipped Net Weight > Sales Order Shipped Net Weight SPLY Variance %\",\"nl-NL\":\"Afdelingen/Verkoop/Orderverwerking/Verkooporders > De regels in een verkooporder > Verkooporder verzonden netto gewicht SPLY Variance %\"}"
    },
    {
      "name": "TabularEditor_TranslatedDisplayFolders",
      "value": "{\"de-DE\":\"Σ SPLY Varianz\",\"en-US\":\"Σ SPLY Variance\",\"nl-NL\":\"Σ SPLY Variance\"}"
    }
  ]
}