{
  "name": "SalesOrderShippedNotInvoicedAmount_YTD_Variance_SO",
  "description": "Departments/Sales & Marketing/Order Processing/Sales Orders > Lines > Sales Order Shipped Not Invoiced Amount YTD Variance",
  "expression": "[SalesOrderShippedNotInvoicedAmount_YTD_SO] - [SalesOrderShippedNotInvoicedAmount_LYTD_SO]",
  "formatString": "#,##0.00",
  "displayFolder": "Σ YTD Variance",
  "annotations": [
    {
      "name": "TabularEditor_TranslatedNames",
      "value": "{\"de-DE\":\"Nicht fakturierte Lieferung YTD Varianz\",\"en-US\":\"Sales Order Shipped Not Invoiced Amount YTD Variance\",\"nl-NL\":\"Verkooporder verzonden niet gefactureerd bedrag YTD Variance\"}"
    },
    {
      "name": "TabularEditor_TranslatedDescriptions",
      "value": "{\"de-DE\":\"Abteilungen/Verkauf & Marketing/Auftragsabwicklung/Aufträge/Zeilen\",\"en-US\":\"Departments/Sales & Marketing/Order Processing/Sales Orders > Lines > Sales Order Shipped Not Invoiced Amount > Sales Order Shipped Not Invoiced Amount YTD Variance\",\"nl-NL\":\"Afdelingen/Verkoop/Orderverwerking/Verkooporders > De regels in een verkooporder > Verkooporder verzonden niet gefactureerd bedrag YTD Variance\"}"
    },
    {
      "name": "TabularEditor_TranslatedDisplayFolders",
      "value": "{\"de-DE\":\"Σ YTD Varianz\",\"en-US\":\"Σ YTD Variance\",\"nl-NL\":\"Σ YTD Variance\"}"
    }
  ]
}