{
  "name": "SalesOrderToInvoiceAmount_YTD_SO",
  "description": "Departments/Sales & Marketing/Order Processing/Sales Orders > Lines > Sales Order To Invoice Amount YTD",
  "expression": [
    "VAR YTD0 =",
    "    FILTER (",
    "        ALL ( 'Date' ),",
    "        'Date'[CYearNo] = MAX ( 'Date'[CYearNo] )",
    "            && 'Date'[DateID] <= MAX ( 'Date'[DateID] )",
    "    )",
    "RETURN",
    "    CALCULATE ( [SalesOrderToInvoiceAmount_SO], YTD0 )"
  ],
  "formatString": "#,##0.00",
  "displayFolder": "Σ YTD",
  "annotations": [
    {
      "name": "TabularEditor_TranslatedNames",
      "value": "{\"de-DE\":\"Zu fakturieren Betrag YTD\",\"en-US\":\"Sales Order To Invoice Amount YTD\",\"nl-NL\":\"Verkooporder te factureren bedrag YTD\"}"
    },
    {
      "name": "TabularEditor_TranslatedDescriptions",
      "value": "{\"de-DE\":\"Abteilungen/Verkauf & Marketing/Auftragsabwicklung/Aufträge/Zeilen\",\"en-US\":\"Departments/Sales & Marketing/Order Processing/Sales Orders > Lines > Sales Order To Invoice Amount > Sales Order To Invoice Amount YTD\",\"nl-NL\":\"Afdelingen/Verkoop/Orderverwerking/Verkooporders > De regels in een verkooporder > Verkooporder te factureren bedrag YTD\"}"
    },
    {
      "name": "TabularEditor_TranslatedDisplayFolders",
      "value": "{\"de-DE\":\"Σ YTD\",\"en-US\":\"Σ YTD\",\"nl-NL\":\"Σ YTD\"}"
    }
  ]
}