{
  "name": "SalesOrderOutstandingQuantity_SO",
  "description": "Departments/Sales & Marketing/Order Processing/Sales Orders > Lines > Sales Order Outstanding Quantity",
  "expression": "SUM ( 'factSalesOrder'[SalesOrderOutstandingQuantity] )",
  "formatString": "#,##0.00",
  "annotations": [
    {
      "name": "TabularEditor_TranslatedNames",
      "value": "{\"de-DE\":\"Restauftragsmenge\",\"en-US\":\"Sales Order Outstanding Quantity\",\"nl-NL\":\"Verkooporder openstaand aantal\"}"
    },
    {
      "name": "TabularEditor_TranslatedDescriptions",
      "value": "{\"de-DE\":\"Abteilungen/Verkauf & Marketing/Auftragsabwicklung/Aufträge/Zeilen\",\"en-US\":\"Departments/Sales & Marketing/Order Processing/Sales Orders > Lines > Sales Order Outstanding Quantity > Sales Order Outstanding Quantity\",\"nl-NL\":\"Afdelingen/Verkoop/Orderverwerking/Verkooporders > De regels in een verkooporder > Verkooporder openstaand aantal\"}"
    }
  ]
}