{
  "name": "SalesOrderGrossAmount_SO",
  "description": "Departments/Sales & Marketing/Order Processing/Sales Orders > Lines > Sales Order Gross Amount",
  "expression": "SUM ( 'factSalesOrder'[SalesOrderGrossAmount_RCY] )",
  "formatString": "#,##0.00",
  "annotations": [
    {
      "name": "TabularEditor_TranslatedNames",
      "value": "{\"de-DE\":\"Total ohne MwSt.\",\"en-US\":\"Sales Order Gross Amount\",\"nl-NL\":\"Verkooporder bruto bedrag\"}"
    },
    {
      "name": "TabularEditor_TranslatedDescriptions",
      "value": "{\"de-DE\":\"Abteilungen/Verkauf & Marketing/Auftragsabwicklung/Aufträge/Zeilen\",\"en-US\":\"Departments/Sales & Marketing/Order Processing/Sales Orders > Lines > Sales Order Gross Amount > Sales Order Gross Amount\",\"nl-NL\":\"Afdelingen/Verkoop/Orderverwerking/Verkooporders > De regels in een verkooporder > Verkooporder bruto bedrag\"}"
    }
  ]
}