{
  "name": "SalesOrderToShipQuantity_YTD_Variance%_SO",
  "description": "Departments/Sales & Marketing/Order Processing/Sales Orders > Lines > Sales Order To Ship Quantity YTD Variance %",
  "expression": "DIVIDE ( [SalesOrderToShipQuantity_YTD_SO] - [SalesOrderToShipQuantity_LYTD_SO], [SalesOrderToShipQuantity_LYTD_SO] )",
  "formatString": "#,##0.0 %",
  "displayFolder": "Σ YTD Variance",
  "annotations": [
    {
      "name": "TabularEditor_TranslatedNames",
      "value": "{\"de-DE\":\"Auftrage zu liefern YTD Varianz %\",\"en-US\":\"Sales Order To Ship Quantity YTD Variance %\",\"nl-NL\":\"Verkooporder te verzenden aantal YTD Variance %\"}"
    },
    {
      "name": "TabularEditor_TranslatedDescriptions",
      "value": "{\"de-DE\":\"Abteilungen/Verkauf & Marketing/Auftragsabwicklung/Aufträge/Zeilen\",\"en-US\":\"Departments/Sales & Marketing/Order Processing/Sales Orders > Lines > Sales Order To Ship Quantity > Sales Order To Ship Quantity YTD Variance %\",\"nl-NL\":\"Afdelingen/Verkoop/Orderverwerking/Verkooporders > De regels in een verkooporder > Verkooporder te verzenden aantal YTD Variance %\"}"
    },
    {
      "name": "TabularEditor_TranslatedDisplayFolders",
      "value": "{\"de-DE\":\"Σ YTD Varianz\",\"en-US\":\"Σ YTD Variance\",\"nl-NL\":\"Σ YTD Variance\"}"
    }
  ]
}