{
  "name": "SalesOrderInvoicedAmount_YTD_Index_SO",
  "description": "Departments/Sales & Marketing/Order Processing/Sales Orders > Lines > Sales Order Invoiced Amount YTD Index",
  "expression": "DIVIDE ( [SalesOrderInvoicedAmount_YTD_SO], [SalesOrderInvoicedAmount_LYTD_SO] ) * 100",
  "formatString": "#,##0.0",
  "displayFolder": "Σ YTD Variance",
  "annotations": [
    {
      "name": "TabularEditor_TranslatedNames",
      "value": "{\"de-DE\":\"Fakturiert Betrag YTD Index\",\"en-US\":\"Sales Order Invoiced Amount YTD Index\",\"nl-NL\":\"Verkooporder gefactureerd bedrag YTD Index\"}"
    },
    {
      "name": "TabularEditor_TranslatedDescriptions",
      "value": "{\"de-DE\":\"Abteilungen/Verkauf & Marketing/Auftragsabwicklung/Aufträge/Zeilen\",\"en-US\":\"Departments/Sales & Marketing/Order Processing/Sales Orders > Lines > Sales Order Invoiced Amount > Sales Order Invoiced Amount YTD Index\",\"nl-NL\":\"Afdelingen/Verkoop/Orderverwerking/Verkooporders > De regels in een verkooporder > Verkooporder gefactureerd bedrag YTD Index\"}"
    },
    {
      "name": "TabularEditor_TranslatedDisplayFolders",
      "value": "{\"de-DE\":\"Σ YTD Varianz\",\"en-US\":\"Σ YTD Variance\",\"nl-NL\":\"Σ YTD Variance\"}"
    }
  ]
}