{
  "name": "SalesOrderToInvoiceAmount_SO",
  "description": "Departments/Sales & Marketing/Order Processing/Sales Orders > Lines > Sales Order To Invoice Amount",
  "expression": "SUM ( 'factSalesOrder'[SalesOrderToInvoiceAmount_RCY] )",
  "formatString": "#,##0.00",
  "annotations": [
    {
      "name": "TabularEditor_TranslatedNames",
      "value": "{\"de-DE\":\"Zu fakturieren Betrag\",\"en-US\":\"Sales Order To Invoice Amount\",\"nl-NL\":\"Verkooporder te factureren bedrag\"}"
    },
    {
      "name": "TabularEditor_TranslatedDescriptions",
      "value": "{\"de-DE\":\"Abteilungen/Verkauf & Marketing/Auftragsabwicklung/Aufträge/Zeilen\",\"en-US\":\"Departments/Sales & Marketing/Order Processing/Sales Orders > Lines > Sales Order To Invoice Amount > Sales Order To Invoice Amount\",\"nl-NL\":\"Afdelingen/Verkoop/Orderverwerking/Verkooporders > De regels in een verkooporder > Verkooporder te factureren bedrag\"}"
    }
  ]
}