{
  "name": "ForecastQuantity_SPLY_Index_PRF",
  "description": "Departments > Manufacturing > Planning > Production Forecasts > Edit Demand Forecast > Entries > Forecast Quantity SPLY Index",
  "expression": "DIVIDE ( [ForecastQuantity_PRF], [ForecastQuantity_SPLY_PRF] ) * 100",
  "formatString": "#,##0.0",
  "displayFolder": "Σ SPLY Variance",
  "annotations": [
    {
      "name": "TabularEditor_TranslatedNames",
      "value": "{\"de-DE\":\"Planungsmenge SPLY Index\",\"en-US\":\"Forecast Quantity SPLY Index\",\"nl-NL\":\"Prognoseaantal SPLY Index\"}"
    },
    {
      "name": "TabularEditor_TranslatedDescriptions",
      "value": "{\"de-DE\":\"Abteilungen > Produktion > Planung > Absatzplanung > Absatzplanung bearbeiten > Menge SPLY Index\",\"en-US\":\"Departments > Manufacturing > Planning > Production Forecasts > Edit Demand Forecast > Entries > Forecast Quantity SPLY Index\",\"nl-NL\":\"Afdelingen > Productie > Planning > Productieprognoses > Vraagprognose bewerken > Prognoseaantal SPLY Index\"}"
    },
    {
      "name": "TabularEditor_TranslatedDisplayFolders",
      "value": "{\"de-DE\":\"Σ SPLY Variance\",\"en-US\":\"Σ SPLY Variance\",\"nl-NL\":\"Σ SPLY Variance\"}"
    }
  ]
}