{
  "name": "ForecastQuantityBase_YTD_PRF",
  "description": "Departments > Manufacturing > Planning > Production Forecasts > Edit Demand Forecast > Entries > Forecast Quantity Base YTD",
  "expression": [
    "VAR YTD0 =",
    "    FILTER (",
    "        ALL ( 'Date' ),",
    "        'Date'[CYearNo] = MAX ( 'Date'[CYearNo] )",
    "            && 'Date'[DateID] <= MAX ( 'Date'[DateID] )",
    "    )",
    "RETURN",
    "    CALCULATE ( [ForecastQuantityBase_PRF], YTD0 )"
  ],
  "formatString": "#,##0.00",
  "displayFolder": "Σ YTD",
  "annotations": [
    {
      "name": "TabularEditor_TranslatedNames",
      "value": "{\"de-DE\":\"Planungsmenge (Basis) YTD\",\"en-US\":\"Forecast Quantity Base YTD\",\"nl-NL\":\"Prognoseaantal Basis YTD\"}"
    },
    {
      "name": "TabularEditor_TranslatedDescriptions",
      "value": "{\"de-DE\":\"Abteilungen > Produktion > Planung > Absatzplanung > Absatzplanung bearbeiten > Menge YTD\",\"en-US\":\"Departments > Manufacturing > Planning > Production Forecasts > Edit Demand Forecast > Entries > Forecast Quantity Base YTD\",\"nl-NL\":\"Afdelingen > Productie > Planning > Productieprognoses > Vraagprognose bewerken > Prognoseaantal (Basis) YTD\"}"
    },
    {
      "name": "TabularEditor_TranslatedDisplayFolders",
      "value": "{\"de-DE\":\"Σ YTD\",\"en-US\":\"Σ YTD\",\"nl-NL\":\"Σ YTD\"}"
    }
  ]
}