{
  "name": "ReceivedQuantity_LYTD_PILE",
  "description": "Departments/Item Management/General Data/Items > Entries > Ledger Entry > Received Quantity",
  "expression": [
    "VAR LYTD =",
    "    FILTER (",
    "        ALL ( 'Date' ),",
    "        'Date'[CYearNo]",
    "            = MAX ( 'Date'[CYearNo] ) - 1",
    "            && 'Date'[Date] <= MAX ( 'Date'[TDatePY] )",
    "    )",
    "RETURN",
    "    CALCULATE ( [ReceivedQuantity_PILE], LYTD )"
  ],
  "formatString": "#,##0",
  "displayFolder": "Σ LYTD",
  "annotations": [
    {
      "name": "TabularEditor_TranslatedNames",
      "value": "{\"de-DE\":\"Wareneingangsmenge LYTD\",\"en-US\":\"Received Quantity LYTD\",\"nl-NL\":\"Ontvangen aantal LYTD\"}"
    },
    {
      "name": "TabularEditor_TranslatedDescriptions",
      "value": "{\"de-DE\":\"Startseite/Artikel/Aktionen/Posten/Posten\",\"en-US\":\"Departments/Item Management/General Data/Items > Entries > Ledger Entry > Received Quantity\",\"nl-NL\":\"Afdelingen/Artikelbeheer/Stamgegevens/Artikelen > Posten > Posten\"}"
    },
    {
      "name": "TabularEditor_TranslatedDisplayFolders",
      "value": "{\"de-DE\":\"Σ LYTD\",\"en-US\":\"Σ LYTD\",\"nl-NL\":\"Σ LYTD\"}"
    }
  ]
}