{
  "name": "ActualConsumptionQuantity_SPLY_Variance%_MFG",
  "description": "Departments > Manufacturing > Execution > Released Prod Orders > Navigate > Entries > Item Ledger Entries sum(Invoiced Quantity) where Entry Type = 5, when capacity ledger entry exists, also the quantity from this table is included SPLY Variance %",
  "expression": "DIVIDE ( [ActualConsumptionQuantity_MFG] - [ActualConsumptionQuantity_SPLY_MFG], [ActualConsumptionQuantity_SPLY_MFG] )",
  "formatString": "#,##0.0 %",
  "displayFolder": "Σ SPLY Variance",
  "annotations": [
    {
      "name": "TabularEditor_TranslatedNames",
      "value": "{\"de-DE\":\"Tatsächliche Verbrauch Menge SPLY Varianz %\",\"en-US\":\"Actual Consumption Quantity SPLY Variance %\",\"nl-NL\":\"Werkelijke verbruikte hoeveelheid SPLY Variance %\"}"
    },
    {
      "name": "TabularEditor_TranslatedDescriptions",
      "value": "{\"de-DE\":\"Abteilungen/Produktion/Auftragssteuerung/Geplante FA/Posten/ArtikelPosten\",\"en-US\":\"Departments > Manufacturing > Execution > Released Prod Orders > Navigate > Entries > Item Ledger Entries sum(Invoiced Quantity) where Entry Type = 5, when capacity ledger entry exists, also the quantity from this table is included SPLY Variance %\",\"nl-NL\":\"Afdelingen > Productie > Historie > Journalen > Artikelposten > som van Aantal waar boekingssoort = artikel. Wanneer ook capaciteitsposten gevuld zijn, wordt het totaal aantal van de capaciteitspost uit de waardeposten meegerekend. SPLY Variance %\"}"
    },
    {
      "name": "TabularEditor_TranslatedDisplayFolders",
      "value": "{\"de-DE\":\"Σ SPLY Varianz\",\"en-US\":\"Σ SPLY Variance\",\"nl-NL\":\"Σ SPLY Variance\"}"
    }
  ]
}