{
  "name": "ActualOverheadCost_YTD_Index_MFG",
  "description": "Departments > Manufacturing > Execution > Released Prod Orders > Navigate > Entries > Item Ledger Entries where Item Ledger Entry Type = 5 and Value Entry Type = 3 then -1 * sum(Value Entry Actual Cost Amount). When capacity ledger entry exists the cost amoun actual is taken from value entry for the belonging transactions YTD Index",
  "expression": "DIVIDE ( [ActualOverheadCost_YTD_MFG], [ActualOverheadCost_LYTD_MFG] ) * 100",
  "formatString": "#,##0.0",
  "displayFolder": "Σ YTD Variance",
  "annotations": [
    {
      "name": "TabularEditor_TranslatedNames",
      "value": "{\"de-DE\":\"Tatsächliche Gemeinkosten Kosten YTD Index\",\"en-US\":\"Actual Overhead Cost YTD Index\",\"nl-NL\":\"Werkelijke overheadkosten YTD Index\"}"
    },
    {
      "name": "TabularEditor_TranslatedDescriptions",
      "value": "{\"de-DE\":\"Abteilungen/Produktion/Auftragssteuerung/Geplante FA/Posten/ArtikelPosten\",\"en-US\":\"Departments > Manufacturing > Execution > Released Prod Orders > Navigate > Entries > Item Ledger Entries where Item Ledger Entry Type = 5 and Value Entry Type = 3 then -1 * sum(Value Entry Actual Cost Amount). When capacity ledger entry exists the cost amoun actual is taken from value entry for the belonging transactions YTD Index\",\"nl-NL\":\"Afdelingen > Productie > Historie > Journalen > Artikelposten > wanneer boekingssoort = artikel en waardeposten boekingssoort = overhead dan -1 * Werkelijke kosten. Wanneer ook een capaciteitspost bestaat, wordt de werkelijke kosten van de corresponderende waardepost meegenomen YTD Index\"}"
    },
    {
      "name": "TabularEditor_TranslatedDisplayFolders",
      "value": "{\"de-DE\":\"Σ YTD Varianz\",\"en-US\":\"Σ YTD Variance\",\"nl-NL\":\"Σ YTD Variance\"}"
    }
  ]
}