{
  "name": "ActualConsumptionCost_LYMTD_MFG",
  "description": "Departments > Manufacturing > History > Registers > Item Ledger Entries> sum(Cost Amount Actual) where Entry Type = item, when capacity ledger is filled, then also the cost amount actual from value entry is taken into account for the specific capacity ledger entry no LYMTD",
  "expression": [
    "VAR LYMTD =",
    "    FILTER (",
    "        ALL ( 'Date' ),",
    "        'Date'[Date] <= MAX ( 'Date'[TDatePY] )",
    "            && 'Date'[CMonthNo] = MAX ( 'Date'[CMonthNo] )",
    "            && 'Date'[CYearNo]",
    "                = MAX ( 'Date'[CYearNo] ) - 1",
    "    )",
    "RETURN",
    "    CALCULATE ( [ActualConsumptionCost_MFG], LYMTD )",
    ""
  ],
  "formatString": "#,##0.00",
  "displayFolder": "Σ LYMTD",
  "annotations": [
    {
      "name": "TabularEditor_TranslatedNames",
      "value": "{\"de-DE\":\"Tatsächliche Verbrauch Kosten LYMTD\",\"en-US\":\"Actual Consumption Cost LYMTD\",\"nl-NL\":\"Werkelijke verbruikskosten LYMTD\"}"
    },
    {
      "name": "TabularEditor_TranslatedDescriptions",
      "value": "{\"de-DE\":\"Abteilungen/Produktion/Auftragssteuerung/Geplante FA/Posten/ArtikelPosten\",\"en-US\":\"Departments > Manufacturing > History > Registers > Item Ledger Entries> sum(Cost Amount Actual) where Entry Type = item, when capacity ledger is filled, then also the cost amount actual from value entry is taken into account for the specific capacity ledger entry no LYMTD\",\"nl-NL\":\"Afdelingen > Productie > Historie > Journalen > Artikelposten > som van Tot. Werk. kosten waar boekingssoort = artikel. Wanneer ook capaciteitsposten gevuld zijn, wordt het totaal werkelijke kosten van de capaciteitspost uit de waardeposten meegerekend. LYMTD\"}"
    },
    {
      "name": "TabularEditor_TranslatedDisplayFolders",
      "value": "{\"de-DE\":\"Σ LYMTD\",\"en-US\":\"Σ LYMTD\",\"nl-NL\":\"Σ LYMTD\"}"
    }
  ]
}