{
  "name": "ActualOutputCost_SPLY_Variance%_MFG",
  "description": "Departments > Manufacturing > Execution > Released Prod Orders > Navigate > Entries > Item Ledger Entries sum(Cost Amount Actual) where Entry Type = 6 SPLY Variance %",
  "expression": "DIVIDE ( [ActualOutputCost_MFG] - [ActualOutputCost_SPLY_MFG], [ActualOutputCost_SPLY_MFG] )",
  "formatString": "#,##0.0 %",
  "displayFolder": "Σ SPLY Variance",
  "annotations": [
    {
      "name": "TabularEditor_TranslatedNames",
      "value": "{\"de-DE\":\"Tatsächliche Rückmeldung Kosten SPLY Varianz %\",\"en-US\":\"Actual Output Cost SPLY Variance %\",\"nl-NL\":\"Werkelijke output kosten SPLY Variance %\"}"
    },
    {
      "name": "TabularEditor_TranslatedDescriptions",
      "value": "{\"de-DE\":\"Abteilungen/Produktion/Auftragssteuerung/Geplante FA/Posten/ArtikelPosten\",\"en-US\":\"Departments > Manufacturing > Execution > Released Prod Orders > Navigate > Entries > Item Ledger Entries sum(Cost Amount Actual) where Entry Type = 6 SPLY Variance %\",\"nl-NL\":\"Afdelingen > Productie > Historie > Journalen > Artikelposten > som van Tot. Werk. kosten waar boekingssoort = output SPLY Variance %\"}"
    },
    {
      "name": "TabularEditor_TranslatedDisplayFolders",
      "value": "{\"de-DE\":\"Σ SPLY Varianz\",\"en-US\":\"Σ SPLY Variance\",\"nl-NL\":\"Σ SPLY Variance\"}"
    }
  ]
}