{
  "name": "RunTime_SPLY_Index_MFG",
  "description": "Departments > Manufacturing > Execution > Released Prod Orders > Navigate > Entries > Capacity Ledger Entry > Run Time SPLY Index",
  "expression": "DIVIDE ( [RunTime_MFG], [RunTime_SPLY_MFG] ) * 100",
  "formatString": "#,##0.0",
  "displayFolder": "Σ SPLY Variance",
  "annotations": [
    {
      "name": "TabularEditor_TranslatedNames",
      "value": "{\"de-DE\":\"Bearbeitungszeit SPLY Index\",\"en-US\":\"Run Time SPLY Index\",\"nl-NL\":\"Bewerkingstijd SPLY Index\"}"
    },
    {
      "name": "TabularEditor_TranslatedDescriptions",
      "value": "{\"de-DE\":\"Abteilungen/Produktion/Auftragssteuerung/Geplante FA/Posten/ArtikelPosten\",\"en-US\":\"Departments > Manufacturing > Execution > Released Prod Orders > Navigate > Entries > Capacity Ledger Entry > Run Time SPLY Index\",\"nl-NL\":\"Afdelingen > Productie > Historie > Journalen > Capaciteitsposten > Bewerkingstijd SPLY Index\"}"
    },
    {
      "name": "TabularEditor_TranslatedDisplayFolders",
      "value": "{\"de-DE\":\"Σ SPLY Varianz\",\"en-US\":\"Σ SPLY Variance\",\"nl-NL\":\"Σ SPLY Variance\"}"
    }
  ]
}