{
  "name": "RunTime_RY_MFG",
  "description": "Departments > Manufacturing > Execution > Released Prod Orders > Navigate > Entries > Capacity Ledger Entry > Run Time RY",
  "expression": [
    "VAR RY0 =",
    "    FILTER (",
    "        ALL ( 'Date' ),",
    "        'Date'[DateID] <= MAX ( 'Date'[DateID] )",
    "            && 'Date'[Date] > MAX ( 'Date'[TDatePY] )",
    "    )",
    "RETURN",
    "    CALCULATE ( [RunTime_MFG], RY0 )"
  ],
  "formatString": "#,##0.00",
  "displayFolder": "Σ RY",
  "annotations": [
    {
      "name": "TabularEditor_TranslatedNames",
      "value": "{\"de-DE\":\"Bearbeitungszeit RY\",\"en-US\":\"Run Time RY\",\"nl-NL\":\"Bewerkingstijd RY\"}"
    },
    {
      "name": "TabularEditor_TranslatedDescriptions",
      "value": "{\"de-DE\":\"Abteilungen/Produktion/Auftragssteuerung/Geplante FA/Posten/ArtikelPosten\",\"en-US\":\"Departments > Manufacturing > Execution > Released Prod Orders > Navigate > Entries > Capacity Ledger Entry > Run Time RY\",\"nl-NL\":\"Afdelingen > Productie > Historie > Journalen > Capaciteitsposten > Bewerkingstijd RY\"}"
    },
    {
      "name": "TabularEditor_TranslatedDisplayFolders",
      "value": "{\"de-DE\":\"Σ RY\",\"en-US\":\"Σ RY\",\"nl-NL\":\"Σ RY\"}"
    }
  ]
}