{
  "name": "ScrapQuantity_SPLY_Variance%_MFG",
  "description": "Departments > Manufacturing > Execution > Released Prod Orders > Navigate > Entries > Capacity Ledger Entry > Scrap Quantity SPLY Variance %",
  "expression": "DIVIDE ( [ScrapQuantity_MFG] - [ScrapQuantity_SPLY_MFG], [ScrapQuantity_SPLY_MFG] )",
  "formatString": "#,##0.0 %",
  "displayFolder": "Σ SPLY Variance",
  "annotations": [
    {
      "name": "TabularEditor_TranslatedNames",
      "value": "{\"de-DE\":\"Ausschuss Menge SPLY Varianz %\",\"en-US\":\"Scrap Quantity SPLY Variance %\",\"nl-NL\":\"Uitvalaantal SPLY Variance %\"}"
    },
    {
      "name": "TabularEditor_TranslatedDescriptions",
      "value": "{\"de-DE\":\"Abteilungen/Produktion/Auftragssteuerung/Geplante FA/Posten/ArtikelPosten\",\"en-US\":\"Departments > Manufacturing > Execution > Released Prod Orders > Navigate > Entries > Capacity Ledger Entry > Scrap Quantity SPLY Variance %\",\"nl-NL\":\"Afdelingen > Productie > Historie > Journalen > Capaciteitsposten > Uitvalaantal SPLY Variance %\"}"
    },
    {
      "name": "TabularEditor_TranslatedDisplayFolders",
      "value": "{\"de-DE\":\"Σ SPLY Varianz\",\"en-US\":\"Σ SPLY Variance\",\"nl-NL\":\"Σ SPLY Variance\"}"
    }
  ]
}