{
  "name": "SetupTime_MFG",
  "description": "Departments > Manufacturing > Execution > Released Prod Orders > Navigate > Entries > Capacity Ledger Entry > Setup Time",
  "expression": "SUM ( 'factManufacturing'[SetupTime] )",
  "formatString": "#,##0.00",
  "annotations": [
    {
      "name": "TabularEditor_TranslatedNames",
      "value": "{\"de-DE\":\"Rüstzeit\",\"en-US\":\"Setup Time\",\"nl-NL\":\"Insteltijd\"}"
    },
    {
      "name": "TabularEditor_TranslatedDescriptions",
      "value": "{\"de-DE\":\"Abteilungen/Produktion/Auftragssteuerung/Geplante FA/Posten/ArtikelPosten\",\"en-US\":\"Departments > Manufacturing > Execution > Released Prod Orders > Navigate > Entries > Capacity Ledger Entry > Setup Time\",\"nl-NL\":\"Afdelingen > Productie > Historie > Journalen > Capaciteitsposten > Insteltijd\"}"
    }
  ]
}