{
  "name": "SetupTime_SPLY_Index_MFG",
  "description": "Departments > Manufacturing > Execution > Released Prod Orders > Navigate > Entries > Capacity Ledger Entry > Setup Time SPLY Index",
  "expression": "DIVIDE ( [SetupTime_MFG], [SetupTime_SPLY_MFG] ) * 100",
  "formatString": "#,##0.0",
  "displayFolder": "Σ SPLY Variance",
  "annotations": [
    {
      "name": "TabularEditor_TranslatedNames",
      "value": "{\"de-DE\":\"Rüstzeit SPLY Index\",\"en-US\":\"Setup Time SPLY Index\",\"nl-NL\":\"Insteltijd SPLY Index\"}"
    },
    {
      "name": "TabularEditor_TranslatedDescriptions",
      "value": "{\"de-DE\":\"Abteilungen/Produktion/Auftragssteuerung/Geplante FA/Posten/ArtikelPosten\",\"en-US\":\"Departments > Manufacturing > Execution > Released Prod Orders > Navigate > Entries > Capacity Ledger Entry > Setup Time SPLY Index\",\"nl-NL\":\"Afdelingen > Productie > Historie > Journalen > Capaciteitsposten > Insteltijd SPLY Index\"}"
    },
    {
      "name": "TabularEditor_TranslatedDisplayFolders",
      "value": "{\"de-DE\":\"Σ SPLY Varianz\",\"en-US\":\"Σ SPLY Variance\",\"nl-NL\":\"Σ SPLY Variance\"}"
    }
  ]
}