{
  "name": "StopTimePercentage_MFG",
  "expression": "DIVIDE ( [StopTime_MFG], [ActualOutputQuantity_MFG] )",
  "formatString": "#,##0.0 %",
  "displayFolder": "Σ Percentage",
  "annotations": [
    {
      "name": "TabularEditor_TranslatedNames",
      "value": "{\"de-DE\":\"Zeit Endmeldung %\",\"en-US\":\"Stop Time %\",\"nl-NL\":\"Stoptijd %\"}"
    },
    {
      "name": "TabularEditor_TranslatedDescriptions",
      "value": "{\"de-DE\":\"Zeit Endmeldung / Tatsächliche Menge\",\"en-US\":\"Stop Time / Actual Quantity\",\"nl-NL\":\"Stoptijd / Werkelijke hoeveelheid\"}"
    },
    {
      "name": "TabularEditor_TranslatedDisplayFolders",
      "value": "{\"de-DE\":\"Σ Percentage\",\"en-US\":\"Σ Percentage\",\"nl-NL\":\"Σ Percentage\"}"
    }
  ]
}