{
  "connection_types": [],
  "tables": [
    {
      "table_identifier": "dbo.Item Ledger Entry",
      "columns": [
        {
          "column_name": "Correction",
          "data_type": "tinyint",
          "character_maximum_length": 0,
          "numeric_precision": 3,
          "numeric_scale": 0,
          "nullable": false,
          "business_key": false
        },
        {
          "column_name": "Dimension Set ID",
          "data_type": "int",
          "character_maximum_length": 0,
          "numeric_precision": 10,
          "numeric_scale": 0,
          "nullable": false,
          "business_key": false
        },
        {
          "column_name": "Document Line No_",
          "data_type": "int",
          "character_maximum_length": 0,
          "numeric_precision": 10,
          "numeric_scale": 0,
          "nullable": false,
          "business_key": false
        },
        {
          "column_name": "Document No_",
          "data_type": "nvarchar",
          "character_maximum_length": 20,
          "numeric_precision": 0,
          "numeric_scale": 0,
          "nullable": false,
          "business_key": false
        },
        {
          "column_name": "Document Type",
          "data_type": "int",
          "character_maximum_length": 0,
          "numeric_precision": 10,
          "numeric_scale": 0,
          "nullable": false,
          "business_key": false
        },
        {
          "column_name": "Entry No_",
          "data_type": "int",
          "character_maximum_length": 0,
          "numeric_precision": 10,
          "numeric_scale": 0,
          "nullable": false,
          "business_key": true
        },
        {
          "column_name": "Entry Type",
          "data_type": "int",
          "character_maximum_length": 0,
          "numeric_precision": 10,
          "numeric_scale": 0,
          "nullable": false,
          "business_key": false
        },
        {
          "column_name": "Item No_",
          "data_type": "nvarchar",
          "character_maximum_length": 20,
          "numeric_precision": 0,
          "numeric_scale": 0,
          "nullable": false,
          "business_key": false
        },
        {
          "column_name": "Location Code",
          "data_type": "nvarchar",
          "character_maximum_length": 10,
          "numeric_precision": 0,
          "numeric_scale": 0,
          "nullable": false,
          "business_key": false
        },
        {
          "column_name": "Posting Date",
          "data_type": "datetime",
          "character_maximum_length": 0,
          "numeric_precision": 0,
          "numeric_scale": 0,
          "nullable": false,
          "business_key": false
        },
        {
          "column_name": "Quantity",
          "data_type": "decimal",
          "character_maximum_length": 0,
          "numeric_precision": 38,
          "numeric_scale": 20,
          "nullable": false,
          "business_key": false
        },
        {
          "column_name": "Remaining Quantity",
          "data_type": "decimal",
          "character_maximum_length": 0,
          "numeric_precision": 38,
          "numeric_scale": 20,
          "nullable": false,
          "business_key": false
        },
        {
          "column_name": "Return Reason Code",
          "data_type": "nvarchar",
          "character_maximum_length": 10,
          "numeric_precision": 0,
          "numeric_scale": 0,
          "nullable": false,
          "business_key": false
        },
        {
          "column_name": "timestamp",
          "data_type": "timestamp",
          "character_maximum_length": 0,
          "numeric_precision": 0,
          "numeric_scale": 0,
          "nullable": false,
          "business_key": false
        },
        {
          "column_name": "Transport Method",
          "data_type": "nvarchar",
          "character_maximum_length": 10,
          "numeric_precision": 0,
          "numeric_scale": 0,
          "nullable": false,
          "business_key": false
        },
        {
          "column_name": "Variant Code",
          "data_type": "nvarchar",
          "character_maximum_length": 10,
          "numeric_precision": 0,
          "numeric_scale": 0,
          "nullable": false,
          "business_key": false
        }
      ],
      "indexes": []
    }
  ]
}