{
  "name": "DocumentCashflow",
  "columns": [
    {
      "name": "DocumentCashflowID",
      "dataType": "int64",
      "isHidden": true,
      "sourceColumn": "DocumentCashflowID",
      "sourceProviderType": "int",
      "annotations": [
        {
          "name": "TabularEditor_TranslatedNames",
          "value": "{\"de-DE\":\"DocumentCashflowID\",\"en-US\":\"ID\",\"nl-NL\":\"ID\"}"
        },
        {
          "name": "TabularEditor_TranslatedDescriptions",
          "value": "{\"de-DE\":\"Kennung für Documentcasflow\",\"en-US\":\"Unique identifier for DocumentCashflow\",\"nl-NL\":\"Unieke sleutel voor DocumentCashflow\"}"
        }
      ]
    },
    {
      "name": "CashflowDocumentCode",
      "dataType": "string",
      "sourceColumn": "CashflowDocumentCode",
      "sourceProviderType": "nvarchar",
      "annotations": [
        {
          "name": "TabularEditor_TranslatedNames",
          "value": "{\"de-DE\":\"Belegnr.\",\"en-US\":\"Document Code\",\"nl-NL\":\"Document Code\"}"
        },
        {
          "name": "TabularEditor_TranslatedDescriptions",
          "value": "{\"de-DE\":\"Abteilungen/Finanzmanagement/Cashflow/CashFlowvorschlag\",\"en-US\":\"Departments/Finance/Basic Data/Cash Flow/Chart of Cash Flow Accounts > Cash Flow Ledger Entries > Document No\",\"nl-NL\":\"Afdelingen/Financieel/Stamgegevens/Cashflow/Cashflowrekeningschema > Cashflowjournaalposten > Documentnr\"}"
        }
      ]
    },
    {
      "name": "CashflowSourceTypeCode",
      "dataType": "int64",
      "isHidden": true,
      "sourceColumn": "CashflowSourceTypeCode",
      "sourceProviderType": "int",
      "annotations": [
        {
          "name": "TabularEditor_TranslatedNames",
          "value": "{\"de-DE\":\"Herkunftsnr.\",\"en-US\":\"Source Type\",\"nl-NL\":\"Bronsoort\"}"
        },
        {
          "name": "TabularEditor_TranslatedDescriptions",
          "value": "{\"de-DE\":\"Abteilungen/Finanzmanagement/Cashflow/CashFlowvorschlag\",\"en-US\":\"Departments/Finance/Basic Data/Cash Flow/Chart of Cash Flow Accounts > Cash Flow Ledger Entries > Source Type\",\"nl-NL\":\"Afdelingen/Financieel/Stamgegevens/Cashflow/Cashflowrekeningschema > Cashflowjournaalposten > Bronsoort\"}"
        }
      ]
    },
    {
      "name": "CashflowSourceTypeDescription",
      "dataType": "string",
      "sourceColumn": "CashflowSourceTypeDescription",
      "sourceProviderType": "nvarchar",
      "annotations": [
        {
          "name": "TabularEditor_TranslatedNames",
          "value": "{\"de-DE\":\"Herkunftsart\",\"en-US\":\"Source Type\",\"nl-NL\":\"Bronsoort\"}"
        },
        {
          "name": "TabularEditor_TranslatedDescriptions",
          "value": "{\"de-DE\":\"Abteilungen/Finanzmanagement/Cashflow/CashFlowvorschlag\",\"en-US\":\"Departments/Finance/Basic Data/Cash Flow/Chart of Cash Flow Accounts > Cash Flow Ledger Entries > Source Type\",\"nl-NL\":\"Afdelingen/Financieel/Stamgegevens/Cashflow/Cashflowrekeningschema > Cashflowjournaalposten > Bronsoort\"}"
        }
      ]
    },
    {
      "name": "CashflowDate",
      "dataType": "dateTime",
      "sourceColumn": "CashflowDate",
      "sourceProviderType": "datetime",
      "annotations": [
        {
          "name": "TabularEditor_TranslatedNames",
          "value": "{\"de-DE\":\"Cashflowdatum\",\"en-US\":\"Cashflow Date\",\"nl-NL\":\"Cashflow Datum\"}"
        },
        {
          "name": "TabularEditor_TranslatedDescriptions",
          "value": "{\"de-DE\":\"Abteilungen/Finanzmanagement/Cashflow/CashFlowvorschlag\",\"en-US\":\"Departments/Finance/Basic Data/Cash Flow/Chart of Cash Flow Accounts > Cash Flow Ledger Entries > Cash Flow DAte\",\"nl-NL\":\"Afdelingen/Financieel/Stamgegevens/Cashflow/Cashflowrekeningschema > Cashflowjournaalposten > Datum Cashflow\"}"
        }
      ]
    },
    {
      "name": "CashflowDocumentEntryNo",
      "dataType": "int64",
      "isHidden": true,
      "sourceColumn": "CashflowDocumentEntryNo"
    }
  ],
  "partitions": [
    {
      "name": "DocumentCashflow",
      "source": {
        "type": "query",
        "query": [
          "SELECT",
          "\t*",
          "FROM",
          "\t[tabular].[DocumentCashflow]"
        ],
        "dataSource": "Birds"
      },
      "annotations": [
        {
          "name": "TabularEditor_TableSchema",
          "value": "{\"Name\":\"DocumentCashflow\",\"Schema\":\"tabular\",\"Database\":\"BirdsCashflow\",\"IncludedColumns\":[\"DocumentCashflowID\",\"CashflowDocumentCode\",\"CashflowSourceTypeCode\",\"CashflowSourceTypeDescription\",\"CashflowDate\"],\"SelectAll\":true}"
        }
      ]
    }
  ],
  "annotations": [
    {
      "name": "TabularEditor_TranslatedNames",
      "value": "{\"de-DE\":\"Beleg Cashflow\",\"en-US\":\"Document Cashflow\",\"nl-NL\":\"Document Cashflow\"}"
    },
    {
      "name": "TabularEditor_TranslatedDescriptions",
      "value": "{\"en-US\":\"Departments/Finance/Basic Data/Cash Flow/Chart of Cash Flow Accounts > Cash Flow Ledger Entries\",\"nl-NL\":\"Afdelingen/Financieel/Stamgegevens/Cashflow/Cashflowrekeningschema > Cashflowjournaalposten\"}"
    },
    {
      "name": "TabularEditor_Relationships",
      "value": "[]"
    }
  ]
}