{
  "name": "Birds",
  "connectionString": "Data Source=.;Initial Catalog=BirdsNAVSTDRC5;Integrated Security=True;Persist Security Info=False",
  "impersonationMode": "impersonateServiceAccount",
  "provider": "System.Data.SqlClient",
  "annotations": [
    {
      "name": "ConnectionEditUISource",
      "value": "SqlServer"
    },
    {
      "name": "TabularEditor_RowLimitClause",
      "value": "1"
    },
    {
      "name": "TabularEditor_IdentifierQuoting",
      "value": "1"
    }
  ]
}