{
  "name": "ShippedNetWeight_MTD_PRS",
  "description": "Purchase > Order Processing > Purchase Orders > Quantity received multiplied by Net Weight (Item Basic Data) (for orders with order type Return Order)",
  "expression": [
    "VAR MTD0 =",
    "    FILTER (",
    "        ALL ( 'Date' ),",
    "        'Date'[DateID] <= MAX ( 'Date'[DateID] )",
    "            && 'Date'[CYearMonthNo] = MAX ( 'Date'[CYearMonthNo] )",
    "    )",
    "RETURN",
    "    CALCULATE ( [ShippedNetWeight_PRS], MTD0 )"
  ],
  "formatString": "#,##0",
  "displayFolder": "Σ MTD",
  "annotations": [
    {
      "name": "TabularEditor_TranslatedNames",
      "value": "{\"de-DE\":\"Reklamation Nettogewicht MTD\",\"en-US\":\"Shipped Net Weight MTD\",\"nl-NL\":\"Retour netto gewicht MTD\"}"
    },
    {
      "name": "TabularEditor_TranslatedDescriptions",
      "value": "{\"de-DE\":\"Abteilungen/Einkauf/Bestellungsabwicklung/Bestellungen\",\"en-US\":\"Purchase > Order Processing > Purchase Orders > Quantity received multiplied by Net Weight (Item Basic Data) (for orders with order type Return Order)\",\"nl-NL\":\"Inkoop > Orderverwerking > Inkooporders > Ontvangen aantal * Netto Gewicht (artikelstam) (van de orders waarbij order type is retour order)\"}"
    },
    {
      "name": "TabularEditor_TranslatedDisplayFolders",
      "value": "{\"de-DE\":\"Σ MTD\",\"en-US\":\"Σ MTD\",\"nl-NL\":\"Σ MTD\"}"
    }
  ]
}