{
  "name": "ShippedAmount_SPLY_PRS",
  "description": "Purchase > Order Processing > Purchase Orders > Amount received (for orders with order type Return Order)",
  "expression": [
    "VAR SPLY0 =",
    "    FILTER (",
    "        ALL ( 'Date' ),",
    "        'Date'[Date] <= MAX ( 'Date'[TDatePY] )",
    "            && 'Date'[Date] >= MIN ( 'Date'[TDatePY] )",
    "    )",
    "RETURN",
    "    CALCULATE ( [ShippedAmount_PRS], SPLY0 )"
  ],
  "formatString": "#,##0.00",
  "displayFolder": "Σ SPLY",
  "annotations": [
    {
      "name": "TabularEditor_TranslatedNames",
      "value": "{\"de-DE\":\"Reklamation Betrag geliefert SPLY\",\"en-US\":\"Returned Amount SPLY\",\"nl-NL\":\"Retour bedrag SPLY\"}"
    },
    {
      "name": "TabularEditor_TranslatedDescriptions",
      "value": "{\"de-DE\":\"Abteilungen/Einkauf/Bestellungsabwicklung/Bestellungen\",\"en-US\":\"Purchase > Order Processing > Purchase Orders > Amount received (for orders with order type Return Order)\",\"nl-NL\":\"Inkoop > Orderverwerking > Inkooporders > Ontvangen bedrag \"}"
    },
    {
      "name": "TabularEditor_TranslatedDisplayFolders",
      "value": "{\"de-DE\":\"Σ SPLY\",\"en-US\":\"Σ SPLY\",\"nl-NL\":\"Σ SPLY\"}"
    }
  ]
}