{
  "name": "ShippedNetWeight_LYTD_PRS",
  "description": "Purchase > Order Processing > Purchase Orders > Quantity received multiplied by Net Weight (Item Basic Data) (for orders with order type Return Order)",
  "expression": [
    "VAR LYTD =",
    "    FILTER (",
    "        ALL ( 'Date' ),",
    "        'Date'[CYearNo]",
    "            = MAX ( 'Date'[CYearNo] ) - 1",
    "            && 'Date'[Date] <= MAX ( 'Date'[TDatePY] )",
    "    )",
    "RETURN",
    "    CALCULATE ( [ShippedNetWeight_PRS], LYTD )"
  ],
  "formatString": "#,##0",
  "displayFolder": "Σ LYTD",
  "annotations": [
    {
      "name": "TabularEditor_TranslatedNames",
      "value": "{\"de-DE\":\"Reklamation Nettogewicht LYTD\",\"en-US\":\"Shipped Net Weight LYTD\",\"nl-NL\":\"Retour netto gewicht LYTD\"}"
    },
    {
      "name": "TabularEditor_TranslatedDescriptions",
      "value": "{\"de-DE\":\"Abteilungen/Einkauf/Bestellungsabwicklung/Bestellungen\",\"en-US\":\"Purchase > Order Processing > Purchase Orders > Quantity received multiplied by Net Weight (Item Basic Data) (for orders with order type Return Order)\",\"nl-NL\":\"Inkoop > Orderverwerking > Inkooporders > Ontvangen aantal * Netto Gewicht (artikelstam) (van de orders waarbij order type is retour order)\"}"
    },
    {
      "name": "TabularEditor_TranslatedDisplayFolders",
      "value": "{\"de-DE\":\"Σ LYTD\",\"en-US\":\"Σ LYTD\",\"nl-NL\":\"Σ LYTD\"}"
    }
  ]
}