{
  "name": "VendorInvoice",
  "columns": [
    {
      "name": "VendorInvoiceID",
      "dataType": "int64",
      "description": "Unique key for dimension VendorInvoice",
      "isHidden": true,
      "sourceColumn": "VendorInvoiceID",
      "sourceProviderType": "Integer",
      "annotations": [
        {
          "name": "TabularEditor_TranslatedNames",
          "value": "{\"de-DE\":\"VendorInvoiceID\",\"en-US\":\"VendorInvoiceID\",\"nl-NL\":\"Vendorinvoiceid\"}"
        },
        {
          "name": "TabularEditor_TranslatedDescriptions",
          "value": "{\"de-DE\":\"Kennung für VendorInvoice\",\"en-US\":\"Unique key for dimension VendorInvoice\",\"nl-NL\":\"Unieke sleutel van de dimensie Leveranciersfactuur\"}"
        }
      ]
    },
    {
      "name": "VendorInvoiceDocumentCode",
      "dataType": "string",
      "description": "Departments/Purchase/Basic Data/Vendors > Ledger Entries > Vendor Invoice Document",
      "sourceColumn": "VendorInvoiceDocumentCode",
      "sourceProviderType": "WChar",
      "annotations": [
        {
          "name": "TabularEditor_TranslatedNames",
          "value": "{\"de-DE\":\"Kreditorenposten Belegnr.\",\"en-US\":\"Vendor Invoice Document\",\"nl-NL\":\"Leveranciersfactuur\"}"
        },
        {
          "name": "TabularEditor_TranslatedDescriptions",
          "value": "{\"de-DE\":\"Gebuchte Belege/Kreditorenposten\",\"en-US\":\"Departments/Purchase/Basic Data/Vendors > Ledger Entries > Vendor Invoice Document > Vendor Invoice Document\",\"nl-NL\":\"Afdelingen/Inkoop/Stamgegevens/Leveranciers > Posten > Leveranciersfactuur\"}"
        }
      ]
    },
    {
      "name": "VendorInvoiceDocumentType",
      "dataType": "int64",
      "description": "Departments/Purchase/Basic Data/Vendors > Ledger Entries > Vendor Invoice DocumentType",
      "isHidden": true,
      "sourceColumn": "VendorInvoiceDocumentType",
      "sourceProviderType": "Integer",
      "annotations": [
        {
          "name": "TabularEditor_TranslatedNames",
          "value": "{\"de-DE\":\"Kreditorenposten Belegart\",\"en-US\":\"Vendor Invoice DocumentType\",\"nl-NL\":\"Leveranciersfactuurtype\"}"
        },
        {
          "name": "TabularEditor_TranslatedDescriptions",
          "value": "{\"de-DE\":\"Gebuchte Belege/Kreditorenposten\",\"en-US\":\"Departments/Purchase/Basic Data/Vendors > Ledger Entries > Vendor Invoice DocumentType > Vendor Invoice DocumentType\",\"nl-NL\":\"Afdelingen/Inkoop/Stamgegevens/Leveranciers > Posten > Leveranciersfactuurtype\"}"
        }
      ]
    },
    {
      "name": "VendorInvoiceExternalDocumentCode",
      "dataType": "string",
      "description": "Departments/Purchase/Basic Data/Vendors > Ledger Entries > Vendor Invoice External Document",
      "sourceColumn": "VendorInvoiceExternalDocumentCode",
      "sourceProviderType": "WChar",
      "annotations": [
        {
          "name": "TabularEditor_TranslatedNames",
          "value": "{\"de-DE\":\"Externe Belegnummer\",\"en-US\":\"Vendor Invoice External Document\",\"nl-NL\":\"Factuurnummer leverancier\"}"
        },
        {
          "name": "TabularEditor_TranslatedDescriptions",
          "value": "{\"de-DE\":\"Gebuchte Belege/Kreditorenposten\",\"en-US\":\"Departments/Purchase/Basic Data/Vendors > Ledger Entries > Vendor Invoice External Document > Vendor Invoice External Document\",\"nl-NL\":\"Afdelingen/Inkoop/Stamgegevens/Leveranciers > Posten > Factuurnummer leverancier\"}"
        }
      ]
    },
    {
      "name": "VendorInvoiceOpenCode",
      "dataType": "int64",
      "description": "Departments/Purchase/Basic Data/Vendors > Ledger Entries > Vendor Invoice Open Code",
      "isHidden": true,
      "sourceColumn": "VendorInvoiceOpenCode",
      "sourceProviderType": "Integer",
      "annotations": [
        {
          "name": "TabularEditor_TranslatedNames",
          "value": "{\"de-DE\":\"Kreditorenposten Offnen Code\",\"en-US\":\"Vendor Invoice Open Code\",\"nl-NL\":\"Code openstaand\"}"
        },
        {
          "name": "TabularEditor_TranslatedDescriptions",
          "value": "{\"de-DE\":\"Gebuchte Belege/Kreditorenposten\",\"en-US\":\"Departments/Purchase/Basic Data/Vendors > Ledger Entries > Vendor Invoice Open Code > Vendor Invoice Open Code\",\"nl-NL\":\"Afdelingen/Inkoop/Stamgegevens/Leveranciers > Posten > Code openstaand\"}"
        }
      ]
    },
    {
      "name": "VendorInvoiceOnHold",
      "dataType": "string",
      "description": "Departments/Purchase/Basic Data/Vendors > Ledger Entries > Vendor Invoice On Hold",
      "sourceColumn": "VendorInvoiceOnHold",
      "sourceProviderType": "WChar",
      "annotations": [
        {
          "name": "TabularEditor_TranslatedNames",
          "value": "{\"de-DE\":\"Kreditorenposten Afwarten\",\"en-US\":\"Vendor Invoice On Hold\",\"nl-NL\":\"Factuur on hold\"}"
        },
        {
          "name": "TabularEditor_TranslatedDescriptions",
          "value": "{\"de-DE\":\"Gebuchte Belege/Kreditorenposten\",\"en-US\":\"Departments/Purchase/Basic Data/Vendors > Ledger Entries > Vendor Invoice On Hold > Vendor Invoice On Hold\",\"nl-NL\":\"Afdelingen/Inkoop/Stamgegevens/Leveranciers > Posten > Factuur on hold\"}"
        }
      ]
    },
    {
      "name": "VendorInvoicePostingDate",
      "dataType": "dateTime",
      "description": "Departments/Purchase/Basic Data/Vendors > Ledger Entries > Posting Date",
      "isHidden": true,
      "sourceColumn": "VendorInvoicePostingDate",
      "formatString": "General Date",
      "sourceProviderType": "DBTimeStamp",
      "annotations": [
        {
          "name": "TabularEditor_TranslatedNames",
          "value": "{\"de-DE\":\"Kreditorenposten Buchungsdatum\",\"en-US\":\"Posting Date\",\"nl-NL\":\"Boekingsdatum\"}"
        },
        {
          "name": "TabularEditor_TranslatedDescriptions",
          "value": "{\"de-DE\":\"Gebuchte Belege/Kreditorenposten\",\"en-US\":\"Departments/Purchase/Basic Data/Vendors > Ledger Entries > Posting Date > Posting Date\",\"nl-NL\":\"Afdelingen/Inkoop/Stamgegevens/Leveranciers > Posten > Boekingsdatum\"}"
        }
      ]
    },
    {
      "name": "VendorInvoiceDueDate",
      "dataType": "dateTime",
      "description": "Departments/Purchase/Basic Data/Vendors > Ledger Entries > Vendor Invoice Due Date",
      "isHidden": true,
      "sourceColumn": "VendorInvoiceDueDate",
      "formatString": "General Date",
      "sourceProviderType": "DBTimeStamp",
      "annotations": [
        {
          "name": "TabularEditor_TranslatedNames",
          "value": "{\"de-DE\":\"Kreditorenposten Fälligskeitsdatum\",\"en-US\":\"Vendor Invoice Due Date\",\"nl-NL\":\"Vervaldatum\"}"
        },
        {
          "name": "TabularEditor_TranslatedDescriptions",
          "value": "{\"de-DE\":\"Gebuchte Belege/Kreditorenposten\",\"en-US\":\"Departments/Purchase/Basic Data/Vendors > Ledger Entries > Vendor Invoice Due Date > Vendor Invoice Due Date\",\"nl-NL\":\"Afdelingen/Inkoop/Stamgegevens/Leveranciers > Posten > Vervaldatum\"}"
        }
      ]
    },
    {
      "name": "VendorInvoicePaidDate",
      "dataType": "dateTime",
      "description": "Paid date of the Vendor Invoice",
      "isHidden": true,
      "sourceColumn": "VendorInvoicePaidDate",
      "formatString": "General Date",
      "sourceProviderType": "DBTimeStamp",
      "annotations": [
        {
          "name": "TabularEditor_TranslatedNames",
          "value": "{\"de-DE\":\"Bezahltes Datum\",\"en-US\":\"VendorInvoicePaidDate\",\"nl-NL\":\"Betaaldatum\"}"
        },
        {
          "name": "TabularEditor_TranslatedDescriptions",
          "value": "{\"de-DE\":\"Gebuchte Belege/Geb. Verkaufsrechnungen\",\"en-US\":\"Paid date of the Vendor Invoice\",\"nl-NL\":\"Datum factuur betaald\"}"
        }
      ]
    },
    {
      "name": "VendorInvoiceDocumentTypeDescription",
      "dataType": "string",
      "description": "Departments/Purchase/Basic Data/Vendors > Ledger Entries > Vendor Invoice Document Type",
      "sourceColumn": "VendorInvoiceDocumentTypeDescription",
      "sortByColumn": "VendorInvoiceDocumentType",
      "annotations": [
        {
          "name": "TabularEditor_TranslatedNames",
          "value": "{\"de-DE\":\"Kreditorenposten Belegart Beschreibung\",\"en-US\":\"Vendor Invoice Document Type\",\"nl-NL\":\"Leveranciersfactuurtype\"}"
        },
        {
          "name": "TabularEditor_TranslatedDescriptions",
          "value": "{\"de-DE\":\"Gebuchte Belege/Kreditorenposten\",\"en-US\":\"Departments/Purchase/Basic Data/Vendors > Ledger Entries > Vendor Invoice Document Type\",\"nl-NL\":\"Afdelingen/Inkoop/Stamgegevens/Leveranciers > Posten > Leveranciersfactuurtype\"}"
        }
      ]
    },
    {
      "name": "VendorInvoiceOpenDescription",
      "dataType": "string",
      "description": "Departments/Purchase/Basic Data/Vendors > Ledger Entries > Vendor Invoice Open",
      "sourceColumn": "VendorInvoiceOpenDescription",
      "annotations": [
        {
          "name": "TabularEditor_TranslatedNames",
          "value": "{\"de-DE\":\"Kreditorenposten Offnen Beschreibung\",\"en-US\":\"Vendor Invoice Open\",\"nl-NL\":\"Leveranciers openstaande facturen\"}"
        },
        {
          "name": "TabularEditor_TranslatedDescriptions",
          "value": "{\"de-DE\":\"Gebuchte Belege/Kreditorenposten\",\"en-US\":\"Departments/Purchase/Basic Data/Vendors > Ledger Entries > Vendor Invoice Open\",\"nl-NL\":\"Afdelingen/Inkoop/Stamgegevens/Leveranciers > Posten > Leveranciers openstaande facturen\"}"
        }
      ]
    },
    {
      "name": "VendorInvoiceCode",
      "dataType": "int64",
      "isHidden": true,
      "sourceColumn": "VendorInvoiceCode",
      "annotations": [
        {
          "name": "TabularEditor_TranslatedNames",
          "value": "{\"de-DE\":\"Kreditorenposten\",\"en-US\":\"Vendor Ledger Entry\",\"nl-NL\":\"Leverancierspost\"}"
        },
        {
          "name": "TabularEditor_TranslatedDescriptions",
          "value": "{\"de-DE\":\"Gebuchte Belege/Kreditorenposten\",\"en-US\":\"Departments/Purchase/Basic Data/Vendors > Ledger Entries \",\"nl-NL\":\"Afdelingen/Inkoop/Stamgegevens/Leveranciers > Posten\"}"
        }
      ]
    }
  ],
  "partitions": [
    {
      "name": "VendorInvoice",
      "dataView": "full",
      "source": {
        "type": "query",
        "query": "SELECT * FROM tabular.VendorInvoice",
        "dataSource": "Birds"
      }
    }
  ],
  "annotations": [
    {
      "name": "_TM_ExtProp_QueryDefinition",
      "value": " SELECT [dim].[VendorInvoice].* FROM [dim].[VendorInvoice] "
    },
    {
      "name": "_TM_ExtProp_DbTableName",
      "value": "VendorInvoice"
    },
    {
      "name": "_TM_ExtProp_DbSchemaName",
      "value": "dim"
    },
    {
      "name": "ContentPacks",
      "value": "Standard"
    },
    {
      "name": "TabularEditor_TranslatedNames",
      "value": "{\"de-DE\":\"Kreditoren Rechnung\",\"en-US\":\"Vendor Invoice\",\"nl-NL\":\"Leveranciersfactuur\"}"
    },
    {
      "name": "TabularEditor_Relationships",
      "value": "[]"
    }
  ]
}