{
  "name": "NetChange_GLB",
  "description": "Finance > Basic Data > General > Budgets > Budget Matrix > The net change",
  "expression": "[Amount_GLB]",
  "formatString": "#,##0.00",
  "annotations": [
    {
      "name": "TabularEditor_TranslatedNames",
      "value": "{\"de-DE\":\"Budget Bewegung\",\"en-US\":\"Net Change\",\"nl-NL\":\"Budget netto mutatie\"}"
    },
    {
      "name": "TabularEditor_TranslatedDescriptions",
      "value": "{\"de-DE\":\"Abteilungen/Finanzmanagement/Finanzbuchhaltung/Fibu-Budgets\",\"en-US\":\"Finance > Basic Data > General > Budgets > Budget Matrix > The net change\",\"nl-NL\":\"Afdelingen/Financieel/Stamgegevens/Algemeen/Budgetten > Bruto netto mutatie\"}"
    }
  ]
}