{
  "name": "AmountBalance_YTD_IVE",
  "description": "Departments/Item Management/General Data/Items > Entries > Value Entries  > Sum of the cost amount actual",
  "expression": [
    "VAR YTD0 =",
    "    FILTER (",
    "        ALL ( 'Date' ),",
    "        'Date'[CYearNo] = MAX ( 'Date'[CYearNo] )",
    "            && 'Date'[DateID] <= MAX ( 'Date'[DateID] )",
    "    )",
    "RETURN",
    "    CALCULATE ( [AmountBalance_IVE], YTD0 )"
  ],
  "formatString": "#,##0.00",
  "displayFolder": "Σ YTD",
  "annotations": [
    {
      "name": "TabularEditor_TranslatedNames",
      "value": "{\"de-DE\":\"Betrag Balance YTD\",\"en-US\":\"Amount Balance YTD\",\"nl-NL\":\"Balans waarde YTD\"}"
    },
    {
      "name": "TabularEditor_TranslatedDescriptions",
      "value": "{\"de-DE\":\"Abteilungen/Lager/Historie/Historie/Artikelposten/Zeilen\",\"en-US\":\"Departments/Item Management/General Data/Items > Entries > Value Entries  > Sum of the cost amount actual\",\"nl-NL\":\"Afdelingen/Artikelbeheer/Stamgegevens/Artikelen > Posten > Waardeposten >  Totaal Werkelijke kosten\"}"
    },
    {
      "name": "TabularEditor_TranslatedDisplayFolders",
      "value": "{\"de-DE\":\"Σ YTD\",\"en-US\":\"Σ YTD\",\"nl-NL\":\"Σ YTD\"}"
    }
  ]
}