{
  "name": "AmountBalance_LCY_IVE",
  "description": "Departments/Item Management/General Data/Items > Entries > Value Entries  > Sum of the cost amount actual",
  "expression": [
    "VAR PTD0 =",
    "    FILTER ( ALL ( 'Date' ), 'Date'[DateID] <= MAX ( 'Date'[DateID] ) )",
    "RETURN",
    "    CALCULATE ( [CostAmount_LCY_IVE], PTD0 )"
  ],
  "displayFolder": "Σ Local Currency",
  "annotations": [
    {
      "name": "TabularEditor_TranslatedNames",
      "value": "{\"de-DE\":\"Betrag Balance\",\"en-US\":\"Amount Balance\",\"nl-NL\":\"Balans waarde\"}"
    },
    {
      "name": "TabularEditor_TranslatedDescriptions",
      "value": "{\"de-DE\":\"Abteilungen/Lager/Historie/Historie/Artikelposten/Zeilen\",\"en-US\":\"Departments/Item Management/General Data/Items > Entries > Value Entries  > Sum of the cost amount actual\",\"nl-NL\":\"Afdelingen/Artikelbeheer/Stamgegevens/Artikelen > Posten > Waardeposten >  Totaal Werkelijke kosten\"}"
    },
    {
      "name": "TabularEditor_TranslatedDisplayFolders",
      "value": "{\"de-DE\":\"Σ Local Währung\",\"en-US\":\"Σ Local Currency\",\"nl-NL\":\"Σ Lokale Valuta\"}"
    }
  ]
}