{
  "name": "CostAmount_IVE",
  "description": "Departments/Item Management/General Data/Items > Entries > Value Entries  > Cost Amount Actual",
  "expression": "SUM ( 'factInventoryValueEntry'[CostAmountRCY] )",
  "formatString": "#,##0.00",
  "annotations": [
    {
      "name": "TabularEditor_TranslatedNames",
      "value": "{\"de-DE\":\"Einstandsbetrag\",\"en-US\":\"Cost Amount\",\"nl-NL\":\"Kosten\"}"
    },
    {
      "name": "TabularEditor_TranslatedDescriptions",
      "value": "{\"de-DE\":\"Abteilungen/Lager/Historie/Historie/Artikelposten/Zeilen\",\"en-US\":\"Departments/Item Management/General Data/Items > Entries > Value Entries  > Cost Amount Actual\",\"nl-NL\":\"Afdelingen/Artikelbeheer/Stamgegevens/Artikelen > Posten > Waardeposten >  Totaal Werkelijke kosten\"}"
    }
  ]
}