{
  "name": "NegativeInvoicedQuantity_IVE",
  "description": "The Invoiced Quantity, where the Invoiced Quantity < 0",
  "expression": "SUM ( 'factInventoryValueEntry'[NegativeInvoicedQuantity] )",
  "formatString": "#,##0",
  "annotations": [
    {
      "name": "TabularEditor_TranslatedNames",
      "value": "{\"de-DE\":\"Negative Fakturierte Menge\",\"en-US\":\"Negative Invoiced Quantity\",\"nl-NL\":\"Negatief gefactureerde aantallen\"}"
    },
    {
      "name": "TabularEditor_TranslatedDescriptions",
      "value": "{\"de-DE\":\"Abteilungen/Lager/Historie/Historie/Artikelposten/Zeilen\",\"en-US\":\"The Invoiced Quantity, where the Invoiced Quantity < 0\",\"nl-NL\":\"De geboekte aantallen, waarbij de aantallen < 0\"}"
    }
  ]
}