{
  "name": "NegativeCostAmount_LYMTD_IVE",
  "description": "The Actual Cost Amount, where the actual cost amount < 0",
  "expression": [
    "VAR LYMTD =",
    "    FILTER (",
    "        ALL ( 'Date' ),",
    "        'Date'[Date] <= MAX ( 'Date'[TDatePY] )",
    "            && 'Date'[CMonthNo] = MAX ( 'Date'[CMonthNo] )",
    "            && 'Date'[CYearNo]",
    "                = MAX ( 'Date'[CYearNo] ) - 1",
    "    )",
    "RETURN",
    "    CALCULATE ( [NegativeCostAmount_IVE], LYMTD )"
  ],
  "formatString": "#,##0.00",
  "displayFolder": "Σ LYMTD",
  "annotations": [
    {
      "name": "TabularEditor_TranslatedNames",
      "value": "{\"de-DE\":\"Negative Einstandsbetrag LYMTD\",\"en-US\":\"Negative Cost Amount LYMTD\",\"nl-NL\":\"Negatieve kosten LYMTD\"}"
    },
    {
      "name": "TabularEditor_TranslatedDescriptions",
      "value": "{\"de-DE\":\"Abteilungen/Lager/Historie/Historie/Artikelposten/Zeilen\",\"en-US\":\"The Actual Cost Amount, where the actual cost amount < 0\",\"nl-NL\":\"Totaal Werkelijke kosten waarbij de kosten < 0\"}"
    },
    {
      "name": "TabularEditor_TranslatedDisplayFolders",
      "value": "{\"de-DE\":\"Σ LYMTD\",\"en-US\":\"Σ LYMTD\",\"nl-NL\":\"Σ LYMTD\"}"
    }
  ]
}