{
  "name": "OpeningBalanceAmount_LYMTD_IVE",
  "description": "Balance - Cost Amount SPLY",
  "expression": [
    "VAR LYMTD =",
    "    FILTER (",
    "        ALL ( 'Date' ),",
    "        'Date'[Date] <= MAX ( 'Date'[TDatePY] )",
    "            && 'Date'[CMonthNo] = MAX ( 'Date'[CMonthNo] )",
    "            && 'Date'[CYearNo]",
    "                = MAX ( 'Date'[CYearNo] ) - 1",
    "    )",
    "RETURN",
    "    CALCULATE ( [OpeningBalanceAmount_IVE], LYMTD )"
  ],
  "formatString": "#,##0.00",
  "displayFolder": "Σ LYMTD",
  "annotations": [
    {
      "name": "TabularEditor_TranslatedNames",
      "value": "{\"de-DE\":\"Anfang Balance Betrag LYMTD\",\"en-US\":\"Opening Balance Amount LYMTD\",\"nl-NL\":\"Start balansbedrag LYMTD\"}"
    },
    {
      "name": "TabularEditor_TranslatedDescriptions",
      "value": "{\"de-DE\":\"Balance - Einstandsbetrag SPLY\",\"en-US\":\"Balance - Cost Amount SPLY\",\"nl-NL\":\"Balans - Kosten SPLY\"}"
    },
    {
      "name": "TabularEditor_TranslatedDisplayFolders",
      "value": "{\"de-DE\":\"Σ LYMTD\",\"en-US\":\"Σ LYMTD\",\"nl-NL\":\"Σ LYMTD\"}"
    }
  ]
}