{
  "name": "PositiveCostAmount_LCY_IVE",
  "description": "The Actual Cost Amount, where the actual cost amount > 0",
  "expression": "SUM ( 'factInventoryValueEntry'[PositiveCostAmountLCY] )",
  "formatString": "#,##0.00",
  "displayFolder": "Σ Local Currency",
  "annotations": [
    {
      "name": "TabularEditor_TranslatedNames",
      "value": "{\"de-DE\":\"Positive Einstandsbetrag\",\"en-US\":\"Positive Cost Amount\",\"nl-NL\":\"Positieve kosten\"}"
    },
    {
      "name": "TabularEditor_TranslatedDescriptions",
      "value": "{\"de-DE\":\"Abteilungen/Lager/Historie/Historie/Artikelposten/Zeilen\",\"en-US\":\"The Actual Cost Amount, where the actual cost amount > 0\",\"nl-NL\":\"Totaal Werkelijke kosten waarbij de kosten > 0\"}"
    },
    {
      "name": "TabularEditor_TranslatedDisplayFolders",
      "value": "{\"de-DE\":\"Σ Local Währung\",\"en-US\":\"Σ Local Currency\",\"nl-NL\":\"Σ Lokale Valuta\"}"
    }
  ]
}