{
  "name": "ReceiptAmountBalance_IVE",
  "description": "Departments/Item Management/General Data/Items > Entries > Value Entries  > Invoiced Quantity",
  "expression": [
    "VAR PTD0 =",
    "    FILTER ( ALL ( 'Date' ), 'Date'[DateID] <= MAX ( 'Date'[DateID] ) )",
    "RETURN",
    "    CALCULATE ( [ReceiptAmount_IVE], PTD0 )"
  ],
  "formatString": "#,##0.0 %",
  "annotations": [
    {
      "name": "TabularEditor_TranslatedNames",
      "value": "{\"de-DE\":\"Empfansbetrag Balance\",\"en-US\":\"Receipt Amount Balance\",\"nl-NL\":\"Bedrag ontvangsten balans\"}"
    },
    {
      "name": "TabularEditor_TranslatedDescriptions",
      "value": "{\"de-DE\":\"Abteilungen/Lager/Historie/Historie/Artikelposten/Zeilen\",\"en-US\":\"Departments/Item Management/General Data/Items > Entries > Value Entries  > Invoiced Quantity\",\"nl-NL\":\"Afdelingen/Artikelbeheer/Stamgegevens/Artikelen > Posten > Posten > Geboekt aantal\"}"
    }
  ]
}