{
  "name": "ReceiptAmount_SPLY_Variance_IVE",
  "description": "Departments/Item Management/General Data/Items > Entries > Value Entries  > Invoiced Quantity",
  "expression": "[ReceiptAmount_IVE] - [ReceiptAmount_SPLY_IVE]",
  "formatString": "#,##0.00",
  "displayFolder": "Σ SPLY Variance",
  "annotations": [
    {
      "name": "TabularEditor_TranslatedNames",
      "value": "{\"de-DE\":\"Empfansbetrag SPLY\",\"en-US\":\"Receipt Amount SPLY Variance\",\"nl-NL\":\"Bedrag ontvangsten SPLY\"}"
    },
    {
      "name": "TabularEditor_TranslatedDescriptions",
      "value": "{\"de-DE\":\"Abteilungen/Lager/Historie/Historie/Artikelposten/Zeilen\",\"en-US\":\"Departments/Item Management/General Data/Items > Entries > Value Entries  > Invoiced Quantity\",\"nl-NL\":\"Afdelingen/Artikelbeheer/Stamgegevens/Artikelen > Posten > Posten > Geboekt aantal\"}"
    },
    {
      "name": "TabularEditor_TranslatedDisplayFolders",
      "value": "{\"de-DE\":\"Σ SPLY Varianz\",\"en-US\":\"Σ SPLY Variance\"}"
    }
  ]
}