{
  "name": "AgeGroupMinLowerBoundary",
  "description": "Calculation for lowest value in age group",
  "expression": "MIN ( 'AgeGroup'[AgeGroupMin] )",
  "isHidden": true,
  "annotations": [
    {
      "name": "TabularEditor_TranslatedNames",
      "value": "{\"de-DE\":\"Altersgruppe Min untere Grenze\",\"en-US\":\"AgeGroupMinLowerBoundary\",\"nl-NL\":\"Ouderdomsgroepminbandbreedte\"}"
    },
    {
      "name": "TabularEditor_TranslatedDescriptions",
      "value": "{\"de-DE\":\"Berechnung fürden unterste Wert in Der Altersgruppe\",\"en-US\":\"Calculation for lowest value in age group\",\"nl-NL\":\"Berekening voor de laagste waarde in de ouderdomsgroep\"}"
    }
  ]
}