{
  "name": "YWD",
  "levels": [
    {
      "name": "CIsoYearDesc",
      "ordinal": 0,
      "column": "CIsoYearDesc",
      "annotations": [
        {
          "name": "TabularEditor_TranslatedNames",
          "value": "{\"de-DE\":\"ISO-Jahr Woche\",\"en-US\":\"ISO Year\",\"nl-NL\":\"Jaar ISO\"}"
        }
      ]
    },
    {
      "name": "CWeekDesc",
      "ordinal": 1,
      "column": "CWeekDesc",
      "annotations": [
        {
          "name": "TabularEditor_TranslatedNames",
          "value": "{\"de-DE\":\"Woche\",\"en-US\":\"Week\",\"nl-NL\":\"Week\"}"
        }
      ]
    },
    {
      "name": "Date",
      "ordinal": 2,
      "column": "Date",
      "annotations": [
        {
          "name": "TabularEditor_TranslatedNames",
          "value": "{\"de-DE\":\"Datum\",\"en-US\":\"Date\",\"nl-NL\":\"Datum\"}"
        }
      ]
    }
  ],
  "annotations": [
    {
      "name": "TabularEditor_TranslatedNames",
      "value": "{\"en-US\":\"YWD\",\"nl-NL\":\"JWD\"}"
    }
  ]
}