{
  "name": "#FixedAssets_SPLY_Variance_FAE",
  "expression": "[#FixedAssets_FAE] - [#FixedAssets_SPLY_FAE]",
  "formatString": "#,##0.00",
  "displayFolder": "Σ SPLY Variance",
  "annotations": [
    {
      "name": "TabularEditor_TranslatedNames",
      "value": "{\"de-DE\":\"# Anlagen SPLY Varianz\",\"en-US\":\"# Fixed Assets SPLY Variance\",\"nl-NL\":\"# Vaste Activa SPLY Variance\"}"
    },
    {
      "name": "TabularEditor_TranslatedDescriptions",
      "value": "{\"de-DE\":\"Abteilungen/Finanzmanagement/Anlagen/Anlagen\"}"
    },
    {
      "name": "TabularEditor_TranslatedDisplayFolders",
      "value": "{\"de-DE\":\"Σ SPLY Varianz\",\"en-US\":\"Σ SPLY Variance\",\"nl-NL\":\"Σ SPLY Variance\"}"
    }
  ]
}