{
  "name": "BookValueOnDisposalAmount_LCY_FAE",
  "description": "Departments/Finance/Basic Data/Fixed Asset/Fixed Assets > Navigate > Ledger Entries > Book value on disposal amount",
  "expression": "SUM ( 'factFixedAssetEntry'[BookValueOnDisposalAmount_LCY] )",
  "formatString": "#,##0.00",
  "displayFolder": "Σ Local Currency",
  "annotations": [
    {
      "name": "TabularEditor_TranslatedNames",
      "value": "{\"de-DE\":\"Betrag Buchwert bei Verkauf\",\"en-US\":\"Book Value On Disposal Amount\",\"nl-NL\":\"Bedrag boekwaarde bij BGS\"}"
    },
    {
      "name": "TabularEditor_TranslatedDescriptions",
      "value": "{\"de-DE\":\"Abteilungen/Finanzmanagement/Anlagen/Anlagen\",\"en-US\":\"Departments/Finance/Basic Data/Fixed Asset/Fixed Assets > Navigate > Ledger Entries > Book value on disposal amount\",\"nl-NL\":\"Afdelingen/Financieel/Stamgegevens/Vaste Activa/Vaste activa > Navigeren > Posten > Bedrag boekwaarde bij BGS\"}"
    },
    {
      "name": "TabularEditor_TranslatedDisplayFolders",
      "value": "{\"de-DE\":\"Σ Local Währung\",\"en-US\":\"Σ Local Currency\",\"nl-NL\":\"Σ Lokale Valuta\"}"
    }
  ]
}