{
  "name": "BookValueOnDisposalAmount_SPLY_Index_FAE",
  "description": "Departments/Finance/Basic Data/Fixed Asset/Fixed Assets > Navigate > Ledger Entries > Book value on disposal amount",
  "expression": "DIVIDE ( [BookValueOnDisposalAmount_FAE], [BookValueOnDisposalAmount_SPLY_FAE] ) * 100",
  "formatString": "#,##0.0",
  "displayFolder": "Σ SPLY Variance",
  "annotations": [
    {
      "name": "TabularEditor_TranslatedNames",
      "value": "{\"de-DE\":\"Betrag Buchwert bei Verkauf SPLY Index\",\"en-US\":\"Book Value On Disposal Amount SPLY Index\",\"nl-NL\":\"Bedrag boekwaarde bij BGS SPLY Index\"}"
    },
    {
      "name": "TabularEditor_TranslatedDescriptions",
      "value": "{\"de-DE\":\"Abteilungen/Finanzmanagement/Anlagen/Anlagen\",\"en-US\":\"Departments/Finance/Basic Data/Fixed Asset/Fixed Assets > Navigate > Ledger Entries > Book value on disposal amount\",\"nl-NL\":\"Afdelingen/Financieel/Stamgegevens/Vaste Activa/Vaste activa > Navigeren > Posten > Bedrag boekwaarde bij BGS\"}"
    },
    {
      "name": "TabularEditor_TranslatedDisplayFolders",
      "value": "{\"de-DE\":\"Σ SPLY Varianz\",\"en-US\":\"Σ SPLY Variance\",\"nl-NL\":\"Σ SPLY Variance\"}"
    }
  ]
}