{
  "name": "CreditAmount_YTD_Index_FAE",
  "expression": "DIVIDE ( [CreditAmount_YTD_FAE], [CreditAmount_LYTD_FAE] ) * 100",
  "formatString": "#,##0.0",
  "displayFolder": "Σ YTD Variance",
  "annotations": [
    {
      "name": "TabularEditor_TranslatedNames",
      "value": "{\"de-DE\":\"Habenbetrag YTD Index\",\"en-US\":\"Credit Amount YTD Index\",\"nl-NL\":\"Bedrag Credit YTD Index\"}"
    },
    {
      "name": "TabularEditor_TranslatedDescriptions",
      "value": "{\"de-DE\":\"Abteilungen/Finanzmanagement/Anlagen/Anlagen\"}"
    },
    {
      "name": "TabularEditor_TranslatedDisplayFolders",
      "value": "{\"de-DE\":\"Σ YTD Varianz\",\"en-US\":\"Σ YTD Variance\",\"nl-NL\":\"Σ YTD Variance\"}"
    }
  ]
}