{
  "name": "DebitAmount_YTD_Variance%_FAE",
  "expression": "DIVIDE ( [DebitAmount_YTD_FAE] - [DebitAmount_LYTD_FAE], [DebitAmount_LYTD_FAE] )",
  "formatString": "#,##0.0 %",
  "displayFolder": "Σ YTD Variance",
  "annotations": [
    {
      "name": "TabularEditor_TranslatedNames",
      "value": "{\"de-DE\":\"Sollbetrag YTD Varianz %\",\"en-US\":\"Debit Amount YTD Variance %\",\"nl-NL\":\"Bedrag Debet YTD Variance %\"}"
    },
    {
      "name": "TabularEditor_TranslatedDescriptions",
      "value": "{\"de-DE\":\"Abteilungen/Finanzmanagement/Anlagen/Anlagen\"}"
    },
    {
      "name": "TabularEditor_TranslatedDisplayFolders",
      "value": "{\"de-DE\":\"Σ YTD Varianz\",\"en-US\":\"Σ YTD Variance\",\"nl-NL\":\"Σ YTD Variance\"}"
    }
  ]
}