{
  "name": "ProceedsOnDisposalAmount_SPLY_Variance%_FAE",
  "description": "Departments/Finance/Basic Data/Fixed Asset/Fixed Assets > Navigate > Ledger Entries > Proceeds on disposal amount",
  "expression": "DIVIDE ( [ProceedsOnDisposalAmount_FAE] - [ProceedsOnDisposalAmount_SPLY_FAE], [ProceedsOnDisposalAmount_SPLY_FAE] )",
  "formatString": "#,##0.0 %",
  "displayFolder": "Σ SPLY Variance",
  "annotations": [
    {
      "name": "TabularEditor_TranslatedNames",
      "value": "{\"de-DE\":\"Verkaufspreis SPLY Varianz %\",\"en-US\":\"Proceeds On Disposal Amount SPLY Variance %\",\"nl-NL\":\"Bedrag opbrengsten bij BGS SPLY Variance %\"}"
    },
    {
      "name": "TabularEditor_TranslatedDescriptions",
      "value": "{\"de-DE\":\"Abteilungen/Finanzmanagement/Anlagen/Anlagen\",\"en-US\":\"Departments/Finance/Basic Data/Fixed Asset/Fixed Assets > Navigate > Ledger Entries > Proceeds on disposal amount\",\"nl-NL\":\"Afdelingen/Financieel/Stamgegevens/Vaste Activa/Vaste activa > Navigeren > Posten > Bedrag opbrengsten bij BGS\"}"
    },
    {
      "name": "TabularEditor_TranslatedDisplayFolders",
      "value": "{\"de-DE\":\"Σ SPLY Varianz\",\"en-US\":\"Σ SPLY Variance\",\"nl-NL\":\"Σ SPLY Variance\"}"
    }
  ]
}