{
  "name": "BudgetModel",
  "columns": [
    {
      "name": "BudgetModelID",
      "dataType": "int64",
      "description": "Unique identifier for Budget Model",
      "isHidden": true,
      "sourceColumn": "BudgetModelID",
      "sourceProviderType": "Integer",
      "annotations": [
        {
          "name": "TabularEditor_TranslatedNames",
          "value": "{\"de-DE\":\"BudgetModelID\",\"en-US\":\"BudgetModelID\",\"nl-NL\":\"Budgetmodelid\"}"
        },
        {
          "name": "TabularEditor_TranslatedDescriptions",
          "value": "{\"de-DE\":\"Kennung für BudgetModel\",\"en-US\":\"Unique identifier for Budget Model\",\"nl-NL\":\"Unieke sleutel voor budgetmodel\"}"
        }
      ]
    },
    {
      "name": "BudgetModelName",
      "dataType": "string",
      "description": "Finance > Basic Data > General > Budgets > Name",
      "isHidden": true,
      "sourceColumn": "BudgetModelName",
      "sourceProviderType": "WChar",
      "annotations": [
        {
          "name": "TabularEditor_TranslatedNames",
          "value": "{\"de-DE\":\"Fibu-Budget\",\"en-US\":\"Budget Name\",\"nl-NL\":\"Budgetnaam\"}"
        },
        {
          "name": "TabularEditor_TranslatedDescriptions",
          "value": "{\"de-DE\":\"Finanzmanagement > Finanzbuhhaltung > Fibu-Budgets > Name\",\"en-US\":\"Finance > Basic Data > General > Budgets > Name\",\"nl-NL\":\"Financieel > Stamgegevens > Algemeen > Budgetten > Naam\"}"
        }
      ]
    },
    {
      "name": "BudgetModelDescription",
      "dataType": "string",
      "description": "Finance > Basic Data > General > Budgets > Description",
      "isHidden": true,
      "sourceColumn": "BudgetModelDescription",
      "sourceProviderType": "WChar",
      "annotations": [
        {
          "name": "TabularEditor_TranslatedNames",
          "value": "{\"de-DE\":\"Fibu-Budget\",\"en-US\":\"Budget Model\",\"nl-NL\":\"Begrotingsmodel\"}"
        },
        {
          "name": "TabularEditor_TranslatedDescriptions",
          "value": "{\"de-DE\":\"Finanzmanagement > Finanzbuhhaltung > Fibu-Budgets > Beschreibung\",\"en-US\":\"Finance > Basic Data > General > Budgets > Description\",\"nl-NL\":\"Financieel > Stamgegevens > Algemeen > Budgetten > Naam\"}"
        }
      ]
    },
    {
      "name": "BudgetModelNameDescription",
      "dataType": "string",
      "description": "Finance > Basic Data > General > Budgets > Name and Description",
      "sourceColumn": "BudgetModelNameDescription",
      "sourceProviderType": "WChar",
      "annotations": [
        {
          "name": "TabularEditor_TranslatedNames",
          "value": "{\"de-DE\":\"Fibu-Budget\",\"en-US\":\"Budget Model\",\"nl-NL\":\"Begrotingsmodel\"}"
        },
        {
          "name": "TabularEditor_TranslatedDescriptions",
          "value": "{\"de-DE\":\"Finanzmanagement > Finanzbuhhaltung > Fibu-Budgets > Name und Beschreibung\",\"en-US\":\"Finance > Basic Data > General > Budgets > Name and Description\",\"nl-NL\":\"Financieel > Stamgegevens > Algemeen > Budgetten > Naam\"}"
        }
      ]
    }
  ],
  "partitions": [
    {
      "name": "BudgetModel",
      "dataView": "full",
      "source": {
        "type": "query",
        "query": "SELECT * FROM tabular.BudgetModel",
        "dataSource": "Birds"
      }
    }
  ],
  "annotations": [
    {
      "name": "_TM_ExtProp_QueryDefinition",
      "value": " SELECT [dim].[BudgetModel].* FROM [dim].[BudgetModel] "
    },
    {
      "name": "_TM_ExtProp_DbTableName",
      "value": "BudgetModel"
    },
    {
      "name": "_TM_ExtProp_DbSchemaName",
      "value": "dim"
    },
    {
      "name": "ContentPacks",
      "value": "Standard"
    },
    {
      "name": "TabularEditor_TranslatedNames",
      "value": "{\"de-DE\":\"Fibu-Budget\",\"en-US\":\"Budget Model\",\"nl-NL\":\"Begrotingsmodel\"}"
    },
    {
      "name": "TabularEditor_Relationships",
      "value": "[]"
    }
  ]
}