{
  "name": "factSalesReturnShipment",
  "columns": [
    {
      "name": "CompanyID",
      "dataType": "int64",
      "description": "Unique identifier of the company",
      "isHidden": true,
      "sourceColumn": "CompanyID",
      "sourceProviderType": "int",
      "annotations": [
        {
          "name": "TabularEditor_TranslatedNames",
          "value": "{\"de-DE\":\"CompanyID\",\"en-US\":\"CompanyID\",\"nl-NL\":\"Companyid\"}"
        },
        {
          "name": "TabularEditor_TranslatedDescriptions",
          "value": "{\"de-DE\":\"Kennung für Company\",\"en-US\":\"Unique identifier of the company\",\"nl-NL\":\"Unieke sleutel voor bedrijf\"}"
        }
      ]
    },
    {
      "name": "FinancialDimension1ID",
      "dataType": "int64",
      "description": "Unique key field to dimension key",
      "isHidden": true,
      "sourceColumn": "FinancialDimension1ID",
      "sourceProviderType": "int",
      "annotations": [
        {
          "name": "TabularEditor_TranslatedNames",
          "value": "{\"de-DE\":\"Financialdimension1ID\",\"en-US\":\"FinancialDimension1ID\",\"nl-NL\":\"Financialdimension1id\"}"
        },
        {
          "name": "TabularEditor_TranslatedDescriptions",
          "value": "{\"de-DE\":\"Kennung für Financialdimension1\",\"en-US\":\"Unique key field to dimension key\",\"nl-NL\":\"Unieke sleutel naar de unieke sleutel van de dimensie\"}"
        }
      ]
    },
    {
      "name": "FinancialDimension2ID",
      "dataType": "int64",
      "description": "Unique key field to dimension key",
      "isHidden": true,
      "sourceColumn": "FinancialDimension2ID",
      "sourceProviderType": "int",
      "annotations": [
        {
          "name": "TabularEditor_TranslatedNames",
          "value": "{\"de-DE\":\"Financialdimension2ID\",\"en-US\":\"FinancialDimension2ID\",\"nl-NL\":\"Financialdimension2id\"}"
        },
        {
          "name": "TabularEditor_TranslatedDescriptions",
          "value": "{\"de-DE\":\"Kennung für Financialdimension2\",\"en-US\":\"Unique key field to dimension key\",\"nl-NL\":\"Unieke sleutel naar de unieke sleutel van de dimensie\"}"
        }
      ]
    },
    {
      "name": "FinancialDimension3ID",
      "dataType": "int64",
      "description": "Unique key field to dimension key",
      "isHidden": true,
      "sourceColumn": "FinancialDimension3ID",
      "sourceProviderType": "int",
      "annotations": [
        {
          "name": "TabularEditor_TranslatedNames",
          "value": "{\"de-DE\":\"Financialdimension3ID\",\"en-US\":\"FinancialDimension3ID\",\"nl-NL\":\"Financialdimension3id\"}"
        },
        {
          "name": "TabularEditor_TranslatedDescriptions",
          "value": "{\"de-DE\":\"Kennung für Financialdimension3\",\"en-US\":\"Unique key field to dimension key\",\"nl-NL\":\"Unieke sleutel naar de unieke sleutel van de dimensie\"}"
        }
      ]
    },
    {
      "name": "FinancialDimension4ID",
      "dataType": "int64",
      "description": "Unique key field to dimension key",
      "isHidden": true,
      "sourceColumn": "FinancialDimension4ID",
      "sourceProviderType": "int",
      "annotations": [
        {
          "name": "TabularEditor_TranslatedNames",
          "value": "{\"de-DE\":\"Financialdimension4ID\",\"en-US\":\"FinancialDimension4ID\",\"nl-NL\":\"Financialdimension4id\"}"
        },
        {
          "name": "TabularEditor_TranslatedDescriptions",
          "value": "{\"de-DE\":\"Kennung für Financialdimension4\",\"en-US\":\"Unique key field to dimension key\",\"nl-NL\":\"Unieke sleutel naar de unieke sleutel van de dimensie\"}"
        }
      ]
    },
    {
      "name": "FinancialDimension5ID",
      "dataType": "int64",
      "description": "Unique key field to dimension key",
      "isHidden": true,
      "sourceColumn": "FinancialDimension5ID",
      "sourceProviderType": "int",
      "annotations": [
        {
          "name": "TabularEditor_TranslatedNames",
          "value": "{\"de-DE\":\"Financialdimension5ID\",\"en-US\":\"FinancialDimension5ID\",\"nl-NL\":\"Financialdimension5id\"}"
        },
        {
          "name": "TabularEditor_TranslatedDescriptions",
          "value": "{\"de-DE\":\"Kennung für Financialdimension5\",\"en-US\":\"Unique key field to dimension key\",\"nl-NL\":\"Unieke sleutel naar de unieke sleutel van de dimensie\"}"
        }
      ]
    },
    {
      "name": "FinancialDimension6ID",
      "dataType": "int64",
      "description": "Unique key field to dimension key",
      "isHidden": true,
      "sourceColumn": "FinancialDimension6ID",
      "sourceProviderType": "int",
      "annotations": [
        {
          "name": "TabularEditor_TranslatedNames",
          "value": "{\"de-DE\":\"Financialdimension6ID\",\"en-US\":\"FinancialDimension6ID\",\"nl-NL\":\"Financialdimension6id\"}"
        },
        {
          "name": "TabularEditor_TranslatedDescriptions",
          "value": "{\"de-DE\":\"Kennung für Financialdimension6\",\"en-US\":\"Unique key field to dimension key\",\"nl-NL\":\"Unieke sleutel naar de unieke sleutel van de dimensie\"}"
        }
      ]
    },
    {
      "name": "FinancialDimension7ID",
      "dataType": "int64",
      "description": "Unique key field to dimension key",
      "isHidden": true,
      "sourceColumn": "FinancialDimension7ID",
      "sourceProviderType": "int",
      "annotations": [
        {
          "name": "TabularEditor_TranslatedNames",
          "value": "{\"de-DE\":\"Financialdimension7ID\",\"en-US\":\"FinancialDimension7ID\",\"nl-NL\":\"Financialdimension7id\"}"
        },
        {
          "name": "TabularEditor_TranslatedDescriptions",
          "value": "{\"de-DE\":\"Kennung für Financialdimension7\",\"en-US\":\"Unique key field to dimension key\",\"nl-NL\":\"Unieke sleutel naar de unieke sleutel van de dimensie\"}"
        }
      ]
    },
    {
      "name": "FinancialDimension8ID",
      "dataType": "int64",
      "description": "Unique key field to dimension key",
      "isHidden": true,
      "sourceColumn": "FinancialDimension8ID",
      "sourceProviderType": "int",
      "annotations": [
        {
          "name": "TabularEditor_TranslatedNames",
          "value": "{\"de-DE\":\"Financialdimension8ID\",\"en-US\":\"FinancialDimension8ID\",\"nl-NL\":\"Financialdimension8id\"}"
        },
        {
          "name": "TabularEditor_TranslatedDescriptions",
          "value": "{\"de-DE\":\"Kennung für Financialdimension8\",\"en-US\":\"Unique key field to dimension key\",\"nl-NL\":\"Unieke sleutel naar de unieke sleutel van de dimensie\"}"
        }
      ]
    },
    {
      "name": "SelltoCustomerID",
      "dataType": "int64",
      "description": "Unique key field to dimension key",
      "isHidden": true,
      "sourceColumn": "SelltoCustomerID",
      "sourceProviderType": "int",
      "annotations": [
        {
          "name": "TabularEditor_TranslatedNames",
          "value": "{\"de-DE\":\"SelltoDebitorenID\",\"en-US\":\"SelltoCustomerID\",\"nl-NL\":\"Selltocustomerid\"}"
        },
        {
          "name": "TabularEditor_TranslatedDescriptions",
          "value": "{\"de-DE\":\"Kennung für SelltoDebitoren\",\"en-US\":\"Unique key field to dimension key\",\"nl-NL\":\"Unieke sleutel naar de unieke sleutel van de dimensie\"}"
        }
      ]
    },
    {
      "name": "BilltoCustomerID",
      "dataType": "int64",
      "description": "Unique key field to dimension key",
      "isHidden": true,
      "sourceColumn": "BilltoCustomerID",
      "sourceProviderType": "int",
      "annotations": [
        {
          "name": "TabularEditor_TranslatedNames",
          "value": "{\"de-DE\":\"BilltoDebitorenID\",\"en-US\":\"BillToCustomerID\",\"nl-NL\":\"Billtocustomerid\"}"
        },
        {
          "name": "TabularEditor_TranslatedDescriptions",
          "value": "{\"de-DE\":\"Kennung für BilltoDebitoren\",\"en-US\":\"Unique key field to dimension key\",\"nl-NL\":\"Unieke sleutel naar de unieke sleutel van de dimensie\"}"
        }
      ]
    },
    {
      "name": "ItemID",
      "dataType": "int64",
      "description": "Unique key field to dimension key",
      "isHidden": true,
      "sourceColumn": "ItemID",
      "sourceProviderType": "int",
      "annotations": [
        {
          "name": "TabularEditor_TranslatedNames",
          "value": "{\"de-DE\":\"ItemID\",\"en-US\":\"ItemID\",\"nl-NL\":\"Itemid\"}"
        },
        {
          "name": "TabularEditor_TranslatedDescriptions",
          "value": "{\"de-DE\":\"Kennung für Item\",\"en-US\":\"Unique key field to dimension key\",\"nl-NL\":\"Unieke sleutel naar de unieke sleutel van de dimensie\"}"
        }
      ]
    },
    {
      "name": "ItemVariantID",
      "dataType": "int64",
      "description": "Unique key field to dimension key",
      "isHidden": true,
      "sourceColumn": "ItemVariantID",
      "sourceProviderType": "int",
      "annotations": [
        {
          "name": "TabularEditor_TranslatedNames",
          "value": "{\"de-DE\":\"ItemvariantID\",\"en-US\":\"ItemVariantID\",\"nl-NL\":\"Itemvariantid\"}"
        },
        {
          "name": "TabularEditor_TranslatedDescriptions",
          "value": "{\"de-DE\":\"Kennung für Itemvariant\",\"en-US\":\"Unique key field to dimension key\",\"nl-NL\":\"Unieke sleutel naar de unieke sleutel van de dimensie\"}"
        }
      ]
    },
    {
      "name": "SourceID",
      "dataType": "int64",
      "description": "Unique key field to dimension key",
      "isHidden": true,
      "sourceColumn": "SourceID",
      "sourceProviderType": "int",
      "annotations": [
        {
          "name": "TabularEditor_TranslatedNames",
          "value": "{\"de-DE\":\"SourceID\",\"en-US\":\"SourceID\",\"nl-NL\":\"SourceID\"}"
        },
        {
          "name": "TabularEditor_TranslatedDescriptions",
          "value": "{\"de-DE\":\"Kennung für Source\",\"en-US\":\"Unique key field to dimension key\",\"nl-NL\":\"Unieke sleutel naar de unieke sleutel van de dimensie\"}"
        }
      ]
    },
    {
      "name": "LocationID",
      "dataType": "int64",
      "description": "Unique key field to dimension key",
      "isHidden": true,
      "sourceColumn": "LocationID",
      "sourceProviderType": "int",
      "annotations": [
        {
          "name": "TabularEditor_TranslatedNames",
          "value": "{\"de-DE\":\"LocationID\",\"en-US\":\"LocationID\",\"nl-NL\":\"Locationid\"}"
        },
        {
          "name": "TabularEditor_TranslatedDescriptions",
          "value": "{\"de-DE\":\"Kennung für Location\",\"en-US\":\"Unique key field to dimension key\",\"nl-NL\":\"Unieke sleutel naar de unieke sleutel van de dimensie\"}"
        }
      ]
    },
    {
      "name": "ReturnReasonID",
      "dataType": "int64",
      "description": "Unique key field to dimension key",
      "isHidden": true,
      "sourceColumn": "ReturnReasonID",
      "sourceProviderType": "int",
      "annotations": [
        {
          "name": "TabularEditor_TranslatedNames",
          "value": "{\"de-DE\":\"ReturnReasonID\",\"en-US\":\"ReturnReasonID\",\"nl-NL\":\"ReturnReasonID\"}"
        },
        {
          "name": "TabularEditor_TranslatedDescriptions",
          "value": "{\"de-DE\":\"Kennung für ReturnReason\",\"en-US\":\"Unique key field to dimension key\",\"nl-NL\":\"Unieke sleutel naar de unieke sleutel van de dimensie\"}"
        }
      ]
    },
    {
      "name": "GeneralProductPostingGroupID",
      "dataType": "int64",
      "description": "Unique key field to dimension key",
      "isHidden": true,
      "sourceColumn": "GeneralProductPostingGroupID",
      "sourceProviderType": "int",
      "annotations": [
        {
          "name": "TabularEditor_TranslatedNames",
          "value": "{\"de-DE\":\"GeneralproductpostinggroupID\",\"en-US\":\"GeneralProductPostingGroupID\",\"nl-NL\":\"Generalproductpostinggroupid\"}"
        },
        {
          "name": "TabularEditor_TranslatedDescriptions",
          "value": "{\"de-DE\":\"Kennung für GeneralProductPostingGroup\",\"en-US\":\"Unique key field to dimension key\",\"nl-NL\":\"Unieke sleutel naar de unieke sleutel van de dimensie\"}"
        }
      ]
    },
    {
      "name": "GeneralBusinessPostingGroupID",
      "dataType": "int64",
      "description": "Unique key field to dimension key",
      "isHidden": true,
      "sourceColumn": "GeneralBusinessPostingGroupID",
      "sourceProviderType": "int",
      "annotations": [
        {
          "name": "TabularEditor_TranslatedNames",
          "value": "{\"de-DE\":\"GeneralbusinesspostinggroupID\",\"en-US\":\"GeneralBusinessPostingGroupID\",\"nl-NL\":\"Generalbusinesspostinggroupid\"}"
        },
        {
          "name": "TabularEditor_TranslatedDescriptions",
          "value": "{\"de-DE\":\"Kennung für GeneralBusinessPostingGroup\",\"en-US\":\"Unique key field to dimension key\",\"nl-NL\":\"Unieke sleutel naar de unieke sleutel van de dimensie\"}"
        }
      ]
    },
    {
      "name": "ShippingAgentID",
      "dataType": "int64",
      "description": "Unique key field to dimension key",
      "isHidden": true,
      "sourceColumn": "ShippingAgentID",
      "sourceProviderType": "int",
      "annotations": [
        {
          "name": "TabularEditor_TranslatedNames",
          "value": "{\"de-DE\":\"ShippingagentID\",\"en-US\":\"ShippingAgentID\",\"nl-NL\":\"Shippingagentid\"}"
        },
        {
          "name": "TabularEditor_TranslatedDescriptions",
          "value": "{\"de-DE\":\"Kennung für Shippingagent\",\"en-US\":\"Unique key field to dimension key\",\"nl-NL\":\"Unieke sleutel naar de unieke sleutel van de dimensie\"}"
        }
      ]
    },
    {
      "name": "ReasonID",
      "dataType": "int64",
      "description": "Unique key field to dimension key",
      "isHidden": true,
      "sourceColumn": "ReasonID",
      "sourceProviderType": "int",
      "annotations": [
        {
          "name": "TabularEditor_TranslatedNames",
          "value": "{\"de-DE\":\"ReasonID\",\"en-US\":\"ReasonID\",\"nl-NL\":\"ReasonID\"}"
        },
        {
          "name": "TabularEditor_TranslatedDescriptions",
          "value": "{\"de-DE\":\"Kennung für Reason\",\"en-US\":\"Unique key field to dimension key\",\"nl-NL\":\"Unieke sleutel naar de unieke sleutel van de dimensie\"}"
        }
      ]
    },
    {
      "name": "SalespersonPurchaserID",
      "dataType": "int64",
      "description": "Unique key field to dimension key",
      "isHidden": true,
      "sourceColumn": "SalespersonPurchaserID",
      "sourceProviderType": "int",
      "annotations": [
        {
          "name": "TabularEditor_TranslatedNames",
          "value": "{\"de-DE\":\"SalespersonpurchaserID\",\"en-US\":\"SalespersonPurchaserID\",\"nl-NL\":\"Salespersonpurchaserid\"}"
        },
        {
          "name": "TabularEditor_TranslatedDescriptions",
          "value": "{\"de-DE\":\"Kennung für Salespersonpurchaser\",\"en-US\":\"Unique key field to dimension key\",\"nl-NL\":\"Unieke sleutel naar de unieke sleutel van de dimensie\"}"
        }
      ]
    },
    {
      "name": "ShipmentMethodId",
      "dataType": "int64",
      "description": "Unique key field to dimension key",
      "isHidden": true,
      "sourceColumn": "ShipmentMethodId",
      "sourceProviderType": "int",
      "annotations": [
        {
          "name": "TabularEditor_TranslatedNames",
          "value": "{\"de-DE\":\"ShipmentmethodID\",\"en-US\":\"ShipmentMethodId\",\"nl-NL\":\"Shipmentmethodid\"}"
        },
        {
          "name": "TabularEditor_TranslatedDescriptions",
          "value": "{\"de-DE\":\"Kennung für Shippingmethod\",\"en-US\":\"Unique key field to dimension key\",\"nl-NL\":\"Unieke sleutel naar de unieke sleutel van de dimensie\"}"
        }
      ]
    },
    {
      "name": "TransportMethodID",
      "dataType": "int64",
      "description": "Unique key to the dimension Transport Method",
      "isHidden": true,
      "sourceColumn": "TransportMethodID",
      "sourceProviderType": "int",
      "annotations": [
        {
          "name": "TabularEditor_TranslatedNames",
          "value": "{\"de-DE\":\"TransportmethodID\",\"en-US\":\"TransportMethodID\",\"nl-NL\":\"Transportmethodid\"}"
        },
        {
          "name": "TabularEditor_TranslatedDescriptions",
          "value": "{\"de-DE\":\"Kennung für Transportmethod\",\"en-US\":\"Unique key to the dimension Transport Method\",\"nl-NL\":\"Sleutel naar de dimensie transportmethode\"}"
        }
      ]
    },
    {
      "name": "PostingDateID",
      "dataType": "int64",
      "description": "Unique key field to dimension key",
      "isHidden": true,
      "sourceColumn": "PostingDateID",
      "sourceProviderType": "int",
      "annotations": [
        {
          "name": "TabularEditor_TranslatedNames",
          "value": "{\"de-DE\":\"PostingDatumID\",\"en-US\":\"PostingDateID\",\"nl-NL\":\"Postingdateid\"}"
        },
        {
          "name": "TabularEditor_TranslatedDescriptions",
          "value": "{\"de-DE\":\"Kennung für PostingDatum\",\"en-US\":\"Unique key field to dimension key\",\"nl-NL\":\"Unieke sleutel naar de unieke sleutel van de dimensie\"}"
        }
      ]
    },
    {
      "name": "ShipmentDateID",
      "dataType": "int64",
      "description": "Unique key field to dimension key",
      "isHidden": true,
      "sourceColumn": "ShipmentDateID",
      "sourceProviderType": "int",
      "annotations": [
        {
          "name": "TabularEditor_TranslatedNames",
          "value": "{\"de-DE\":\"ShipmentDatumID\",\"en-US\":\"ShipmentDateID\",\"nl-NL\":\"Shipmentdateid\"}"
        },
        {
          "name": "TabularEditor_TranslatedDescriptions",
          "value": "{\"de-DE\":\"Kennung für ShipmentDatum\",\"en-US\":\"Unique key field to dimension key\",\"nl-NL\":\"Unieke sleutel naar de unieke sleutel van de dimensie\"}"
        }
      ]
    },
    {
      "name": "ShippedQuantity",
      "dataType": "decimal",
      "description": "Quantity Returned. NAV: Sales > Order Processing > Return Orders > Lines > Quantity",
      "isHidden": true,
      "sourceColumn": "ShippedQuantity",
      "sourceProviderType": "decimal",
      "annotations": [
        {
          "name": "TabularEditor_TranslatedNames",
          "value": "{\"de-DE\":\"Reklamation Menge geliefert\",\"en-US\":\"Quantity Returned \",\"nl-NL\":\"Retour aantal\"}"
        },
        {
          "name": "TabularEditor_TranslatedDescriptions",
          "value": "{\"de-DE\":\"Abteilungen/Verkauf & Marketing/Auftragsabwicklung/Verkaufsreklamationen/Zeilen\",\"en-US\":\"Quantity Returned. NAV: Sales > Order Processing > Return Orders > Lines > Quantity\",\"nl-NL\":\"Retour aantal. NAV: Verkoop > Orderverwerking > Retourorders > Regels > Retour Aantal\"}"
        }
      ]
    },
    {
      "name": "InvoicedQuantity",
      "dataType": "decimal",
      "description": "Returned Quantity Invoiced. NAV: Sales > Order Processing > Return Orders > Lines > Quantity Invoiced",
      "isHidden": true,
      "sourceColumn": "InvoicedQuantity",
      "sourceProviderType": "decimal",
      "annotations": [
        {
          "name": "TabularEditor_TranslatedNames",
          "value": "{\"de-DE\":\"Reklamation Bereits berech. Menge\",\"en-US\":\"Returned Quantity Invoiced\",\"nl-NL\":\"Gefactureerd retour aantal\"}"
        },
        {
          "name": "TabularEditor_TranslatedDescriptions",
          "value": "{\"de-DE\":\"Abteilungen/Verkauf & Marketing/Auftragsabwicklung/Verkaufsreklamationen/Zeilen\",\"en-US\":\"Returned Quantity Invoiced. NAV: Sales > Order Processing > Return Orders > Lines > Quantity Invoiced\",\"nl-NL\":\"Gefactureerd retour aantal verschil tov  vorig jaar. NAV: Verkoop > Orderverwerking > Retour orders > Regels > Gefactureerd Aantal\"}"
        }
      ]
    },
    {
      "name": "ShippedGrossWeight",
      "dataType": "decimal",
      "description": "Returned Gross Weight. Quantity Returned * Gross Weight of the Item",
      "isHidden": true,
      "sourceColumn": "ShippedGrossWeight",
      "sourceProviderType": "decimal",
      "annotations": [
        {
          "name": "TabularEditor_TranslatedNames",
          "value": "{\"de-DE\":\"Reklamation Bruttogewicht\",\"en-US\":\"Returned Gross Weight\",\"nl-NL\":\"Retour bruto gewicht\"}"
        },
        {
          "name": "TabularEditor_TranslatedDescriptions",
          "value": "{\"de-DE\":\"Abteilungen/Verkauf & Marketing/Auftragsabwicklung/Verkaufsreklamationen/Zeilen\",\"en-US\":\"Returned Gross Weight. Quantity Returned * Gross Weight of the Item\",\"nl-NL\":\"Retour Bruto Gewicht. Retour Aantal * Bruto Gewicht van het artikel\"}"
        }
      ]
    },
    {
      "name": "ShippedNetWeight",
      "dataType": "decimal",
      "description": "Returned Net Weight. Quantity Returned * Net Weight of the Item",
      "isHidden": true,
      "sourceColumn": "ShippedNetWeight",
      "sourceProviderType": "decimal",
      "annotations": [
        {
          "name": "TabularEditor_TranslatedNames",
          "value": "{\"de-DE\":\"Reklamation Nettogewicht\",\"en-US\":\"Returned Net Weight\",\"nl-NL\":\"Retour netto gewicht\"}"
        },
        {
          "name": "TabularEditor_TranslatedDescriptions",
          "value": "{\"de-DE\":\"Abteilungen/Verkauf & Marketing/Auftragsabwicklung/Verkaufsreklamationen/Zeilen\",\"en-US\":\"Returned Net Weight. Quantity Returned * Net Weight of the Item\",\"nl-NL\":\"Retour Netto Gewicht. Retour Aantal * Netto Gewicht van het artikel\"}"
        }
      ]
    },
    {
      "name": "ShippedAmount_LCY",
      "dataType": "decimal",
      "description": "Returned Amount. NAV: Sales > Order Processing > Return orders > Lines > Line Amount Excl VAT",
      "isHidden": true,
      "sourceColumn": "ShippedAmount_LCY",
      "sourceProviderType": "decimal",
      "annotations": [
        {
          "name": "TabularEditor_TranslatedNames",
          "value": "{\"de-DE\":\"Reklamation Betrag geliefert\",\"en-US\":\"Returned Amount\",\"nl-NL\":\"Retour bedrag\"}"
        },
        {
          "name": "TabularEditor_TranslatedDescriptions",
          "value": "{\"de-DE\":\"Abteilungen/Verkauf & Marketing/Auftragsabwicklung/Verkaufsreklamationen/Zeilen\",\"en-US\":\"Returned Amount. NAV: Sales > Order Processing > Return orders > Lines > Line Amount Excl VAT\",\"nl-NL\":\"Retour Bedrag. NAV: Verkoop > Orderverwerking > Leveringen > Retourorders > Regelbedrag Excl. BTW\"}"
        }
      ]
    },
    {
      "name": "ShippedAmount_RCY",
      "dataType": "decimal",
      "description": "Returned Amount. NAV: Sales > Order Processing > Return orders > Lines > Line Amount Excl VAT",
      "isHidden": true,
      "sourceColumn": "ShippedAmount_RCY",
      "sourceProviderType": "decimal",
      "annotations": [
        {
          "name": "TabularEditor_TranslatedNames",
          "value": "{\"de-DE\":\"Reklamation Betrag geliefert\",\"en-US\":\"Returned Amount\",\"nl-NL\":\"Retour bedrag\"}"
        },
        {
          "name": "TabularEditor_TranslatedDescriptions",
          "value": "{\"de-DE\":\"Abteilungen/Verkauf & Marketing/Auftragsabwicklung/Verkaufsreklamationen/Zeilen\",\"en-US\":\"Returned Amount. NAV: Sales > Order Processing > Return orders > Lines > Line Amount Excl VAT\",\"nl-NL\":\"Retour Bedrag. NAV: Verkoop > Orderverwerking > Leveringen > Retourorders > Regelbedrag Excl. BTW\"}"
        }
      ]
    },
    {
      "name": "DocumentSalesID",
      "dataType": "int64",
      "isHidden": true,
      "sourceColumn": "DocumentSalesID",
      "annotations": [
        {
          "name": "TabularEditor_TranslatedNames",
          "value": "{\"de-DE\":\"DocumentSalesID\"}"
        },
        {
          "name": "TabularEditor_TranslatedDescriptions",
          "value": "{\"de-DE\":\"Kennung für DocumentSales\"}"
        }
      ]
    },
    {
      "name": "CustomerID",
      "dataType": "int64",
      "isHidden": true,
      "sourceColumn": "CustomerID"
    },
    {
      "name": "DateID",
      "dataType": "int64",
      "isHidden": true,
      "sourceColumn": "DateID"
    }
  ],
  "partitions": [
    {
      "name": "SalesReturnShipment",
      "source": {
        "type": "query",
        "query": "SELECT * FROM tabular.factSalesReturnShipment",
        "dataSource": "Birds"
      },
      "annotations": [
        {
          "name": "TabularEditor_TableSchema",
          "value": "{\"Name\":\"SalesReturnShipment\",\"Schema\":\"fact\",\"Database\":\"Birds\",\"IncludedColumns\":[\"StageID\",\"CompanyID\",\"DataConnectionID\",\"ComponentExecutionID\",\"ExecutionFlag\",\"FinancialDimension1ID\",\"FinancialDimension2ID\",\"FinancialDimension3ID\",\"FinancialDimension4ID\",\"FinancialDimension5ID\",\"FinancialDimension6ID\",\"FinancialDimension7ID\",\"FinancialDimension8ID\",\"SelltoCustomerID\",\"BilltoCustomerID\",\"ItemID\",\"ItemVariantID\",\"SourceID\",\"LocationID\",\"ReturnReasonID\",\"GeneralProductPostingGroupID\",\"GeneralBusinessPostingGroupID\",\"ShippingAgentID\",\"ReasonID\",\"SalespersonPurchaserID\",\"ShipmentMethodId\",\"TransportMethodID\",\"PostingDateID\",\"ShipmentDateID\",\"ShippedQuantity\",\"InvoicedQuantity\",\"ShippedGrossWeight\",\"ShippedNetWeight\",\"UnitCost_LCY\",\"ShippedAmount_LCY\",\"UnitCost\",\"ShippedAmount\"],\"SelectAll\":true}"
        }
      ]
    }
  ],
  "annotations": [
    {
      "name": "Postfix",
      "value": "SRS"
    },
    {
      "name": "TabularEditor_TranslatedNames",
      "value": "{\"de-DE\":\"Σ Verkaufsreklamationen\",\"en-US\":\"Σ Sales Return Shipment\",\"nl-NL\":\"Σ Verkoop Retouren\"}"
    },
    {
      "name": "TabularEditor_Relationships",
      "value": [
        "[",
        "  {",
        "    \"fromTable\": \"factSalesReturnShipment\",",
        "    \"fromColumn\": \"BilltoCustomerID\",",
        "    \"toTable\": \"BillToCustomer\",",
        "    \"toColumn\": \"CustomerID\"",
        "  },",
        "  {",
        "    \"fromTable\": \"factSalesReturnShipment\",",
        "    \"fromColumn\": \"BilltoCustomerID\",",
        "    \"toTable\": \"Customer\",",
        "    \"toColumn\": \"CustomerID\"",
        "  },",
        "  {",
        "    \"fromTable\": \"factSalesReturnShipment\",",
        "    \"fromColumn\": \"CompanyID\",",
        "    \"toTable\": \"Company\",",
        "    \"toColumn\": \"CompanyID\"",
        "  },",
        "  {",
        "    \"fromTable\": \"factSalesReturnShipment\",",
        "    \"fromColumn\": \"CustomerID\",",
        "    \"toTable\": \"Customer\",",
        "    \"toColumn\": \"CustomerID\",",
        "    \"isActive\": false",
        "  },",
        "  {",
        "    \"fromTable\": \"factSalesReturnShipment\",",
        "    \"fromColumn\": \"DateID\",",
        "    \"toTable\": \"Date\",",
        "    \"toColumn\": \"DateID\",",
        "    \"isActive\": false",
        "  },",
        "  {",
        "    \"fromTable\": \"factSalesReturnShipment\",",
        "    \"fromColumn\": \"DocumentSalesID\",",
        "    \"toTable\": \"DocumentSales\",",
        "    \"toColumn\": \"DocumentSalesID\"",
        "  },",
        "  {",
        "    \"fromTable\": \"factSalesReturnShipment\",",
        "    \"fromColumn\": \"FinancialDimension1ID\",",
        "    \"toTable\": \"FinancialDimension1\",",
        "    \"toColumn\": \"FinancialDimension1ID\"",
        "  },",
        "  {",
        "    \"fromTable\": \"factSalesReturnShipment\",",
        "    \"fromColumn\": \"FinancialDimension2ID\",",
        "    \"toTable\": \"FinancialDimension2\",",
        "    \"toColumn\": \"FinancialDimension2ID\"",
        "  },",
        "  {",
        "    \"fromTable\": \"factSalesReturnShipment\",",
        "    \"fromColumn\": \"FinancialDimension3ID\",",
        "    \"toTable\": \"FinancialDimension3\",",
        "    \"toColumn\": \"FinancialDimension3ID\"",
        "  },",
        "  {",
        "    \"fromTable\": \"factSalesReturnShipment\",",
        "    \"fromColumn\": \"FinancialDimension4ID\",",
        "    \"toTable\": \"FinancialDimension4\",",
        "    \"toColumn\": \"FinancialDimension4ID\"",
        "  },",
        "  {",
        "    \"fromTable\": \"factSalesReturnShipment\",",
        "    \"fromColumn\": \"FinancialDimension5ID\",",
        "    \"toTable\": \"FinancialDimension5\",",
        "    \"toColumn\": \"FinancialDimension5ID\"",
        "  },",
        "  {",
        "    \"fromTable\": \"factSalesReturnShipment\",",
        "    \"fromColumn\": \"FinancialDimension6ID\",",
        "    \"toTable\": \"FinancialDimension6\",",
        "    \"toColumn\": \"FinancialDimension6ID\"",
        "  },",
        "  {",
        "    \"fromTable\": \"factSalesReturnShipment\",",
        "    \"fromColumn\": \"FinancialDimension7ID\",",
        "    \"toTable\": \"FinancialDimension7\",",
        "    \"toColumn\": \"FinancialDimension7ID\"",
        "  },",
        "  {",
        "    \"fromTable\": \"factSalesReturnShipment\",",
        "    \"fromColumn\": \"FinancialDimension8ID\",",
        "    \"toTable\": \"FinancialDimension8\",",
        "    \"toColumn\": \"FinancialDimension8ID\"",
        "  },",
        "  {",
        "    \"fromTable\": \"factSalesReturnShipment\",",
        "    \"fromColumn\": \"GeneralBusinessPostingGroupID\",",
        "    \"toTable\": \"GeneralBusinessPostingGroup\",",
        "    \"toColumn\": \"GeneralBusinessPostingGroupID\"",
        "  },",
        "  {",
        "    \"fromTable\": \"factSalesReturnShipment\",",
        "    \"fromColumn\": \"GeneralProductPostingGroupID\",",
        "    \"toTable\": \"GeneralProductPostingGroup\",",
        "    \"toColumn\": \"GeneralProductPostingGroupID\"",
        "  },",
        "  {",
        "    \"fromTable\": \"factSalesReturnShipment\",",
        "    \"fromColumn\": \"ItemID\",",
        "    \"toTable\": \"Item\",",
        "    \"toColumn\": \"ItemID\"",
        "  },",
        "  {",
        "    \"fromTable\": \"factSalesReturnShipment\",",
        "    \"fromColumn\": \"ItemVariantID\",",
        "    \"toTable\": \"ItemVariant\",",
        "    \"toColumn\": \"ItemVariantID\"",
        "  },",
        "  {",
        "    \"fromTable\": \"factSalesReturnShipment\",",
        "    \"fromColumn\": \"LocationID\",",
        "    \"toTable\": \"Location\",",
        "    \"toColumn\": \"LocationID\"",
        "  },",
        "  {",
        "    \"fromTable\": \"factSalesReturnShipment\",",
        "    \"fromColumn\": \"PostingDateID\",",
        "    \"toTable\": \"Date\",",
        "    \"toColumn\": \"DateID\"",
        "  },",
        "  {",
        "    \"fromTable\": \"factSalesReturnShipment\",",
        "    \"fromColumn\": \"PostingDateID\",",
        "    \"toTable\": \"PostingDate\",",
        "    \"toColumn\": \"DateID\"",
        "  },",
        "  {",
        "    \"fromTable\": \"factSalesReturnShipment\",",
        "    \"fromColumn\": \"ReasonID\",",
        "    \"toTable\": \"Reason\",",
        "    \"toColumn\": \"ReasonID\"",
        "  },",
        "  {",
        "    \"fromTable\": \"factSalesReturnShipment\",",
        "    \"fromColumn\": \"ReturnReasonID\",",
        "    \"toTable\": \"Reason\",",
        "    \"toColumn\": \"ReasonID\",",
        "    \"isActive\": false",
        "  },",
        "  {",
        "    \"fromTable\": \"factSalesReturnShipment\",",
        "    \"fromColumn\": \"ReturnReasonID\",",
        "    \"toTable\": \"ReturnReason\",",
        "    \"toColumn\": \"ReturnReasonID\"",
        "  },",
        "  {",
        "    \"fromTable\": \"factSalesReturnShipment\",",
        "    \"fromColumn\": \"SalespersonPurchaserID\",",
        "    \"toTable\": \"Employee\",",
        "    \"toColumn\": \"EmployeeID\"",
        "  },",
        "  {",
        "    \"fromTable\": \"factSalesReturnShipment\",",
        "    \"fromColumn\": \"SalespersonPurchaserID\",",
        "    \"toTable\": \"SalespersonPurchaser\",",
        "    \"toColumn\": \"SalespersonPurchaserID\"",
        "  },",
        "  {",
        "    \"fromTable\": \"factSalesReturnShipment\",",
        "    \"fromColumn\": \"SelltoCustomerID\",",
        "    \"toTable\": \"Customer\",",
        "    \"toColumn\": \"CustomerID\",",
        "    \"isActive\": false",
        "  },",
        "  {",
        "    \"fromTable\": \"factSalesReturnShipment\",",
        "    \"fromColumn\": \"SelltoCustomerID\",",
        "    \"toTable\": \"SellToCustomer\",",
        "    \"toColumn\": \"CustomerID\"",
        "  },",
        "  {",
        "    \"fromTable\": \"factSalesReturnShipment\",",
        "    \"fromColumn\": \"ShipmentDateID\",",
        "    \"toTable\": \"Date\",",
        "    \"toColumn\": \"DateID\",",
        "    \"isActive\": false",
        "  },",
        "  {",
        "    \"fromTable\": \"factSalesReturnShipment\",",
        "    \"fromColumn\": \"ShipmentDateID\",",
        "    \"toTable\": \"ShipmentDate\",",
        "    \"toColumn\": \"DateID\"",
        "  },",
        "  {",
        "    \"fromTable\": \"factSalesReturnShipment\",",
        "    \"fromColumn\": \"ShipmentMethodId\",",
        "    \"toTable\": \"ShipmentMethod\",",
        "    \"toColumn\": \"ShipmentMethodID\"",
        "  },",
        "  {",
        "    \"fromTable\": \"factSalesReturnShipment\",",
        "    \"fromColumn\": \"ShippingAgentID\",",
        "    \"toTable\": \"ShippingAgent\",",
        "    \"toColumn\": \"ShippingAgentID\"",
        "  },",
        "  {",
        "    \"fromTable\": \"factSalesReturnShipment\",",
        "    \"fromColumn\": \"SourceID\",",
        "    \"toTable\": \"Source\",",
        "    \"toColumn\": \"SourceID\"",
        "  },",
        "  {",
        "    \"fromTable\": \"factSalesReturnShipment\",",
        "    \"fromColumn\": \"TransportMethodID\",",
        "    \"toTable\": \"TransportMethod\",",
        "    \"toColumn\": \"TransportMethodID\"",
        "  }",
        "]"
      ]
    }
  ]
}