{
  "name": "BalanceStart_AR",
  "description": "Departments/Sales/General Data/Customers > Ledger Entries > Navigate > Detailed Cust. Ledg. Entry > Amount up to selected date",
  "expression": [
    "VAR BalanceStart =",
    "    FILTER ( ALL ( 'Date' ), 'Date'[DateID] < MIN ( 'Date'[DateID] ) )",
    "VAR BalanceStartAmount =",
    "    CALCULATE ( [Amount_AR], BalanceStart )",
    "RETURN",
    "    IF (",
    "        BalanceStartAmount <> 0",
    "            || [Amount_AR] <> 0",
    "            || [AmountCredit_AR] <> 0",
    "            || [AmountDebit_AR] <> 0,",
    "        IF ( ISBLANK ( BalanceStartAmount ), 0, BalanceStartAmount )",
    "    )"
  ],
  "formatString": "#,##0.00",
  "annotations": [
    {
      "name": "TabularEditor_TranslatedNames",
      "value": "{\"de-DE\":\"Debitorenbilanz anfang\",\"en-US\":\"AR Balance Start\",\"nl-NL\":\"Debiteurensaldo begin\"}"
    },
    {
      "name": "TabularEditor_TranslatedDescriptions",
      "value": "{\"de-DE\":\"Abteilungen > Verkauf & Marketing > Verkauf > Debitoren > Navigate > Posten\",\"en-US\":\"Departments/Sales/General Data/Customers > Ledger Entries > Navigate > Detailed Cust. Ledg. Entry > Amount up to selected date\",\"nl-NL\":\"Afdelingen/Verkoop/Stamgegevens/Klanten > Posten > Navigeren > Gedetailleerde klantenpost > Crediteurensaldo begin\"}"
    }
  ]
}