{
  "name": "ClosedInvoices_AR",
  "description": "Departments/Sales/General Data/Customers > Ledger Entries > Navigate > Detailed Cust. Ledg. Entry > Quantity of closed invoiced",
  "expression": [
    "CALCULATE (",
    "    DISTINCTCOUNT ( 'factAccountsReceivable'[CustomerInvoiceID] ),",
    "    USERELATIONSHIP ( 'factAccountsReceivable'[PaidDateID], 'Date'[DateID] ),",
    "    'factAccountsReceivable'[CustomerInvoiceID] <> 0",
    ")"
  ],
  "formatString": "#,##0",
  "displayFolder": "Σ # Invoices",
  "annotations": [
    {
      "name": "TabularEditor_TranslatedNames",
      "value": "{\"de-DE\":\"# Geschlossende Rechnungen\",\"en-US\":\"# Closed Invoices\",\"nl-NL\":\"# Afgesloten facturen\"}"
    },
    {
      "name": "TabularEditor_TranslatedDescriptions",
      "value": "{\"de-DE\":\"Abteilungen > Verkauf & Marketing > Verkauf > Debitoren > Navigate > Posten\",\"en-US\":\"Departments/Sales/General Data/Customers > Ledger Entries > Navigate > Detailed Cust. Ledg. Entry > Quantity of closed invoiced\",\"nl-NL\":\"Afdelingen/Verkoop/Stamgegevens/Klanten > Posten > Navigeren > Gedetailleerde klantenpost > # Afgesloten facturen\"}"
    }
  ]
}