{
  "name": "DueAmount_AR",
  "description": "Departments/Sales/General Data/Customers > Ledger Entries > Navigate > Detailed Cust. Ledg. Entry > Invoice Amount before due",
  "expression": "[Balance_AR] - [OverdueAmount_AR]",
  "formatString": "#,##0.00",
  "isHidden": true,
  "annotations": [
    {
      "name": "TabularEditor_TranslatedNames",
      "value": "{\"de-DE\":\"Fälliger Betrag\",\"en-US\":\"Invoice Amount Due\",\"nl-NL\":\"Verschuldigd factuurbedrag\"}"
    },
    {
      "name": "TabularEditor_TranslatedDescriptions",
      "value": "{\"de-DE\":\"Abteilungen > Verkauf & Marketing > Verkauf > Debitoren > Navigate > Posten\",\"en-US\":\"Departments/Sales/General Data/Customers > Ledger Entries > Navigate > Detailed Cust. Ledg. Entry > Invoice Amount before due\",\"nl-NL\":\"Afdelingen/Verkoop/Stamgegevens/Klanten > Posten > Navigeren > Gedetailleerde klantenpost > Verschuldigd factuurbedrag\"}"
    }
  ]
}