{
  "name": "OverdueDays_AR",
  "description": "Departments/Sales/General Data/Customers > Ledger Entries > Navigate > Detailed Cust. Ledg. Entry",
  "expression": [
    "VAR MaxDate =",
    "    MAX ( 'Date'[Date] )",
    "RETURN",
    "    AVERAGEX (",
    "        ADDCOLUMNS (",
    "            FILTER (",
    "                'CustomerInvoice',",
    "                'CustomerInvoice'[CustomerInvoicePaidDate] > MaxDate",
    "                    && 'CustomerInvoice'[CustomerInvoicePostingDate] <= MaxDate",
    "                    && 'CustomerInvoice'[CustomerInvoiceID] <> 0",
    "                    && CONTAINS (",
    "                        CALCULATETABLE ( 'factAccountsReceivable', ALL ( 'Date' ) ),",
    "                        'factAccountsReceivable'[CustomerInvoiceID], 'CustomerInvoice'[CustomerInvoiceID]",
    "                    )",
    "            ),",
    "            \"OverdueDays\", IF (",
    "                'CustomerInvoice'[CustomerInvoiceDueDate] <= MaxDate,",
    "                DATEDIFF ( 'CustomerInvoice'[CustomerInvoiceDueDate], MaxDate, DAY ),",
    "                0",
    "            )",
    "        ),",
    "        [OverdueDays]",
    "    )"
  ],
  "formatString": "#,##0",
  "displayFolder": "Σ Days",
  "annotations": [
    {
      "name": "TabularEditor_TranslatedNames",
      "value": "{\"de-DE\":\"Überfälliger Tage\",\"en-US\":\"Overdue Days\",\"nl-NL\":\"Achterstallig dagen\"}"
    },
    {
      "name": "TabularEditor_TranslatedDescriptions",
      "value": "{\"de-DE\":\"Abteilungen > Verkauf & Marketing > Verkauf > Debitoren > Navigate > Posten\",\"en-US\":\"Departments/Sales/General Data/Customers > Ledger Entries > Navigate > Detailed Cust. Ledg. Entry\",\"nl-NL\":\"Afdelingen/Verkoop/Stamgegevens/Klanten > Posten > Navigeren > Gedetailleerde klantenpost > Achterstallig dagen\"}"
    },
    {
      "name": "TabularEditor_TranslatedDisplayFolders",
      "value": "{\"de-DE\":\"Σ Tage\",\"en-US\":\"Σ Days\",\"nl-NL\":\"Σ Dagen\"}"
    }
  ]
}