{
  "name": "PostedInvoiceAmount_AR",
  "description": "Departments/Sales/General Data/Customers > Ledger Entries > Navigate > Detailed Cust. Ledg. Entry",
  "expression": [
    "VAR InvoicesOnly =",
    "    FILTER ( 'IsInvoice', 'IsInvoice'[YesNoCode] = 1 )",
    "RETURN",
    "    CALCULATE ( [Amount_AR], InvoicesOnly )"
  ],
  "formatString": "#,##0.00",
  "isHidden": true,
  "annotations": [
    {
      "name": "TabularEditor_TranslatedNames",
      "value": "{\"de-DE\":\"Rechnungsbetrag gebucht\",\"en-US\":\"Posted Invoice Amount\",\"nl-NL\":\"Geboekt factuurbedrag\"}"
    },
    {
      "name": "TabularEditor_TranslatedDescriptions",
      "value": "{\"de-DE\":\"Abteilungen > Verkauf & Marketing > Verkauf > Debitoren > Navigate > Posten\",\"en-US\":\"Departments/Sales/General Data/Customers > Ledger Entries > Navigate > Detailed Cust. Ledg. Entry\",\"nl-NL\":\"Afdelingen/Verkoop/Stamgegevens/Klanten > Posten > Navigeren > Gedetailleerde klantenpost > Geboekt factuurbedrag\"}"
    }
  ]
}