{
  "name": "WarehouseEntryQuantityBase_WHE",
  "expression": "SUM ( 'factWarehouseEntry'[WarehouseEntryQuantityBase] )",
  "formatString": "#,##0.00",
  "annotations": [
    {
      "name": "TabularEditor_TranslatedNames",
      "value": "{\"de-DE\":\"Lagerplatzposten Menge (Basis)\",\"en-US\":\"Quantity (Base)\",\"nl-NL\":\"Aantal (basis)\"}"
    },
    {
      "name": "TabularEditor_TranslatedDescriptions",
      "value": "{\"de-DE\":\"Abteilungen/Lager/Historie/Historie/Lagerplatzposten\",\"en-US\":\"Departments/Inventory and Warehouse/History\",\"nl-NL\":\"Afdelingen/Voorraad en magazijn/Historie\"}"
    }
  ]
}