{
  "name": "factSalesBudget",
  "columns": [
    {
      "name": "CompanyID",
      "dataType": "int64",
      "description": "Unique identifier of the company",
      "isHidden": true,
      "sourceColumn": "CompanyID",
      "sourceProviderType": "int",
      "annotations": [
        {
          "name": "TabularEditor_TranslatedNames",
          "value": "{\"de-DE\":\"CompanyID\",\"en-US\":\"CompanyID\",\"nl-NL\":\"Companyid\"}"
        },
        {
          "name": "TabularEditor_TranslatedDescriptions",
          "value": "{\"de-DE\":\"Kennung für Company\",\"en-US\":\"Unique identifier of the company\",\"nl-NL\":\"Unieke sleutel voor bedrijf\"}"
        }
      ]
    },
    {
      "name": "ItemID",
      "dataType": "int64",
      "description": "Unique key field to dimension key",
      "isHidden": true,
      "sourceColumn": "ItemID",
      "sourceProviderType": "int",
      "annotations": [
        {
          "name": "TabularEditor_TranslatedNames",
          "value": "{\"de-DE\":\"ItemID\",\"en-US\":\"ItemID\",\"nl-NL\":\"Itemid\"}"
        },
        {
          "name": "TabularEditor_TranslatedDescriptions",
          "value": "{\"de-DE\":\"Kennung für Item\",\"en-US\":\"Unique key field to dimension key\",\"nl-NL\":\"Unieke sleutel naar de unieke sleutel van de dimensie\"}"
        }
      ]
    },
    {
      "name": "LocationID",
      "dataType": "int64",
      "description": "Unique key field to dimension key",
      "isHidden": true,
      "sourceColumn": "LocationID",
      "sourceProviderType": "int",
      "annotations": [
        {
          "name": "TabularEditor_TranslatedNames",
          "value": "{\"de-DE\":\"LocationID\",\"en-US\":\"LocationID\",\"nl-NL\":\"Locationid\"}"
        },
        {
          "name": "TabularEditor_TranslatedDescriptions",
          "value": "{\"de-DE\":\"Kennung für Location\",\"en-US\":\"Unique key field to dimension key\",\"nl-NL\":\"Unieke sleutel naar de unieke sleutel van de dimensie\"}"
        }
      ]
    },
    {
      "name": "SalesBudgetID",
      "dataType": "int64",
      "description": "Unique key field to dimension key",
      "isHidden": true,
      "sourceColumn": "SalesBudgetID",
      "sourceProviderType": "int",
      "annotations": [
        {
          "name": "TabularEditor_TranslatedNames",
          "value": "{\"de-DE\":\"SalesbudgetID\",\"en-US\":\"SalesBudgetID\",\"nl-NL\":\"Salesbudgetid\"}"
        },
        {
          "name": "TabularEditor_TranslatedDescriptions",
          "value": "{\"de-DE\":\"Kennung für Salesbudget\",\"en-US\":\"Unique key field to dimension key\",\"nl-NL\":\"Unieke sleutel naar de unieke sleutel van de dimensie\"}"
        }
      ]
    },
    {
      "name": "SalesBudgetDateID",
      "dataType": "int64",
      "description": "Unique key field to dimension key",
      "isHidden": true,
      "sourceColumn": "SalesBudgetDateID",
      "sourceProviderType": "int",
      "annotations": [
        {
          "name": "TabularEditor_TranslatedNames",
          "value": "{\"de-DE\":\"SalesbudgetDatumID\",\"en-US\":\"SalesBudgetDateID\",\"nl-NL\":\"Salesbudgetdateid\"}"
        },
        {
          "name": "TabularEditor_TranslatedDescriptions",
          "value": "{\"de-DE\":\"Kennung für SalesbudgetDatum\",\"en-US\":\"Unique key field to dimension key\",\"nl-NL\":\"Unieke sleutel naar de unieke sleutel van de dimensie\"}"
        }
      ]
    },
    {
      "name": "SalesBudgetCostAmount_LCY",
      "dataType": "decimal",
      "description": "Sales budgeted cost amount. NAV: Sales > Analysis & Reporting > Sales Budgets > Edit Budget > Budgeted Cost Amount",
      "isHidden": true,
      "sourceColumn": "SalesBudgetCostAmount_LCY",
      "sourceProviderType": "decimal",
      "annotations": [
        {
          "name": "TabularEditor_TranslatedNames",
          "value": "{\"de-DE\":\"Budgetierter Einstandsbetrag \",\"en-US\":\"Budgeted Cost Amount\",\"nl-NL\":\"Budget kosten \"}"
        },
        {
          "name": "TabularEditor_TranslatedDescriptions",
          "value": "{\"de-DE\":\"Abteilungen/Verkauf & Marketing/Berichte und Analysen/Verkaufsbudgets/Budget Bearbeiten\",\"en-US\":\"Sales budgeted cost amount. NAV: Sales > Analysis & Reporting > Sales Budgets > Edit Budget > Budgeted Cost Amount\",\"nl-NL\":\"Totale kosten opgenomen in het budget. NAV: Verkoop > Analyse en Rapportage > Verkoopbudgetten > Overzicht verkoopbudget > Totale kosten (budget)\"}"
        }
      ]
    },
    {
      "name": "SalesBudgetAmount_LCY",
      "dataType": "decimal",
      "description": "Budgeted sales amount. NAV: Sales > Analysis & Reporting > Sales Budgets > Edit Budget > Budgeted Sales Amount",
      "isHidden": true,
      "sourceColumn": "SalesBudgetAmount_LCY",
      "sourceProviderType": "decimal",
      "annotations": [
        {
          "name": "TabularEditor_TranslatedNames",
          "value": "{\"de-DE\":\"Budgetierter Verkaufsbetrag\",\"en-US\":\"Budgeted Sales Amount\",\"nl-NL\":\"Budget omzet\"}"
        },
        {
          "name": "TabularEditor_TranslatedDescriptions",
          "value": "{\"de-DE\":\"Abteilungen/Verkauf & Marketing/Berichte und Analysen/Verkaufsbudgets/Budget Bearbeiten\",\"en-US\":\"Budgeted sales amount. NAV: Sales > Analysis & Reporting > Sales Budgets > Edit Budget > Budgeted Sales Amount\",\"nl-NL\":\"Totale omzet opgenomen in het budget. NAV: Verkoop > Analyse en Rapportage > Verkoopbudgetten > Overzicht verkoopbudget > Totale omzet (budget)\"}"
        }
      ]
    },
    {
      "name": "SalesBudgetQuantity",
      "dataType": "decimal",
      "description": "Budgeted sales quantity. NAV: Sales > Analysis & Reporting > Sales Budgets > Edit Budget > Budgeted Quantity",
      "isHidden": true,
      "sourceColumn": "SalesBudgetQuantity",
      "sourceProviderType": "decimal",
      "annotations": [
        {
          "name": "TabularEditor_TranslatedNames",
          "value": "{\"de-DE\":\"Budgetierte Menge\",\"en-US\":\"Budgeted Sales Quantity\",\"nl-NL\":\"Budget aantal\"}"
        },
        {
          "name": "TabularEditor_TranslatedDescriptions",
          "value": "{\"de-DE\":\"Abteilungen/Verkauf & Marketing/Berichte und Analysen/Verkaufsbudgets/Budget Bearbeiten\",\"en-US\":\"Budgeted sales quantity. NAV: Sales > Analysis & Reporting > Sales Budgets > Edit Budget > Budgeted Quantity\",\"nl-NL\":\"Aantal opgenomen in het budget. NAV: Verkoop > Analyse en Rapportage > Verkoopbudgetten > Overzicht verkoopbudget > Aantal (budget)\"}"
        }
      ]
    },
    {
      "name": "SalesBudgetCostAmount_RCY",
      "dataType": "decimal",
      "description": "Sales budgeted cost amount. NAV: Sales > Analysis & Reporting > Sales Budgets > Edit Budget > Budgeted Cost Amount",
      "isHidden": true,
      "sourceColumn": "SalesBudgetCostAmount_RCY",
      "sourceProviderType": "decimal",
      "annotations": [
        {
          "name": "TabularEditor_TranslatedNames",
          "value": "{\"de-DE\":\"Budgetierter Einstandsbetrag \",\"en-US\":\"Budgeted Cost Amount\",\"nl-NL\":\"Budget kosten \"}"
        },
        {
          "name": "TabularEditor_TranslatedDescriptions",
          "value": "{\"de-DE\":\"Abteilungen/Verkauf & Marketing/Berichte und Analysen/Verkaufsbudgets/Budget Bearbeiten\",\"en-US\":\"Sales budgeted cost amount. NAV: Sales > Analysis & Reporting > Sales Budgets > Edit Budget > Budgeted Cost Amount\",\"nl-NL\":\"Totale kosten opgenomen in het budget. NAV: Verkoop > Analyse en Rapportage > Verkoopbudgetten > Overzicht verkoopbudget > Totale kosten (budget)\"}"
        }
      ]
    },
    {
      "name": "SalesBudgetAmount_RCY",
      "dataType": "decimal",
      "description": "Budgeted sales amount. NAV: Sales > Analysis & Reporting > Sales Budgets > Edit Budget > Budgeted Sales Amount",
      "isHidden": true,
      "sourceColumn": "SalesBudgetAmount_RCY",
      "sourceProviderType": "decimal",
      "annotations": [
        {
          "name": "TabularEditor_TranslatedNames",
          "value": "{\"de-DE\":\"Budgetierter Verkaufsbetrag\",\"en-US\":\"Budgeted Sales Amount\",\"nl-NL\":\"Budget omzet\"}"
        },
        {
          "name": "TabularEditor_TranslatedDescriptions",
          "value": "{\"de-DE\":\"Abteilungen/Verkauf & Marketing/Berichte und Analysen/Verkaufsbudgets/Budget Bearbeiten\",\"en-US\":\"Budgeted sales amount. NAV: Sales > Analysis & Reporting > Sales Budgets > Edit Budget > Budgeted Sales Amount\",\"nl-NL\":\"Totale omzet opgenomen in het budget. NAV: Verkoop > Analyse en Rapportage > Verkoopbudgetten > Overzicht verkoopbudget > Totale omzet (budget)\"}"
        }
      ]
    },
    {
      "name": "FinancialDimension1ID",
      "dataType": "int64",
      "isHidden": true,
      "sourceColumn": "FinancialDimension1ID",
      "annotations": [
        {
          "name": "TabularEditor_TranslatedNames",
          "value": "{\"de-DE\":\"FinancialDimension1ID\"}"
        },
        {
          "name": "TabularEditor_TranslatedDescriptions",
          "value": "{\"de-DE\":\"Kennung für FinancialDimension1\"}"
        }
      ]
    },
    {
      "name": "FinancialDimension2ID",
      "dataType": "int64",
      "isHidden": true,
      "sourceColumn": "FinancialDimension2ID",
      "annotations": [
        {
          "name": "TabularEditor_TranslatedNames",
          "value": "{\"de-DE\":\"FinancialDimension2ID\"}"
        },
        {
          "name": "TabularEditor_TranslatedDescriptions",
          "value": "{\"de-DE\":\"Kennung für FinancialDimension2\"}"
        }
      ]
    },
    {
      "name": "FinancialDimension3ID",
      "dataType": "int64",
      "isHidden": true,
      "sourceColumn": "FinancialDimension3ID",
      "annotations": [
        {
          "name": "TabularEditor_TranslatedNames",
          "value": "{\"de-DE\":\"FinancialDimension3ID\"}"
        },
        {
          "name": "TabularEditor_TranslatedDescriptions",
          "value": "{\"de-DE\":\"Kennung für FinancialDimension3\"}"
        }
      ]
    },
    {
      "name": "FinancialDimension4ID",
      "dataType": "int64",
      "isHidden": true,
      "sourceColumn": "FinancialDimension4ID",
      "annotations": [
        {
          "name": "TabularEditor_TranslatedNames",
          "value": "{\"de-DE\":\"FinancialDimension4ID\"}"
        },
        {
          "name": "TabularEditor_TranslatedDescriptions",
          "value": "{\"de-DE\":\"Kennung für FinancialDimension4\"}"
        }
      ]
    },
    {
      "name": "FinancialDimension5ID",
      "dataType": "int64",
      "isHidden": true,
      "sourceColumn": "FinancialDimension5ID",
      "annotations": [
        {
          "name": "TabularEditor_TranslatedNames",
          "value": "{\"de-DE\":\"FinancialDimension5ID\"}"
        },
        {
          "name": "TabularEditor_TranslatedDescriptions",
          "value": "{\"de-DE\":\"Kennung für FinancialDimension5\"}"
        }
      ]
    },
    {
      "name": "FinancialDimension6ID",
      "dataType": "int64",
      "isHidden": true,
      "sourceColumn": "FinancialDimension6ID",
      "annotations": [
        {
          "name": "TabularEditor_TranslatedNames",
          "value": "{\"de-DE\":\"FinancialDimension6ID\"}"
        },
        {
          "name": "TabularEditor_TranslatedDescriptions",
          "value": "{\"de-DE\":\"Kennung für FinancialDimension6\"}"
        }
      ]
    },
    {
      "name": "FinancialDimension7ID",
      "dataType": "int64",
      "isHidden": true,
      "sourceColumn": "FinancialDimension7ID",
      "annotations": [
        {
          "name": "TabularEditor_TranslatedNames",
          "value": "{\"de-DE\":\"FinancialDimension7ID\"}"
        },
        {
          "name": "TabularEditor_TranslatedDescriptions",
          "value": "{\"de-DE\":\"Kennung für FinancialDimension7\"}"
        }
      ]
    },
    {
      "name": "FinancialDimension8ID",
      "dataType": "int64",
      "isHidden": true,
      "sourceColumn": "FinancialDimension8ID",
      "annotations": [
        {
          "name": "TabularEditor_TranslatedNames",
          "value": "{\"de-DE\":\"FinancialDimension8ID\"}"
        },
        {
          "name": "TabularEditor_TranslatedDescriptions",
          "value": "{\"de-DE\":\"Kennung für FinancialDimension8\"}"
        }
      ]
    },
    {
      "name": "DateID",
      "dataType": "int64",
      "isHidden": true,
      "sourceColumn": "DateID"
    }
  ],
  "partitions": [
    {
      "name": "SalesBudget",
      "source": {
        "type": "query",
        "query": "SELECT * FROM tabular.factSalesBudget",
        "dataSource": "Birds"
      },
      "annotations": [
        {
          "name": "TabularEditor_TableSchema",
          "value": "{\"Name\":\"SalesBudget\",\"Schema\":\"fact\",\"Database\":\"Birds\",\"IncludedColumns\":[\"StageID\",\"CompanyID\",\"DataConnectionID\",\"ComponentExecutionID\",\"ExecutionFlag\",\"ItemID\",\"LocationID\",\"SalesBudgetID\",\"SalesBudgetDateID\",\"SalesBudgetCostAmount_LCY\",\"SalesBudgetAmount_LCY\",\"SalesBudgetQuantity\",\"SalesBudgetCostAmount\",\"SalesBudgetAmount\"],\"SelectAll\":true}"
        }
      ]
    }
  ],
  "annotations": [
    {
      "name": "Postfix",
      "value": "SB"
    },
    {
      "name": "TabularEditor_TranslatedNames",
      "value": "{\"de-DE\":\"Σ Verkaufsbudget\",\"en-US\":\"Σ Sales Budget\",\"nl-NL\":\"Σ Verkoopbudget\"}"
    },
    {
      "name": "TabularEditor_Relationships",
      "value": [
        "[",
        "  {",
        "    \"fromTable\": \"factSalesBudget\",",
        "    \"fromColumn\": \"CompanyID\",",
        "    \"toTable\": \"Company\",",
        "    \"toColumn\": \"CompanyID\"",
        "  },",
        "  {",
        "    \"fromTable\": \"factSalesBudget\",",
        "    \"fromColumn\": \"DateID\",",
        "    \"toTable\": \"Date\",",
        "    \"toColumn\": \"DateID\",",
        "    \"isActive\": false",
        "  },",
        "  {",
        "    \"fromTable\": \"factSalesBudget\",",
        "    \"fromColumn\": \"FinancialDimension1ID\",",
        "    \"toTable\": \"FinancialDimension1\",",
        "    \"toColumn\": \"FinancialDimension1ID\"",
        "  },",
        "  {",
        "    \"fromTable\": \"factSalesBudget\",",
        "    \"fromColumn\": \"FinancialDimension2ID\",",
        "    \"toTable\": \"FinancialDimension2\",",
        "    \"toColumn\": \"FinancialDimension2ID\"",
        "  },",
        "  {",
        "    \"fromTable\": \"factSalesBudget\",",
        "    \"fromColumn\": \"FinancialDimension3ID\",",
        "    \"toTable\": \"FinancialDimension3\",",
        "    \"toColumn\": \"FinancialDimension3ID\"",
        "  },",
        "  {",
        "    \"fromTable\": \"factSalesBudget\",",
        "    \"fromColumn\": \"FinancialDimension4ID\",",
        "    \"toTable\": \"FinancialDimension4\",",
        "    \"toColumn\": \"FinancialDimension4ID\"",
        "  },",
        "  {",
        "    \"fromTable\": \"factSalesBudget\",",
        "    \"fromColumn\": \"FinancialDimension5ID\",",
        "    \"toTable\": \"FinancialDimension5\",",
        "    \"toColumn\": \"FinancialDimension5ID\"",
        "  },",
        "  {",
        "    \"fromTable\": \"factSalesBudget\",",
        "    \"fromColumn\": \"FinancialDimension6ID\",",
        "    \"toTable\": \"FinancialDimension6\",",
        "    \"toColumn\": \"FinancialDimension6ID\"",
        "  },",
        "  {",
        "    \"fromTable\": \"factSalesBudget\",",
        "    \"fromColumn\": \"FinancialDimension7ID\",",
        "    \"toTable\": \"FinancialDimension7\",",
        "    \"toColumn\": \"FinancialDimension7ID\"",
        "  },",
        "  {",
        "    \"fromTable\": \"factSalesBudget\",",
        "    \"fromColumn\": \"FinancialDimension8ID\",",
        "    \"toTable\": \"FinancialDimension8\",",
        "    \"toColumn\": \"FinancialDimension8ID\"",
        "  },",
        "  {",
        "    \"fromTable\": \"factSalesBudget\",",
        "    \"fromColumn\": \"ItemID\",",
        "    \"toTable\": \"Item\",",
        "    \"toColumn\": \"ItemID\"",
        "  },",
        "  {",
        "    \"fromTable\": \"factSalesBudget\",",
        "    \"fromColumn\": \"LocationID\",",
        "    \"toTable\": \"Location\",",
        "    \"toColumn\": \"LocationID\"",
        "  },",
        "  {",
        "    \"fromTable\": \"factSalesBudget\",",
        "    \"fromColumn\": \"SalesBudgetDateID\",",
        "    \"toTable\": \"BudgetDate\",",
        "    \"toColumn\": \"DateID\"",
        "  },",
        "  {",
        "    \"fromTable\": \"factSalesBudget\",",
        "    \"fromColumn\": \"SalesBudgetDateID\",",
        "    \"toTable\": \"Date\",",
        "    \"toColumn\": \"DateID\"",
        "  },",
        "  {",
        "    \"fromTable\": \"factSalesBudget\",",
        "    \"fromColumn\": \"SalesBudgetID\",",
        "    \"toTable\": \"SalesBudget\",",
        "    \"toColumn\": \"SalesBudgetID\"",
        "  }",
        "]"
      ]
    }
  ]
}