{
  "name": "ResourceCapacity_RC",
  "description": "Departments/Resource Planning/Resources",
  "expression": "SUM ( 'factResourceCapacity'[ResourceCapacity] )",
  "formatString": "#,##0.00",
  "annotations": [
    {
      "name": "TabularEditor_TranslatedNames",
      "value": "{\"de-DE\":\"Ressource Kapazität\",\"en-US\":\"Resource Capacity\",\"nl-NL\":\"Resource capaciteit\"}"
    },
    {
      "name": "TabularEditor_TranslatedDescriptions",
      "value": "{\"de-DE\":\"Abteilungen/Ressourcenplanung/Ressourcenkapazität\",\"en-US\":\"Departments/Resource Planning/Resources\",\"nl-NL\":\"Afdelingen/Resource Planning/Resources\"}"
    }
  ]
}