{
  "name": "ResourceCapacity_SPLY_Variance%_RC",
  "expression": "DIVIDE ( [ResourceCapacity_RC] - [ResourceCapacity_SPLY_RC], [ResourceCapacity_SPLY_RC] )",
  "formatString": "#,##0.0 %",
  "displayFolder": "Σ SPLY Variance",
  "annotations": [
    {
      "name": "TabularEditor_TranslatedNames",
      "value": "{\"de-DE\":\"Ressource Kapazität SPLY Varianz %\",\"en-US\":\"Resource Capacity SPLY Variance %\",\"nl-NL\":\"Resource Capaciteit SPLY Variance %\"}"
    },
    {
      "name": "TabularEditor_TranslatedDescriptions",
      "value": "{\"de-DE\":\"Abteilungen/Ressourcenplanung/Ressourcenkapazität\"}"
    },
    {
      "name": "TabularEditor_TranslatedDisplayFolders",
      "value": "{\"de-DE\":\"Σ SPLY Varianz\",\"en-US\":\"Σ SPLY Variance\",\"nl-NL\":\"Σ SPLY Variance\"}"
    }
  ]
}