{
  "connection_types": [],
  "tables": [
    {
      "table_identifier": "dbo.Job",
      "columns": [
        {
          "column_name": "Allow Schedule_Contract Lines",
          "data_type": "tinyint",
          "character_maximum_length": 0,
          "numeric_precision": 3,
          "numeric_scale": 0,
          "nullable": false,
          "business_key": false
        },
        {
          "column_name": "Apply Usage Link",
          "data_type": "tinyint",
          "character_maximum_length": 0,
          "numeric_precision": 3,
          "numeric_scale": 0,
          "nullable": false,
          "business_key": false
        },
        {
          "column_name": "Bill-to Address",
          "data_type": "nvarchar",
          "character_maximum_length": 50,
          "numeric_precision": 0,
          "numeric_scale": 0,
          "nullable": false,
          "business_key": false
        },
        {
          "column_name": "Bill-to Address 2",
          "data_type": "nvarchar",
          "character_maximum_length": 50,
          "numeric_precision": 0,
          "numeric_scale": 0,
          "nullable": false,
          "business_key": false
        },
        {
          "column_name": "Bill-to City",
          "data_type": "nvarchar",
          "character_maximum_length": 30,
          "numeric_precision": 0,
          "numeric_scale": 0,
          "nullable": false,
          "business_key": false
        },
        {
          "column_name": "Bill-to Contact",
          "data_type": "nvarchar",
          "character_maximum_length": 50,
          "numeric_precision": 0,
          "numeric_scale": 0,
          "nullable": false,
          "business_key": false
        },
        {
          "column_name": "Bill-to Contact No_",
          "data_type": "nvarchar",
          "character_maximum_length": 20,
          "numeric_precision": 0,
          "numeric_scale": 0,
          "nullable": false,
          "business_key": false
        },
        {
          "column_name": "Bill-to Country_Region Code",
          "data_type": "nvarchar",
          "character_maximum_length": 10,
          "numeric_precision": 0,
          "numeric_scale": 0,
          "nullable": false,
          "business_key": false
        },
        {
          "column_name": "Bill-to County",
          "data_type": "nvarchar",
          "character_maximum_length": 30,
          "numeric_precision": 0,
          "numeric_scale": 0,
          "nullable": false,
          "business_key": false
        },
        {
          "column_name": "Bill-to Customer No_",
          "data_type": "nvarchar",
          "character_maximum_length": 20,
          "numeric_precision": 0,
          "numeric_scale": 0,
          "nullable": false,
          "business_key": false
        },
        {
          "column_name": "Bill-to Name",
          "data_type": "nvarchar",
          "character_maximum_length": 50,
          "numeric_precision": 0,
          "numeric_scale": 0,
          "nullable": false,
          "business_key": false
        },
        {
          "column_name": "Bill-to Name 2",
          "data_type": "nvarchar",
          "character_maximum_length": 50,
          "numeric_precision": 0,
          "numeric_scale": 0,
          "nullable": false,
          "business_key": false
        },
        {
          "column_name": "Bill-to Post Code",
          "data_type": "nvarchar",
          "character_maximum_length": 20,
          "numeric_precision": 0,
          "numeric_scale": 0,
          "nullable": false,
          "business_key": false
        },
        {
          "column_name": "Blocked",
          "data_type": "int",
          "character_maximum_length": 0,
          "numeric_precision": 10,
          "numeric_scale": 0,
          "nullable": false,
          "business_key": false
        },
        {
          "column_name": "Complete",
          "data_type": "tinyint",
          "character_maximum_length": 0,
          "numeric_precision": 3,
          "numeric_scale": 0,
          "nullable": false,
          "business_key": false
        },
        {
          "column_name": "Creation Date",
          "data_type": "datetime",
          "character_maximum_length": 0,
          "numeric_precision": 0,
          "numeric_scale": 0,
          "nullable": false,
          "business_key": false
        },
        {
          "column_name": "Currency Code",
          "data_type": "nvarchar",
          "character_maximum_length": 10,
          "numeric_precision": 0,
          "numeric_scale": 0,
          "nullable": false,
          "business_key": false
        },
        {
          "column_name": "Customer Disc_ Group",
          "data_type": "nvarchar",
          "character_maximum_length": 20,
          "numeric_precision": 0,
          "numeric_scale": 0,
          "nullable": false,
          "business_key": false
        },
        {
          "column_name": "Customer Price Group",
          "data_type": "nvarchar",
          "character_maximum_length": 10,
          "numeric_precision": 0,
          "numeric_scale": 0,
          "nullable": false,
          "business_key": false
        },
        {
          "column_name": "Description",
          "data_type": "nvarchar",
          "character_maximum_length": 50,
          "numeric_precision": 0,
          "numeric_scale": 0,
          "nullable": false,
          "business_key": false
        },
        {
          "column_name": "Description 2",
          "data_type": "nvarchar",
          "character_maximum_length": 50,
          "numeric_precision": 0,
          "numeric_scale": 0,
          "nullable": false,
          "business_key": false
        },
        {
          "column_name": "Ending Date",
          "data_type": "datetime",
          "character_maximum_length": 0,
          "numeric_precision": 0,
          "numeric_scale": 0,
          "nullable": false,
          "business_key": false
        },
        {
          "column_name": "Exch_ Calculation (Cost)",
          "data_type": "int",
          "character_maximum_length": 0,
          "numeric_precision": 10,
          "numeric_scale": 0,
          "nullable": false,
          "business_key": false
        },
        {
          "column_name": "Exch_ Calculation (Price)",
          "data_type": "int",
          "character_maximum_length": 0,
          "numeric_precision": 10,
          "numeric_scale": 0,
          "nullable": false,
          "business_key": false
        },
        {
          "column_name": "Global Dimension 1 Code",
          "data_type": "nvarchar",
          "character_maximum_length": 20,
          "numeric_precision": 0,
          "numeric_scale": 0,
          "nullable": false,
          "business_key": false
        },
        {
          "column_name": "Global Dimension 2 Code",
          "data_type": "nvarchar",
          "character_maximum_length": 20,
          "numeric_precision": 0,
          "numeric_scale": 0,
          "nullable": false,
          "business_key": false
        },
        {
          "column_name": "Invoice Currency Code",
          "data_type": "nvarchar",
          "character_maximum_length": 10,
          "numeric_precision": 0,
          "numeric_scale": 0,
          "nullable": false,
          "business_key": false
        },
        {
          "column_name": "Job Posting Group",
          "data_type": "nvarchar",
          "character_maximum_length": 10,
          "numeric_precision": 0,
          "numeric_scale": 0,
          "nullable": false,
          "business_key": false
        },
        {
          "column_name": "Language Code",
          "data_type": "nvarchar",
          "character_maximum_length": 10,
          "numeric_precision": 0,
          "numeric_scale": 0,
          "nullable": false,
          "business_key": false
        },
        {
          "column_name": "Last Date Modified",
          "data_type": "datetime",
          "character_maximum_length": 0,
          "numeric_precision": 0,
          "numeric_scale": 0,
          "nullable": false,
          "business_key": false
        },
        {
          "column_name": "No_",
          "data_type": "nvarchar",
          "character_maximum_length": 20,
          "numeric_precision": 0,
          "numeric_scale": 0,
          "nullable": false,
          "business_key": true
        },
        {
          "column_name": "No_ Series",
          "data_type": "nvarchar",
          "character_maximum_length": 10,
          "numeric_precision": 0,
          "numeric_scale": 0,
          "nullable": false,
          "business_key": false
        },
        {
          "column_name": "Person Responsible",
          "data_type": "nvarchar",
          "character_maximum_length": 20,
          "numeric_precision": 0,
          "numeric_scale": 0,
          "nullable": false,
          "business_key": false
        },
        {
          "column_name": "Picture",
          "data_type": "image",
          "character_maximum_length": 2147483647,
          "numeric_precision": 0,
          "numeric_scale": 0,
          "nullable": true,
          "business_key": false
        },
        {
          "column_name": "Reserve",
          "data_type": "int",
          "character_maximum_length": 0,
          "numeric_precision": 10,
          "numeric_scale": 0,
          "nullable": false,
          "business_key": false
        },
        {
          "column_name": "Search Description",
          "data_type": "nvarchar",
          "character_maximum_length": 50,
          "numeric_precision": 0,
          "numeric_scale": 0,
          "nullable": false,
          "business_key": false
        },
        {
          "column_name": "Starting Date",
          "data_type": "datetime",
          "character_maximum_length": 0,
          "numeric_precision": 0,
          "numeric_scale": 0,
          "nullable": false,
          "business_key": false
        },
        {
          "column_name": "Status",
          "data_type": "int",
          "character_maximum_length": 0,
          "numeric_precision": 10,
          "numeric_scale": 0,
          "nullable": false,
          "business_key": false
        },
        {
          "column_name": "timestamp",
          "data_type": "timestamp",
          "character_maximum_length": 0,
          "numeric_precision": 0,
          "numeric_scale": 0,
          "nullable": false,
          "business_key": false
        },
        {
          "column_name": "WIP Method",
          "data_type": "nvarchar",
          "character_maximum_length": 20,
          "numeric_precision": 0,
          "numeric_scale": 0,
          "nullable": false,
          "business_key": false
        },
        {
          "column_name": "WIP Posting Date",
          "data_type": "datetime",
          "character_maximum_length": 0,
          "numeric_precision": 0,
          "numeric_scale": 0,
          "nullable": false,
          "business_key": false
        },
        {
          "column_name": "WIP Posting Method",
          "data_type": "int",
          "character_maximum_length": 0,
          "numeric_precision": 10,
          "numeric_scale": 0,
          "nullable": false,
          "business_key": false
        }
      ],
      "indexes": []
    },
    {
      "table_identifier": "dbo.Job Planning Line",
      "columns": [
        {
          "column_name": "Bin Code",
          "data_type": "nvarchar",
          "character_maximum_length": 20,
          "numeric_precision": 0,
          "numeric_scale": 0,
          "nullable": false,
          "business_key": false
        },
        {
          "column_name": "Contract Line",
          "data_type": "tinyint",
          "character_maximum_length": 0,
          "numeric_precision": 3,
          "numeric_scale": 0,
          "nullable": false,
          "business_key": false
        },
        {
          "column_name": "Cost Factor",
          "data_type": "decimal",
          "character_maximum_length": 0,
          "numeric_precision": 38,
          "numeric_scale": 20,
          "nullable": false,
          "business_key": false
        },
        {
          "column_name": "Country_Region Code",
          "data_type": "nvarchar",
          "character_maximum_length": 10,
          "numeric_precision": 0,
          "numeric_scale": 0,
          "nullable": false,
          "business_key": false
        },
        {
          "column_name": "Currency Code",
          "data_type": "nvarchar",
          "character_maximum_length": 10,
          "numeric_precision": 0,
          "numeric_scale": 0,
          "nullable": false,
          "business_key": false
        },
        {
          "column_name": "Currency Date",
          "data_type": "datetime",
          "character_maximum_length": 0,
          "numeric_precision": 0,
          "numeric_scale": 0,
          "nullable": false,
          "business_key": false
        },
        {
          "column_name": "Currency Factor",
          "data_type": "decimal",
          "character_maximum_length": 0,
          "numeric_precision": 38,
          "numeric_scale": 20,
          "nullable": false,
          "business_key": false
        },
        {
          "column_name": "Customer Price Group",
          "data_type": "nvarchar",
          "character_maximum_length": 10,
          "numeric_precision": 0,
          "numeric_scale": 0,
          "nullable": false,
          "business_key": false
        },
        {
          "column_name": "Description",
          "data_type": "nvarchar",
          "character_maximum_length": 50,
          "numeric_precision": 0,
          "numeric_scale": 0,
          "nullable": false,
          "business_key": false
        },
        {
          "column_name": "Description 2",
          "data_type": "nvarchar",
          "character_maximum_length": 50,
          "numeric_precision": 0,
          "numeric_scale": 0,
          "nullable": false,
          "business_key": false
        },
        {
          "column_name": "Direct Unit Cost (LCY)",
          "data_type": "decimal",
          "character_maximum_length": 0,
          "numeric_precision": 38,
          "numeric_scale": 20,
          "nullable": false,
          "business_key": false
        },
        {
          "column_name": "Document Date",
          "data_type": "datetime",
          "character_maximum_length": 0,
          "numeric_precision": 0,
          "numeric_scale": 0,
          "nullable": false,
          "business_key": false
        },
        {
          "column_name": "Document No_",
          "data_type": "nvarchar",
          "character_maximum_length": 20,
          "numeric_precision": 0,
          "numeric_scale": 0,
          "nullable": false,
          "business_key": false
        },
        {
          "column_name": "Gen_ Bus_ Posting Group",
          "data_type": "nvarchar",
          "character_maximum_length": 10,
          "numeric_precision": 0,
          "numeric_scale": 0,
          "nullable": false,
          "business_key": false
        },
        {
          "column_name": "Gen_ Prod_ Posting Group",
          "data_type": "nvarchar",
          "character_maximum_length": 10,
          "numeric_precision": 0,
          "numeric_scale": 0,
          "nullable": false,
          "business_key": false
        },
        {
          "column_name": "Job Contract Entry No_",
          "data_type": "int",
          "character_maximum_length": 0,
          "numeric_precision": 10,
          "numeric_scale": 0,
          "nullable": false,
          "business_key": false
        },
        {
          "column_name": "Job Ledger Entry No_",
          "data_type": "int",
          "character_maximum_length": 0,
          "numeric_precision": 10,
          "numeric_scale": 0,
          "nullable": false,
          "business_key": false
        },
        {
          "column_name": "Job No_",
          "data_type": "nvarchar",
          "character_maximum_length": 20,
          "numeric_precision": 0,
          "numeric_scale": 0,
          "nullable": false,
          "business_key": true
        },
        {
          "column_name": "Job Task No_",
          "data_type": "nvarchar",
          "character_maximum_length": 20,
          "numeric_precision": 0,
          "numeric_scale": 0,
          "nullable": false,
          "business_key": true
        },
        {
          "column_name": "Last Date Modified",
          "data_type": "datetime",
          "character_maximum_length": 0,
          "numeric_precision": 0,
          "numeric_scale": 0,
          "nullable": false,
          "business_key": false
        },
        {
          "column_name": "Ledger Entry No_",
          "data_type": "int",
          "character_maximum_length": 0,
          "numeric_precision": 10,
          "numeric_scale": 0,
          "nullable": false,
          "business_key": false
        },
        {
          "column_name": "Ledger Entry Type",
          "data_type": "int",
          "character_maximum_length": 0,
          "numeric_precision": 10,
          "numeric_scale": 0,
          "nullable": false,
          "business_key": false
        },
        {
          "column_name": "Line Amount",
          "data_type": "decimal",
          "character_maximum_length": 0,
          "numeric_precision": 38,
          "numeric_scale": 20,
          "nullable": false,
          "business_key": false
        },
        {
          "column_name": "Line Amount (LCY)",
          "data_type": "decimal",
          "character_maximum_length": 0,
          "numeric_precision": 38,
          "numeric_scale": 20,
          "nullable": false,
          "business_key": false
        },
        {
          "column_name": "Line Discount _",
          "data_type": "decimal",
          "character_maximum_length": 0,
          "numeric_precision": 38,
          "numeric_scale": 20,
          "nullable": false,
          "business_key": false
        },
        {
          "column_name": "Line Discount Amount",
          "data_type": "decimal",
          "character_maximum_length": 0,
          "numeric_precision": 38,
          "numeric_scale": 20,
          "nullable": false,
          "business_key": false
        },
        {
          "column_name": "Line Discount Amount (LCY)",
          "data_type": "decimal",
          "character_maximum_length": 0,
          "numeric_precision": 38,
          "numeric_scale": 20,
          "nullable": false,
          "business_key": false
        },
        {
          "column_name": "Line No_",
          "data_type": "int",
          "character_maximum_length": 0,
          "numeric_precision": 10,
          "numeric_scale": 0,
          "nullable": false,
          "business_key": true
        },
        {
          "column_name": "Line Type",
          "data_type": "int",
          "character_maximum_length": 0,
          "numeric_precision": 10,
          "numeric_scale": 0,
          "nullable": false,
          "business_key": false
        },
        {
          "column_name": "Location Code",
          "data_type": "nvarchar",
          "character_maximum_length": 10,
          "numeric_precision": 0,
          "numeric_scale": 0,
          "nullable": false,
          "business_key": false
        },
        {
          "column_name": "Lot No_",
          "data_type": "nvarchar",
          "character_maximum_length": 20,
          "numeric_precision": 0,
          "numeric_scale": 0,
          "nullable": false,
          "business_key": false
        },
        {
          "column_name": "No_",
          "data_type": "nvarchar",
          "character_maximum_length": 20,
          "numeric_precision": 0,
          "numeric_scale": 0,
          "nullable": false,
          "business_key": false
        },
        {
          "column_name": "Planned",
          "data_type": "tinyint",
          "character_maximum_length": 0,
          "numeric_precision": 3,
          "numeric_scale": 0,
          "nullable": false,
          "business_key": false
        },
        {
          "column_name": "Planned Delivery Date",
          "data_type": "datetime",
          "character_maximum_length": 0,
          "numeric_precision": 0,
          "numeric_scale": 0,
          "nullable": false,
          "business_key": false
        },
        {
          "column_name": "Planning Date",
          "data_type": "datetime",
          "character_maximum_length": 0,
          "numeric_precision": 0,
          "numeric_scale": 0,
          "nullable": false,
          "business_key": false
        },
        {
          "column_name": "Posted Line Amount",
          "data_type": "decimal",
          "character_maximum_length": 0,
          "numeric_precision": 38,
          "numeric_scale": 20,
          "nullable": false,
          "business_key": false
        },
        {
          "column_name": "Posted Line Amount (LCY)",
          "data_type": "decimal",
          "character_maximum_length": 0,
          "numeric_precision": 38,
          "numeric_scale": 20,
          "nullable": false,
          "business_key": false
        },
        {
          "column_name": "Posted Total Cost",
          "data_type": "decimal",
          "character_maximum_length": 0,
          "numeric_precision": 38,
          "numeric_scale": 20,
          "nullable": false,
          "business_key": false
        },
        {
          "column_name": "Posted Total Cost (LCY)",
          "data_type": "decimal",
          "character_maximum_length": 0,
          "numeric_precision": 38,
          "numeric_scale": 20,
          "nullable": false,
          "business_key": false
        },
        {
          "column_name": "Promised Delivery Date",
          "data_type": "datetime",
          "character_maximum_length": 0,
          "numeric_precision": 0,
          "numeric_scale": 0,
          "nullable": false,
          "business_key": false
        },
        {
          "column_name": "Qty_ per Unit of Measure",
          "data_type": "decimal",
          "character_maximum_length": 0,
          "numeric_precision": 38,
          "numeric_scale": 20,
          "nullable": false,
          "business_key": false
        },
        {
          "column_name": "Qty_ Posted",
          "data_type": "decimal",
          "character_maximum_length": 0,
          "numeric_precision": 38,
          "numeric_scale": 20,
          "nullable": false,
          "business_key": false
        },
        {
          "column_name": "Qty_ to Invoice",
          "data_type": "decimal",
          "character_maximum_length": 0,
          "numeric_precision": 38,
          "numeric_scale": 20,
          "nullable": false,
          "business_key": false
        },
        {
          "column_name": "Qty_ to Transfer to Invoice",
          "data_type": "decimal",
          "character_maximum_length": 0,
          "numeric_precision": 38,
          "numeric_scale": 20,
          "nullable": false,
          "business_key": false
        },
        {
          "column_name": "Qty_ to Transfer to Journal",
          "data_type": "decimal",
          "character_maximum_length": 0,
          "numeric_precision": 38,
          "numeric_scale": 20,
          "nullable": false,
          "business_key": false
        },
        {
          "column_name": "Quantity",
          "data_type": "decimal",
          "character_maximum_length": 0,
          "numeric_precision": 38,
          "numeric_scale": 20,
          "nullable": false,
          "business_key": false
        },
        {
          "column_name": "Quantity (Base)",
          "data_type": "decimal",
          "character_maximum_length": 0,
          "numeric_precision": 38,
          "numeric_scale": 20,
          "nullable": false,
          "business_key": false
        },
        {
          "column_name": "Remaining Line Amount",
          "data_type": "decimal",
          "character_maximum_length": 0,
          "numeric_precision": 38,
          "numeric_scale": 20,
          "nullable": false,
          "business_key": false
        },
        {
          "column_name": "Remaining Line Amount (LCY)",
          "data_type": "decimal",
          "character_maximum_length": 0,
          "numeric_precision": 38,
          "numeric_scale": 20,
          "nullable": false,
          "business_key": false
        },
        {
          "column_name": "Remaining Qty_",
          "data_type": "decimal",
          "character_maximum_length": 0,
          "numeric_precision": 38,
          "numeric_scale": 20,
          "nullable": false,
          "business_key": false
        },
        {
          "column_name": "Remaining Qty_ (Base)",
          "data_type": "decimal",
          "character_maximum_length": 0,
          "numeric_precision": 38,
          "numeric_scale": 20,
          "nullable": false,
          "business_key": false
        },
        {
          "column_name": "Remaining Total Cost",
          "data_type": "decimal",
          "character_maximum_length": 0,
          "numeric_precision": 38,
          "numeric_scale": 20,
          "nullable": false,
          "business_key": false
        },
        {
          "column_name": "Remaining Total Cost (LCY)",
          "data_type": "decimal",
          "character_maximum_length": 0,
          "numeric_precision": 38,
          "numeric_scale": 20,
          "nullable": false,
          "business_key": false
        },
        {
          "column_name": "Requested Delivery Date",
          "data_type": "datetime",
          "character_maximum_length": 0,
          "numeric_precision": 0,
          "numeric_scale": 0,
          "nullable": false,
          "business_key": false
        },
        {
          "column_name": "Reserve",
          "data_type": "int",
          "character_maximum_length": 0,
          "numeric_precision": 10,
          "numeric_scale": 0,
          "nullable": false,
          "business_key": false
        },
        {
          "column_name": "Resource Group No_",
          "data_type": "nvarchar",
          "character_maximum_length": 20,
          "numeric_precision": 0,
          "numeric_scale": 0,
          "nullable": false,
          "business_key": false
        },
        {
          "column_name": "Schedule Line",
          "data_type": "tinyint",
          "character_maximum_length": 0,
          "numeric_precision": 3,
          "numeric_scale": 0,
          "nullable": false,
          "business_key": false
        },
        {
          "column_name": "Serial No_",
          "data_type": "nvarchar",
          "character_maximum_length": 20,
          "numeric_precision": 0,
          "numeric_scale": 0,
          "nullable": false,
          "business_key": false
        },
        {
          "column_name": "Service Order No_",
          "data_type": "nvarchar",
          "character_maximum_length": 20,
          "numeric_precision": 0,
          "numeric_scale": 0,
          "nullable": false,
          "business_key": false
        },
        {
          "column_name": "Status",
          "data_type": "int",
          "character_maximum_length": 0,
          "numeric_precision": 10,
          "numeric_scale": 0,
          "nullable": false,
          "business_key": false
        },
        {
          "column_name": "System-Created Entry",
          "data_type": "tinyint",
          "character_maximum_length": 0,
          "numeric_precision": 3,
          "numeric_scale": 0,
          "nullable": false,
          "business_key": false
        },
        {
          "column_name": "timestamp",
          "data_type": "timestamp",
          "character_maximum_length": 0,
          "numeric_precision": 0,
          "numeric_scale": 0,
          "nullable": false,
          "business_key": false
        },
        {
          "column_name": "Total Cost",
          "data_type": "decimal",
          "character_maximum_length": 0,
          "numeric_precision": 38,
          "numeric_scale": 20,
          "nullable": false,
          "business_key": false
        },
        {
          "column_name": "Total Cost (LCY)",
          "data_type": "decimal",
          "character_maximum_length": 0,
          "numeric_precision": 38,
          "numeric_scale": 20,
          "nullable": false,
          "business_key": false
        },
        {
          "column_name": "Total Price",
          "data_type": "decimal",
          "character_maximum_length": 0,
          "numeric_precision": 38,
          "numeric_scale": 20,
          "nullable": false,
          "business_key": false
        },
        {
          "column_name": "Total Price (LCY)",
          "data_type": "decimal",
          "character_maximum_length": 0,
          "numeric_precision": 38,
          "numeric_scale": 20,
          "nullable": false,
          "business_key": false
        },
        {
          "column_name": "Type",
          "data_type": "int",
          "character_maximum_length": 0,
          "numeric_precision": 10,
          "numeric_scale": 0,
          "nullable": false,
          "business_key": false
        },
        {
          "column_name": "Unit Cost",
          "data_type": "decimal",
          "character_maximum_length": 0,
          "numeric_precision": 38,
          "numeric_scale": 20,
          "nullable": false,
          "business_key": false
        },
        {
          "column_name": "Unit Cost (LCY)",
          "data_type": "decimal",
          "character_maximum_length": 0,
          "numeric_precision": 38,
          "numeric_scale": 20,
          "nullable": false,
          "business_key": false
        },
        {
          "column_name": "Unit of Measure Code",
          "data_type": "nvarchar",
          "character_maximum_length": 10,
          "numeric_precision": 0,
          "numeric_scale": 0,
          "nullable": false,
          "business_key": false
        },
        {
          "column_name": "Unit Price",
          "data_type": "decimal",
          "character_maximum_length": 0,
          "numeric_precision": 38,
          "numeric_scale": 20,
          "nullable": false,
          "business_key": false
        },
        {
          "column_name": "Unit Price (LCY)",
          "data_type": "decimal",
          "character_maximum_length": 0,
          "numeric_precision": 38,
          "numeric_scale": 20,
          "nullable": false,
          "business_key": false
        },
        {
          "column_name": "Usage Link",
          "data_type": "tinyint",
          "character_maximum_length": 0,
          "numeric_precision": 3,
          "numeric_scale": 0,
          "nullable": false,
          "business_key": false
        },
        {
          "column_name": "User ID",
          "data_type": "nvarchar",
          "character_maximum_length": 50,
          "numeric_precision": 0,
          "numeric_scale": 0,
          "nullable": false,
          "business_key": false
        },
        {
          "column_name": "Variant Code",
          "data_type": "nvarchar",
          "character_maximum_length": 10,
          "numeric_precision": 0,
          "numeric_scale": 0,
          "nullable": false,
          "business_key": false
        },
        {
          "column_name": "VAT _",
          "data_type": "decimal",
          "character_maximum_length": 0,
          "numeric_precision": 38,
          "numeric_scale": 20,
          "nullable": false,
          "business_key": false
        },
        {
          "column_name": "VAT Line Amount",
          "data_type": "decimal",
          "character_maximum_length": 0,
          "numeric_precision": 38,
          "numeric_scale": 20,
          "nullable": false,
          "business_key": false
        },
        {
          "column_name": "VAT Line Discount Amount",
          "data_type": "decimal",
          "character_maximum_length": 0,
          "numeric_precision": 38,
          "numeric_scale": 20,
          "nullable": false,
          "business_key": false
        },
        {
          "column_name": "VAT Unit Price",
          "data_type": "decimal",
          "character_maximum_length": 0,
          "numeric_precision": 38,
          "numeric_scale": 20,
          "nullable": false,
          "business_key": false
        },
        {
          "column_name": "Work Type Code",
          "data_type": "nvarchar",
          "character_maximum_length": 10,
          "numeric_precision": 0,
          "numeric_scale": 0,
          "nullable": false,
          "business_key": false
        }
      ],
      "indexes": []
    }
  ]
}