{
  "name": "GLProfitExpected_YTD_Index_JB",
  "expression": "DIVIDE ( [GLProfitExpected_YTD_JB], [GLProfitExpected_LYTD_JB] ) * 100",
  "formatString": "#,##0.0",
  "displayFolder": "Σ YTD Variance",
  "annotations": [
    {
      "name": "TabularEditor_TranslatedNames",
      "value": "{\"de-DE\":\"Sachkonto Ertrag (Erwartet) YTD Index\",\"en-US\":\"GL Profit Expected YTD Index\",\"nl-NL\":\"Grootboek verwachte winst YTD Index\"}"
    },
    {
      "name": "TabularEditor_TranslatedDescriptions",
      "value": "{\"de-DE\":\"Verkauf Sachkonto (Netto) (Erwartet) - Kosten Sachkonto\"}"
    },
    {
      "name": "TabularEditor_TranslatedDisplayFolders",
      "value": "{\"de-DE\":\"Σ YTD Varianz\",\"en-US\":\"Σ YTD Variance\",\"nl-NL\":\"Σ YTD Variance\"}"
    }
  ]
}