{
  "name": "GLProfitExpected_SPLY_Variance%_JB",
  "expression": "DIVIDE ( [GLProfitExpected_JB] - [GLProfitExpected_SPLY_JB], [GLProfitExpected_SPLY_JB] )",
  "formatString": "#,##0.0 %",
  "displayFolder": "Σ SPLY Variance",
  "annotations": [
    {
      "name": "TabularEditor_TranslatedNames",
      "value": "{\"de-DE\":\"Sachkonto Ertrag (Erwartet) SPLY Varianz %\",\"en-US\":\"GL Profit Expected SPLY Variance %\",\"nl-NL\":\"Grootboek verwachte winst SPLY Variance %\"}"
    },
    {
      "name": "TabularEditor_TranslatedDescriptions",
      "value": "{\"de-DE\":\"Verkauf Sachkonto (Netto) (Erwartet) - Kosten Sachkonto\"}"
    },
    {
      "name": "TabularEditor_TranslatedDisplayFolders",
      "value": "{\"de-DE\":\"Σ SPLY Varianz\",\"en-US\":\"Σ SPLY Variance\",\"nl-NL\":\"Σ SPLY Variance\"}"
    }
  ]
}