{
  "name": "GLSalesExpected_YTD_Variance%_JB",
  "expression": "DIVIDE ( [GLSalesExpected_YTD_JB] - [GLSalesExpected_LYTD_JB], [GLSalesExpected_LYTD_JB] )",
  "formatString": "#,##0.0 %",
  "displayFolder": "Σ YTD Variance",
  "annotations": [
    {
      "name": "TabularEditor_TranslatedNames",
      "value": "{\"de-DE\":\"Verkauf Sachkonto (Erwartet) YTD Varianz %\",\"en-US\":\"GL Sales Expected YTD Variance %\",\"nl-NL\":\"Grootboek verwachte verkopen YTD Variance %\"}"
    },
    {
      "name": "TabularEditor_TranslatedDescriptions",
      "value": "{\"de-DE\":\"Abteilungen/Projekte/Historie/Projektjournale/Projektposten\"}"
    },
    {
      "name": "TabularEditor_TranslatedDisplayFolders",
      "value": "{\"de-DE\":\"Σ YTD Varianz\",\"en-US\":\"Σ YTD Variance\",\"nl-NL\":\"Σ YTD Variance\"}"
    }
  ]
}