{
  "name": "ItemSalesActual_JB",
  "description": " Departments/Projects/History/Job Registers > Job Ledger Entries > Item Sales Actual",
  "expression": "SUM ( 'factJob'[ItemSalesActual_RCY] )",
  "formatString": "#,##0.00",
  "annotations": [
    {
      "name": "TabularEditor_TranslatedNames",
      "value": "{\"de-DE\":\"Artikel verkauf\",\"en-US\":\"Item Sales Actual\",\"nl-NL\":\"Artikel actuele verkopen\"}"
    },
    {
      "name": "TabularEditor_TranslatedDescriptions",
      "value": "{\"de-DE\":\"Abteilungen/Projekte/Historie/Projektjournale/Projektposten\",\"en-US\":\"Departments/Projects/History/Job Registers > Job Ledger Entries > Item Sales Actual\",\"nl-NL\":\"Afdelingen/Projecten/Historie/Projectjournalen > Projectposten > Bedrag bij type item\"}"
    }
  ]
}