{
  "name": "ItemProfit%_YTD_Index_JB",
  "expression": "DIVIDE ( [ItemProfit%_YTD_JB], [ItemProfit%_LYTD_JB] ) * 100",
  "formatString": "#,##0.0",
  "displayFolder": "Σ YTD Variance",
  "annotations": [
    {
      "name": "TabularEditor_TranslatedNames",
      "value": "{\"de-DE\":\"Artikel Ertrag % YTD Index\",\"en-US\":\"Item Profit% YTD Index\",\"nl-NL\":\"Artikel winst % YTD Index\"}"
    },
    {
      "name": "TabularEditor_TranslatedDescriptions",
      "value": "{\"de-DE\":\"Artikel Ertrag (Erwartet) / Verkaufen (Erwartet)\"}"
    },
    {
      "name": "TabularEditor_TranslatedDisplayFolders",
      "value": "{\"de-DE\":\"Σ YTD Varianz\",\"en-US\":\"Σ YTD Variance\",\"nl-NL\":\"Σ YTD Variance\"}"
    }
  ]
}