{
  "name": "ItemNetSalesActual_SPLY_Variance_JB",
  "expression": "[ItemNetSalesActual_JB] - [ItemNetSalesActual_SPLY_JB]",
  "formatString": "#,##0.00",
  "displayFolder": "Σ SPLY Variance",
  "annotations": [
    {
      "name": "TabularEditor_TranslatedNames",
      "value": "{\"de-DE\":\"Artikel verkauf (Netto) SPLY Varianz\",\"en-US\":\"Item Net Sales Actual SPLY Variance\",\"nl-NL\":\"Artikel netto verkopen SPLY Variance\"}"
    },
    {
      "name": "TabularEditor_TranslatedDescriptions",
      "value": "{\"de-DE\":\"Artikel verkauf (Netto)- Rabatt\"}"
    },
    {
      "name": "TabularEditor_TranslatedDisplayFolders",
      "value": "{\"de-DE\":\"Σ SPLY Varianz\",\"en-US\":\"Σ SPLY Variance\",\"nl-NL\":\"Σ SPLY Variance\"}"
    }
  ]
}