{
  "name": "ItemProfit_SPLY_Variance_JB",
  "expression": "[ItemProfit_JB] - [ItemProfit_SPLY_JB]",
  "formatString": "#,##0.00",
  "displayFolder": "Σ SPLY Variance",
  "annotations": [
    {
      "name": "TabularEditor_TranslatedNames",
      "value": "{\"de-DE\":\"Artikel Ertrag SPLY Varianz\",\"en-US\":\"Item Profit SPLY Variance\",\"nl-NL\":\"Artikel winst SPLY Variance\"}"
    },
    {
      "name": "TabularEditor_TranslatedDescriptions",
      "value": "{\"de-DE\":\"Material Verkauf (Erwartet) - Kosten\"}"
    },
    {
      "name": "TabularEditor_TranslatedDisplayFolders",
      "value": "{\"de-DE\":\"Σ SPLY Varianz\",\"en-US\":\"Σ SPLY Variance\",\"nl-NL\":\"Σ SPLY Variance\"}"
    }
  ]
}