{
  "name": "ItemProfit_YTD_Variance%_JB",
  "expression": "DIVIDE ( [ItemProfit_YTD_JB] - [ItemProfit_LYTD_JB], [ItemProfit_LYTD_JB] )",
  "formatString": "#,##0.0 %",
  "displayFolder": "Σ YTD Variance",
  "annotations": [
    {
      "name": "TabularEditor_TranslatedNames",
      "value": "{\"de-DE\":\"Artikel Ertrag YTD Varianz %\",\"en-US\":\"Item Profit YTD Variance %\",\"nl-NL\":\"Artikel winst YTD Variance %\"}"
    },
    {
      "name": "TabularEditor_TranslatedDescriptions",
      "value": "{\"de-DE\":\"Material Verkauf (Erwartet) - Kosten\"}"
    },
    {
      "name": "TabularEditor_TranslatedDisplayFolders",
      "value": "{\"de-DE\":\"Σ YTD Varianz\",\"en-US\":\"Σ YTD Variance\",\"nl-NL\":\"Σ YTD Variance\"}"
    }
  ]
}