{
  "name": "ItemNetSalesActual_JB",
  "description": " Item Sales Actual - Item Discount",
  "expression": "[ItemSalesActual_JB] - [ItemDiscount_JB]",
  "formatString": "#,##0.00",
  "annotations": [
    {
      "name": "TabularEditor_TranslatedNames",
      "value": "{\"de-DE\":\"Artikel verkauf (Netto)\",\"en-US\":\"Item Net Sales Actual\",\"nl-NL\":\"Artikel netto verkopen\"}"
    },
    {
      "name": "TabularEditor_TranslatedDescriptions",
      "value": "{\"de-DE\":\"Artikel verkauf (Netto)- Rabatt\",\"en-US\":\"Item Sales Actual - Item Discount\",\"nl-NL\":\"Artikel verkopen - korting\"}"
    }
  ]
}