{
  "name": "ItemProfitExpected_SPLY_Index_JB",
  "expression": "DIVIDE ( [ItemProfitExpected_JB], [ItemProfitExpected_SPLY_JB] ) * 100",
  "formatString": "#,##0.0",
  "displayFolder": "Σ SPLY Variance",
  "annotations": [
    {
      "name": "TabularEditor_TranslatedNames",
      "value": "{\"de-DE\":\"Artikel Ertrag (Erwartet) SPLY Index\",\"en-US\":\"Item Profit Expected SPLY Index\",\"nl-NL\":\"Artikel verwachte winst SPLY Index\"}"
    },
    {
      "name": "TabularEditor_TranslatedDescriptions",
      "value": "{\"de-DE\":\"Material Verkauf (Erwartet) - Kosten\"}"
    },
    {
      "name": "TabularEditor_TranslatedDisplayFolders",
      "value": "{\"de-DE\":\"Σ SPLY Varianz\",\"en-US\":\"Σ SPLY Variance\",\"nl-NL\":\"Σ SPLY Variance\"}"
    }
  ]
}