{
  "name": "ResourceProfit_YTD_Variance_JB",
  "expression": "[ResourceProfit_YTD_JB] - [ResourceProfit_LYTD_JB]",
  "formatString": "#,##0.00",
  "displayFolder": "Σ YTD Variance",
  "annotations": [
    {
      "name": "TabularEditor_TranslatedNames",
      "value": "{\"de-DE\":\"Ressource Ertrag YTD Varianz\",\"en-US\":\"Resource Profit YTD Variance\",\"nl-NL\":\"Resource winst YTD Variance\"}"
    },
    {
      "name": "TabularEditor_TranslatedDescriptions",
      "value": "{\"de-DE\":\"Ressource verkauf (Netto) - Ressource Kosten\"}"
    },
    {
      "name": "TabularEditor_TranslatedDisplayFolders",
      "value": "{\"de-DE\":\"Σ YTD Varianz\",\"en-US\":\"Σ YTD Variance\",\"nl-NL\":\"Σ YTD Variance\"}"
    }
  ]
}