{
  "name": "ResourceSalesActual_LCY_JB",
  "expression": "SUM ( 'factJob'[ResourceSalesActual_LCY] )",
  "formatString": "#,##0.00",
  "displayFolder": "Σ Local Currency",
  "annotations": [
    {
      "name": "TabularEditor_TranslatedNames",
      "value": "{\"de-DE\":\"Ressourcenumsatz\",\"en-US\":\"ResourceSalesActual\",\"nl-NL\":\"ResourceSalesActual\"}"
    },
    {
      "name": "TabularEditor_TranslatedDescriptions",
      "value": "{\"de-DE\":\"Abteilungen/Projekte/Historie/Projektjournale/Projektposten\"}"
    },
    {
      "name": "TabularEditor_TranslatedDisplayFolders",
      "value": "{\"de-DE\":\"Σ Local Währung\",\"en-US\":\"Σ Local Currency\",\"nl-NL\":\"Σ Lokale Valuta\"}"
    }
  ]
}