{
  "name": "ResourceSalesActual_SPLY_Variance_JB",
  "expression": "[ResourceSalesActual_JB] - [ResourceSalesActual_SPLY_JB]",
  "formatString": "#,##0.00",
  "displayFolder": "Σ SPLY Variance",
  "annotations": [
    {
      "name": "TabularEditor_TranslatedNames",
      "value": "{\"de-DE\":\"Ressourcenumsatz SPLY Varianz\",\"en-US\":\"Resource Sales Actual SPLY Variance\",\"nl-NL\":\"Resource verkopen SPLY Variance\"}"
    },
    {
      "name": "TabularEditor_TranslatedDescriptions",
      "value": "{\"de-DE\":\"Abteilungen/Projekte/Historie/Projektjournale/Projektposten\"}"
    },
    {
      "name": "TabularEditor_TranslatedDisplayFolders",
      "value": "{\"de-DE\":\"Σ SPLY Varianz\",\"en-US\":\"Σ SPLY Variance\",\"nl-NL\":\"Σ SPLY Variance\"}"
    }
  ]
}