{
  "name": "ResourceNetSalesExpected_SPLY_Variance_JB",
  "expression": "[ResourceNetSalesExpected_JB ] - [ResourceNetSalesExpected_SPLY_JB]",
  "formatString": "#,##0.00",
  "displayFolder": "Σ SPLY Variance",
  "annotations": [
    {
      "name": "TabularEditor_TranslatedNames",
      "value": "{\"de-DE\":\"Ressource Verkauf (Netto) (Erwartet) SPLY Varianz\",\"en-US\":\"Resource Net Sales Expected SPLY Variance\",\"nl-NL\":\"Resource verwachte netto verkopen SPLY Variance\"}"
    },
    {
      "name": "TabularEditor_TranslatedDescriptions",
      "value": "{\"de-DE\":\"Ressource Verkauf (Erwartet) - Rabatt\"}"
    },
    {
      "name": "TabularEditor_TranslatedDisplayFolders",
      "value": "{\"de-DE\":\"Σ SPLY Varianz\",\"en-US\":\"Σ SPLY Variance\",\"nl-NL\":\"Σ SPLY Variance\"}"
    }
  ]
}