{
  "name": "ResourceProfit_JB",
  "description": " Resource Net Sales Actual - Resource Cost",
  "expression": "[ResourceNetSalesActual_JB] - [ResourceCost_JB]",
  "formatString": "#,##0.00",
  "annotations": [
    {
      "name": "TabularEditor_TranslatedNames",
      "value": "{\"de-DE\":\"Ressource Ertrag\",\"en-US\":\"Resource Profit\",\"nl-NL\":\"Resource winst\"}"
    },
    {
      "name": "TabularEditor_TranslatedDescriptions",
      "value": "{\"de-DE\":\"Ressource verkauf (Netto) - Ressource Kosten\",\"en-US\":\"Resource Net Sales Actual - Resource Cost\",\"nl-NL\":\"Resource netto verkopen - Resource Kosten\"}"
    }
  ]
}