{
  "name": "ResourceProfitExpected%_MTD_JB",
  "expression": [
    "VAR MTD0 =",
    "    FILTER (",
    "        ALL ( 'Date' ),",
    "        'Date'[DateID] <= MAX ( 'Date'[DateID] )",
    "            && 'Date'[CYearMonthNo] = MAX ( 'Date'[CYearMonthNo] )",
    "    )",
    "RETURN",
    "    CALCULATE ( [ResourceProfitExpected%_JB], MTD0 )"
  ],
  "formatString": "#,##0.00 %",
  "displayFolder": "Σ MTD",
  "annotations": [
    {
      "name": "TabularEditor_TranslatedNames",
      "value": "{\"de-DE\":\"Ressource Ertrag (Erwartet) % MTD\",\"en-US\":\"Resource Profit Expected% MTD\",\"nl-NL\":\"Resource verwachte winst % MTD\"}"
    },
    {
      "name": "TabularEditor_TranslatedDescriptions",
      "value": "{\"de-DE\":\"Ressource Ertrag (Erwartet) / Ressource Verkauf (Erwartet)\"}"
    },
    {
      "name": "TabularEditor_TranslatedDisplayFolders",
      "value": "{\"de-DE\":\"Σ MTD\",\"en-US\":\"Σ MTD\",\"nl-NL\":\"Σ MTD\"}"
    }
  ]
}