{
  "name": "ResourceProfitPerHour_YTD_Index_JB",
  "expression": "DIVIDE ( [ResourceProfitPerHour_YTD_JB], [ResourceProfitPerHour_LYTD_JB] ) * 100",
  "formatString": "#,##0.0",
  "displayFolder": "Σ YTD Variance",
  "annotations": [
    {
      "name": "TabularEditor_TranslatedNames",
      "value": "{\"de-DE\":\"Ressource Ertrag /h YTD Index\",\"en-US\":\"Resource Profit Per Hour YTD Index\",\"nl-NL\":\"Resource winst per uur YTD Index\"}"
    },
    {
      "name": "TabularEditor_TranslatedDescriptions",
      "value": "{\"de-DE\":\"Ressource Ertrag / Stunden\"}"
    },
    {
      "name": "TabularEditor_TranslatedDisplayFolders",
      "value": "{\"de-DE\":\"Σ YTD Varianz\",\"en-US\":\"Σ YTD Variance\",\"nl-NL\":\"Σ YTD Variance\"}"
    }
  ]
}