{
  "name": "ResourceNetSalesExpected_YTD_Variance_JB",
  "expression": "[ResourceNetSalesExpected_YTD_JB] - [ResourceNetSalesExpected_LYTD_JB]",
  "formatString": "#,##0.00",
  "displayFolder": "Σ YTD Variance",
  "annotations": [
    {
      "name": "TabularEditor_TranslatedNames",
      "value": "{\"de-DE\":\"Ressource Verkauf (Netto) (Erwartet) YTD Varianz\",\"en-US\":\"Resource Net Sales Expected YTD Variance\",\"nl-NL\":\"Resource verwachte netto verkopen YTD Variance\"}"
    },
    {
      "name": "TabularEditor_TranslatedDescriptions",
      "value": "{\"de-DE\":\"Ressource Verkauf (Erwartet) - Rabatt\"}"
    },
    {
      "name": "TabularEditor_TranslatedDisplayFolders",
      "value": "{\"de-DE\":\"Σ YTD Varianz\",\"en-US\":\"Σ YTD Variance\",\"nl-NL\":\"Σ YTD Variance\"}"
    }
  ]
}