{
  "name": "ResourceNetSalesActual_SPLY_Index_JB",
  "expression": "DIVIDE ( [ResourceNetSalesActual_JB], [ResourceNetSalesActual_SPLY_JB] ) * 100",
  "formatString": "#,##0.0",
  "displayFolder": "Σ SPLY Variance",
  "annotations": [
    {
      "name": "TabularEditor_TranslatedNames",
      "value": "{\"de-DE\":\"Ressource Verkauf (Netto) SPLY Index\",\"en-US\":\"Resource Net Sales Actual SPLY Index\",\"nl-NL\":\"Resource netto verkopen SPLY Index\"}"
    },
    {
      "name": "TabularEditor_TranslatedDescriptions",
      "value": "{\"de-DE\":\"Ressource verkauf - Rabatt\"}"
    },
    {
      "name": "TabularEditor_TranslatedDisplayFolders",
      "value": "{\"de-DE\":\"Σ SPLY Varianz\",\"en-US\":\"Σ SPLY Variance\",\"nl-NL\":\"Σ SPLY Variance\"}"
    }
  ]
}