{
  "name": "TotalProfit_YTD_Index_JB",
  "expression": "DIVIDE ( [TotalProfit_YTD_JB], [TotalProfit_LYTD_JB] ) * 100",
  "formatString": "#,##0.0",
  "displayFolder": "Σ YTD Variance",
  "annotations": [
    {
      "name": "TabularEditor_TranslatedNames",
      "value": "{\"de-DE\":\"Summe Ertrag YTD Index\",\"en-US\":\"Total Profit YTD Index\",\"nl-NL\":\"Totale winst YTD Index\"}"
    },
    {
      "name": "TabularEditor_TranslatedDescriptions",
      "value": "{\"de-DE\":\"Gesamt Netto Verkauf - Summe Kosten\"}"
    },
    {
      "name": "TabularEditor_TranslatedDisplayFolders",
      "value": "{\"de-DE\":\"Σ YTD Varianz\",\"en-US\":\"Σ YTD Variance\",\"nl-NL\":\"Σ YTD Variance\"}"
    }
  ]
}