{
  "name": "TotalProfit%_JB",
  "description": "Total Profit / Total Net Sales",
  "expression": "DIVIDE ( [TotalProfit_JB], [TotalNetSales_JB] )",
  "formatString": "#,##0.00 %",
  "annotations": [
    {
      "name": "TabularEditor_TranslatedNames",
      "value": "{\"de-DE\":\"Summe Ertrag %\",\"en-US\":\"Total Profit %\",\"nl-NL\":\"Totale winst %\"}"
    },
    {
      "name": "TabularEditor_TranslatedDescriptions",
      "value": "{\"de-DE\":\"Summe Etrag / Gesamt Netto Verkauf\",\"en-US\":\"Total Profit / Total Net Sales\",\"nl-NL\":\"Totale winst / Totale netto verkopen\"}"
    }
  ]
}