{
  "name": "TotalCost_SPLY_Variance_JB",
  "expression": "[TotalCost_JB] - [TotalCost_SPLY_JB]",
  "formatString": "#,##0.00",
  "displayFolder": "Σ SPLY Variance",
  "annotations": [
    {
      "name": "TabularEditor_TranslatedNames",
      "value": "{\"de-DE\":\"Summe Kosten SPLY Varianz\",\"en-US\":\"Total Cost SPLY Variance\",\"nl-NL\":\"Totale kosten SPLY Variance\"}"
    },
    {
      "name": "TabularEditor_TranslatedDescriptions",
      "value": "{\"de-DE\":\"Ressource Kosten + Artikel kosten + Sachkonto Kosten \"}"
    },
    {
      "name": "TabularEditor_TranslatedDisplayFolders",
      "value": "{\"de-DE\":\"Σ SPLY Varianz\",\"en-US\":\"Σ SPLY Variance\",\"nl-NL\":\"Σ SPLY Variance\"}"
    }
  ]
}