{
  "name": "TotalNetSales_SPLY_Variance%_JB",
  "expression": "DIVIDE ( [TotalNetSales_JB] - [TotalNetSales_SPLY_JB], [TotalNetSales_SPLY_JB] )",
  "formatString": "#,##0.0 %",
  "displayFolder": "Σ SPLY Variance",
  "annotations": [
    {
      "name": "TabularEditor_TranslatedNames",
      "value": "{\"de-DE\":\"Gesamt Netto Verkauf SPLY Varianz %\",\"en-US\":\"Total Net Sales SPLY Variance %\",\"nl-NL\":\"Totale netto verkopen SPLY Variance %\"}"
    },
    {
      "name": "TabularEditor_TranslatedDescriptions",
      "value": "{\"de-DE\":\"Sachkonto Verkauf (Netto) + Artikel Verkauf (Netto) + Ressource Verkauf (Netto)\"}"
    },
    {
      "name": "TabularEditor_TranslatedDisplayFolders",
      "value": "{\"de-DE\":\"Σ SPLY Varianz\",\"en-US\":\"Σ SPLY Variance\",\"nl-NL\":\"Σ SPLY Variance\"}"
    }
  ]
}