{
  "name": "TotalProfitExpectedPerHour_SPLY_Variance_JB",
  "expression": "[TotalProfitExpectedPerHour_JB] - [TotalProfitExpectedPerHour_SPLY_JB]",
  "formatString": "#,##0.00",
  "displayFolder": "Σ SPLY Variance",
  "annotations": [
    {
      "name": "TabularEditor_TranslatedNames",
      "value": "{\"de-DE\":\"Summe Ertrag / h (Erwartet) SPLY Varianz\",\"en-US\":\"Total Profit Expected Per Hour SPLY Variance\",\"nl-NL\":\"Totale verwachte winst per uur SPLY Variance\"}"
    },
    {
      "name": "TabularEditor_TranslatedDescriptions",
      "value": "{\"de-DE\":\"Summe Ertrag (Erwartet) / Stunden\"}"
    },
    {
      "name": "TabularEditor_TranslatedDisplayFolders",
      "value": "{\"de-DE\":\"Σ SPLY Varianz\",\"en-US\":\"Σ SPLY Variance\",\"nl-NL\":\"Σ SPLY Variance\"}"
    }
  ]
}