{
  "name": "Bin",
  "columns": [
    {
      "name": "BinID",
      "dataType": "int64",
      "isHidden": true,
      "sourceColumn": "BinID",
      "sourceProviderType": "int",
      "annotations": [
        {
          "name": "TabularEditor_TranslatedNames",
          "value": "{\"de-DE\":\"BinID\",\"en-US\":\"BinID\",\"nl-NL\":\"BinID\"}"
        },
        {
          "name": "TabularEditor_TranslatedDescriptions",
          "value": "{\"de-DE\":\"Kennung für Bin\"}"
        }
      ]
    },
    {
      "name": "BinCode",
      "dataType": "string",
      "sourceColumn": "BinCode",
      "sourceProviderType": "nvarchar",
      "annotations": [
        {
          "name": "TabularEditor_TranslatedNames",
          "value": "{\"de-DE\":\"Lagerplatzvorlagen Code\",\"en-US\":\"Bin Code\",\"nl-NL\":\"Opslaglocatiecode\"}"
        },
        {
          "name": "TabularEditor_TranslatedDescriptions",
          "value": "{\"de-DE\":\"Abteilungen/Verwaltung/Anwendung Einrichtung/Lager/Lager/Lagerplatzvorlagen\",\"en-US\":\"Departments/Inventory and Warehouse/Analysis & Reporting/Bin Contents\",\"nl-NL\":\"Afdelingen/Voorraad en magazijn/Analyse en rapportage/Opslaglocatie-inhoud\"}"
        }
      ]
    },
    {
      "name": "LocationCode",
      "dataType": "string",
      "sourceColumn": "LocationCode",
      "sourceProviderType": "nvarchar",
      "annotations": [
        {
          "name": "TabularEditor_TranslatedNames",
          "value": "{\"de-DE\":\"Lagerort Code\",\"en-US\":\"Location Code\",\"nl-NL\":\"Vestigingscode\"}"
        },
        {
          "name": "TabularEditor_TranslatedDescriptions",
          "value": "{\"de-DE\":\"Abteilungen/Verwaltung/Anwendung Einrichtung/Lager/Lager/Lagerplatzvorlagen\",\"en-US\":\"Departments/Inventory and Warehouse/Analysis & Reporting/Bin Contents\",\"nl-NL\":\"Afdelingen/Voorraad en magazijn/Analyse en rapportage/Opslaglocatie-inhoud\"}"
        }
      ]
    },
    {
      "name": "ZoneCode",
      "dataType": "string",
      "sourceColumn": "ZoneCode",
      "sourceProviderType": "nvarchar",
      "annotations": [
        {
          "name": "TabularEditor_TranslatedNames",
          "value": "{\"de-DE\":\"Zonen Code\",\"en-US\":\"Zone Code\",\"nl-NL\":\"Zonecode\"}"
        },
        {
          "name": "TabularEditor_TranslatedDescriptions",
          "value": "{\"de-DE\":\"Abteilungen/Verwaltung/Anwendung Einrichtung/Lager/Lager/Lagerplatzvorlagen\",\"en-US\":\"Departments/Inventory and Warehouse/Analysis & Reporting/Bin Contents\",\"nl-NL\":\"Afdelingen/Voorraad en magazijn/Analyse en rapportage/Opslaglocatie-inhoud\"}"
        }
      ]
    },
    {
      "name": "BinDescription",
      "dataType": "string",
      "isHidden": true,
      "sourceColumn": "BinDescription",
      "sourceProviderType": "nvarchar",
      "annotations": [
        {
          "name": "TabularEditor_TranslatedNames",
          "value": "{\"de-DE\":\"Lagerplatzvorlagen Beschreibung\",\"en-US\":\"Bin Desc.\",\"nl-NL\":\"Opslaglocatie oms.\"}"
        },
        {
          "name": "TabularEditor_TranslatedDescriptions",
          "value": "{\"de-DE\":\"Abteilungen/Verwaltung/Anwendung Einrichtung/Lager/Lager/Lagerplatzvorlagen\",\"en-US\":\"Departments/Inventory and Warehouse/Analysis & Reporting/Bin Contents\",\"nl-NL\":\"Afdelingen/Voorraad en magazijn/Analyse en rapportage/Opslaglocatie-inhoud\"}"
        }
      ]
    },
    {
      "name": "BinCodeDescription",
      "dataType": "string",
      "sourceColumn": "BinCodeDescription",
      "sourceProviderType": "nvarchar",
      "annotations": [
        {
          "name": "TabularEditor_TranslatedNames",
          "value": "{\"de-DE\":\"Lagerplatzvorlagen Code Beschreibung\",\"en-US\":\"Bin\",\"nl-NL\":\"Opslaglocatie\"}"
        },
        {
          "name": "TabularEditor_TranslatedDescriptions",
          "value": "{\"de-DE\":\"Abteilungen/Verwaltung/Anwendung Einrichtung/Lager/Lager/Lagerplatzvorlagen\",\"en-US\":\"Departments/Inventory and Warehouse/Analysis & Reporting/Bin Contents\",\"nl-NL\":\"Afdelingen/Voorraad en magazijn/Analyse en rapportage/Opslaglocatie-inhoud\"}"
        }
      ]
    },
    {
      "name": "ZoneDescription",
      "dataType": "string",
      "isHidden": true,
      "sourceColumn": "ZoneDescription",
      "sourceProviderType": "nvarchar",
      "annotations": [
        {
          "name": "TabularEditor_TranslatedNames",
          "value": "{\"de-DE\":\"Zonen Beschreibung\",\"en-US\":\"Zone Desc.\",\"nl-NL\":\"Zone oms.\"}"
        },
        {
          "name": "TabularEditor_TranslatedDescriptions",
          "value": "{\"de-DE\":\"Abteilungen/Verwaltung/Anwendung Einrichtung/Lager/Lager/Lagerplatzvorlagen\",\"en-US\":\"Departments/Inventory and Warehouse/Analysis & Reporting/Bin Contents\",\"nl-NL\":\"Afdelingen/Voorraad en magazijn/Analyse en rapportage/Opslaglocatie-inhoud\"}"
        }
      ]
    },
    {
      "name": "ZoneCodeDescription",
      "dataType": "string",
      "sourceColumn": "ZoneCodeDescription",
      "sourceProviderType": "nvarchar",
      "annotations": [
        {
          "name": "TabularEditor_TranslatedNames",
          "value": "{\"de-DE\":\"Zonen Code Beschreibung\",\"en-US\":\"Zone\",\"nl-NL\":\"Zone\"}"
        },
        {
          "name": "TabularEditor_TranslatedDescriptions",
          "value": "{\"de-DE\":\"Abteilungen/Verwaltung/Anwendung Einrichtung/Lager/Lager/Lagerplatzvorlagen\",\"en-US\":\"Departments/Inventory and Warehouse/Analysis & Reporting/Bin Contents\",\"nl-NL\":\"Afdelingen/Voorraad en magazijn/Analyse en rapportage/Opslaglocatie-inhoud\"}"
        }
      ]
    },
    {
      "name": "LocationDescription",
      "dataType": "string",
      "isHidden": true,
      "sourceColumn": "LocationDescription",
      "sourceProviderType": "nvarchar",
      "annotations": [
        {
          "name": "TabularEditor_TranslatedNames",
          "value": "{\"de-DE\":\"Lagerort Beschreibung\",\"en-US\":\"Location Desc.\",\"nl-NL\":\"Vestiging oms.\"}"
        },
        {
          "name": "TabularEditor_TranslatedDescriptions",
          "value": "{\"de-DE\":\"Abteilungen/Verwaltung/Anwendung Einrichtung/Lager/Lager/Lagerplatzvorlagen\",\"en-US\":\"Departments/Inventory and Warehouse/Analysis & Reporting/Bin Contents\",\"nl-NL\":\"Afdelingen/Voorraad en magazijn/Analyse en rapportage/Opslaglocatie-inhoud\"}"
        }
      ]
    },
    {
      "name": "LocationCodeDescription",
      "dataType": "string",
      "sourceColumn": "LocationCodeDescription",
      "sourceProviderType": "nvarchar",
      "annotations": [
        {
          "name": "TabularEditor_TranslatedNames",
          "value": "{\"de-DE\":\"Lagerort Code Beschreibung\",\"en-US\":\"Location\",\"nl-NL\":\"Vestiging\"}"
        },
        {
          "name": "TabularEditor_TranslatedDescriptions",
          "value": "{\"de-DE\":\"Abteilungen/Verwaltung/Anwendung Einrichtung/Lager/Lager/Lagerplatzvorlagen\",\"en-US\":\"Departments/Inventory and Warehouse/Analysis & Reporting/Bin Contents\",\"nl-NL\":\"Afdelingen/Voorraad en magazijn/Analyse en rapportage/Opslaglocatie-inhoud\"}"
        }
      ]
    }
  ],
  "partitions": [
    {
      "name": "Bin",
      "source": {
        "type": "query",
        "query": [
          "SELECT",
          "\t*",
          "FROM",
          "\t[tabular].[Bin]"
        ],
        "dataSource": "Birds"
      },
      "annotations": [
        {
          "name": "TabularEditor_TableSchema",
          "value": "{\"Name\":\"Bin\",\"Schema\":\"tabular\",\"Database\":\"nav_standard\",\"IncludedColumns\":[\"BinID\",\"BinCode\",\"LocationCode\",\"ZoneCode\",\"BinDescription\",\"BinCodeDescription\",\"ZoneDescription\",\"ZoneCodeDescription\",\"LocationDescription\",\"LocationCodeDescription\"],\"SelectAll\":true}"
        }
      ]
    }
  ],
  "annotations": [
    {
      "name": "TabularEditor_TranslatedNames",
      "value": "{\"de-DE\":\"Lagerplatzvorlagen\",\"en-US\":\"Bin\",\"nl-NL\":\"Opslaglocatie\"}"
    },
    {
      "name": "TabularEditor_TranslatedDescriptions",
      "value": "{\"en-US\":\"Departments/Inventory and Warehouse/Analysis & Reporting/Bin Contents\",\"nl-NL\":\"Afdelingen/Voorraad en magazijn/Analyse en rapportage/Opslaglocatie-inhoud\"}"
    },
    {
      "name": "TabularEditor_Relationships",
      "value": "[]"
    }
  ]
}