{
  "connection_types": [],
  "tables": [
    {
      "table_identifier": "dbo.Warehouse Entry",
      "columns": [
        {
          "column_name": "Bin Code",
          "data_type": "nvarchar",
          "character_maximum_length": 20,
          "numeric_precision": 0,
          "numeric_scale": 0,
          "nullable": false,
          "business_key": false
        },
        {
          "column_name": "Bin Type Code",
          "data_type": "nvarchar",
          "character_maximum_length": 10,
          "numeric_precision": 0,
          "numeric_scale": 0,
          "nullable": false,
          "business_key": false
        },
        {
          "column_name": "Cubage",
          "data_type": "decimal",
          "character_maximum_length": 0,
          "numeric_precision": 38,
          "numeric_scale": 20,
          "nullable": false,
          "business_key": false
        },
        {
          "column_name": "Entry No_",
          "data_type": "int",
          "character_maximum_length": 0,
          "numeric_precision": 10,
          "numeric_scale": 0,
          "nullable": false,
          "business_key": true
        },
        {
          "column_name": "Entry Type",
          "data_type": "int",
          "character_maximum_length": 0,
          "numeric_precision": 10,
          "numeric_scale": 0,
          "nullable": false,
          "business_key": false
        },
        {
          "column_name": "Expiration Date",
          "data_type": "datetime",
          "character_maximum_length": 0,
          "numeric_precision": 0,
          "numeric_scale": 0,
          "nullable": false,
          "business_key": false
        },
        {
          "column_name": "Item No_",
          "data_type": "nvarchar",
          "character_maximum_length": 20,
          "numeric_precision": 0,
          "numeric_scale": 0,
          "nullable": false,
          "business_key": false
        },
        {
          "column_name": "Line No_",
          "data_type": "int",
          "character_maximum_length": 0,
          "numeric_precision": 10,
          "numeric_scale": 0,
          "nullable": false,
          "business_key": false
        },
        {
          "column_name": "Location Code",
          "data_type": "nvarchar",
          "character_maximum_length": 10,
          "numeric_precision": 0,
          "numeric_scale": 0,
          "nullable": false,
          "business_key": false
        },
        {
          "column_name": "Lot No_",
          "data_type": "nvarchar",
          "character_maximum_length": 20,
          "numeric_precision": 0,
          "numeric_scale": 0,
          "nullable": false,
          "business_key": false
        },
        {
          "column_name": "Qty_ (Base)",
          "data_type": "decimal",
          "character_maximum_length": 0,
          "numeric_precision": 38,
          "numeric_scale": 20,
          "nullable": false,
          "business_key": false
        },
        {
          "column_name": "Quantity",
          "data_type": "decimal",
          "character_maximum_length": 0,
          "numeric_precision": 38,
          "numeric_scale": 20,
          "nullable": false,
          "business_key": false
        },
        {
          "column_name": "Reason Code",
          "data_type": "nvarchar",
          "character_maximum_length": 10,
          "numeric_precision": 0,
          "numeric_scale": 0,
          "nullable": false,
          "business_key": false
        },
        {
          "column_name": "Registering Date",
          "data_type": "datetime",
          "character_maximum_length": 0,
          "numeric_precision": 0,
          "numeric_scale": 0,
          "nullable": false,
          "business_key": false
        },
        {
          "column_name": "Source Code",
          "data_type": "nvarchar",
          "character_maximum_length": 10,
          "numeric_precision": 0,
          "numeric_scale": 0,
          "nullable": false,
          "business_key": false
        },
        {
          "column_name": "Source Type",
          "data_type": "int",
          "character_maximum_length": 0,
          "numeric_precision": 10,
          "numeric_scale": 0,
          "nullable": false,
          "business_key": false
        },
        {
          "column_name": "timestamp",
          "data_type": "timestamp",
          "character_maximum_length": 0,
          "numeric_precision": 0,
          "numeric_scale": 0,
          "nullable": false,
          "business_key": false
        },
        {
          "column_name": "User ID",
          "data_type": "nvarchar",
          "character_maximum_length": 50,
          "numeric_precision": 0,
          "numeric_scale": 0,
          "nullable": false,
          "business_key": false
        },
        {
          "column_name": "Variant Code",
          "data_type": "nvarchar",
          "character_maximum_length": 10,
          "numeric_precision": 0,
          "numeric_scale": 0,
          "nullable": false,
          "business_key": false
        },
        {
          "column_name": "Warranty Date",
          "data_type": "datetime",
          "character_maximum_length": 0,
          "numeric_precision": 0,
          "numeric_scale": 0,
          "nullable": false,
          "business_key": false
        },
        {
          "column_name": "Weight",
          "data_type": "decimal",
          "character_maximum_length": 0,
          "numeric_precision": 38,
          "numeric_scale": 20,
          "nullable": false,
          "business_key": false
        },
        {
          "column_name": "Whse_ Document Line No_",
          "data_type": "int",
          "character_maximum_length": 0,
          "numeric_precision": 10,
          "numeric_scale": 0,
          "nullable": false,
          "business_key": false
        },
        {
          "column_name": "Whse_ Document No_",
          "data_type": "nvarchar",
          "character_maximum_length": 20,
          "numeric_precision": 0,
          "numeric_scale": 0,
          "nullable": false,
          "business_key": false
        },
        {
          "column_name": "Whse_ Document Type",
          "data_type": "int",
          "character_maximum_length": 0,
          "numeric_precision": 10,
          "numeric_scale": 0,
          "nullable": false,
          "business_key": false
        },
        {
          "column_name": "Zone Code",
          "data_type": "nvarchar",
          "character_maximum_length": 10,
          "numeric_precision": 0,
          "numeric_scale": 0,
          "nullable": false,
          "business_key": false
        }
      ],
      "indexes": []
    }
  ]
}