{
  "name": "PurchaseOrderQuantity_YTD_Index_PO",
  "description": "Departments/Projects/Control > Project Control > Purchase > Purchase Order > Quantity YTD Index",
  "expression": "DIVIDE ( [PurchaseOrderQuantity_YTD_PO], [PurchaseOrderQuantity_LYTD_PO] ) * 100",
  "formatString": "#,##0.0",
  "displayFolder": "Σ YTD Variance",
  "annotations": [
    {
      "name": "TabularEditor_TranslatedNames",
      "value": "{\"de-DE\":\"Bestellungen Menge YTD Index\",\"en-US\":\"Purchase Order Quantity YTD Index\",\"nl-NL\":\"Inkooporder aantallen YTD Index\"}"
    },
    {
      "name": "TabularEditor_TranslatedDescriptions",
      "value": "{\"de-DE\":\"Abteilungen/Einkauf/Bestellungsabwicklung/Bestellungen\",\"en-US\":\"Departments/Projects/Control > Project Control > Purchase > Purchase Order > Quantity YTD Index\",\"nl-NL\":\"Afdelingen/Projecten/Bewaking > Projectbewaking > Inkoop > Aantal YTD Index\"}"
    },
    {
      "name": "TabularEditor_TranslatedDisplayFolders",
      "value": "{\"de-DE\":\"Σ YTD Varianz\",\"en-US\":\"Σ YTD Variance\",\"nl-NL\":\"Σ YTD Variance\"}"
    }
  ]
}