{
  "name": "PurchaseOrderShippedGrossWeight_YTD_Index_PO",
  "description": "Departments/Projects/Control > Project Control > Purchase > Gross Weight YTD Index",
  "expression": "DIVIDE ( [PurchaseOrderShippedGrossWeight_YTD_PO], [PurchaseOrderShippedGrossWeight_LYTD_PO] ) * 100",
  "formatString": "#,##0.0",
  "displayFolder": "Σ YTD Variance",
  "annotations": [
    {
      "name": "TabularEditor_TranslatedNames",
      "value": "{\"de-DE\":\"Bruttogewicht YTD Index\",\"en-US\":\"Purchase Order Shipped Gross Weight YTD Index\",\"nl-NL\":\"Inkooporder verzonden bruto gewicht YTD Index\"}"
    },
    {
      "name": "TabularEditor_TranslatedDescriptions",
      "value": "{\"de-DE\":\"Abteilungen/Einkauf/Bestellungsabwicklung/Bestellungen\",\"en-US\":\"Departments/Projects/Control > Project Control > Purchase > Gross Weight YTD Index\",\"nl-NL\":\"Afdelingen/Projecten/Bewaking > Projectbewaking > Inkoop > Bruto Gewicht YTD Index\"}"
    },
    {
      "name": "TabularEditor_TranslatedDisplayFolders",
      "value": "{\"de-DE\":\"Σ YTD Varianz\",\"en-US\":\"Σ YTD Variance\",\"nl-NL\":\"Σ YTD Variance\"}"
    }
  ]
}