{
  "name": "PurchaseOrderShippedGrossWeight_SPLY_Variance_PO",
  "description": "Departments/Projects/Control > Project Control > Purchase > Gross Weight SPLY Variance",
  "expression": "[PurchaseOrderShippedGrossWeight_PO] - [PurchaseOrderShippedGrossWeight_SPLY_PO]",
  "formatString": "#,##0",
  "displayFolder": "Σ SPLY Variance",
  "annotations": [
    {
      "name": "TabularEditor_TranslatedNames",
      "value": "{\"de-DE\":\"Bruttogewicht SPLY Varianz\",\"en-US\":\"Purchase Order Shipped Gross Weight SPLY Variance\",\"nl-NL\":\"Inkooporder verzonden bruto gewicht SPLY Variance\"}"
    },
    {
      "name": "TabularEditor_TranslatedDescriptions",
      "value": "{\"de-DE\":\"Abteilungen/Einkauf/Bestellungsabwicklung/Bestellungen\",\"en-US\":\"Departments/Projects/Control > Project Control > Purchase > Gross Weight SPLY Variance\",\"nl-NL\":\"Afdelingen/Projecten/Bewaking > Projectbewaking > Inkoop > Bruto Gewicht SPLY Variance\"}"
    },
    {
      "name": "TabularEditor_TranslatedDisplayFolders",
      "value": "{\"de-DE\":\"Σ SPLY Varianz\",\"en-US\":\"Σ SPLY Variance\",\"nl-NL\":\"Σ SPLY Variance\"}"
    }
  ]
}