{
  "name": "PurchaseOrderToReceiveAmount_SPLY_Variance_PO",
  "description": "Departments/Projects/Control > Project Control > Purchase > Purchase Amount not yet received SPLY Variance",
  "expression": "[PurchaseOrderToReceiveAmount_PO] - [PurchaseOrderToReceiveAmount_SPLY_PO]",
  "formatString": "#,##0.00",
  "displayFolder": "Σ SPLY Variance",
  "annotations": [
    {
      "name": "TabularEditor_TranslatedNames",
      "value": "{\"de-DE\":\"Betrag akt. Lieferung SPLY Varianz\",\"en-US\":\"Purchase Order To Receive Amount SPLY Variance\",\"nl-NL\":\"Inkooporder te ontvangen bedrag SPLY Variance\"}"
    },
    {
      "name": "TabularEditor_TranslatedDescriptions",
      "value": "{\"de-DE\":\"Abteilungen/Einkauf/Bestellungsabwicklung/Bestellungen\",\"en-US\":\"Departments/Projects/Control > Project Control > Purchase > Purchase Amount not yet received SPLY Variance\",\"nl-NL\":\"Afdelingen/Projecten/Bewaking > Projectbewaking > Inkoop > Inkoopbedrag nog te ontvangen orders SPLY Variance\"}"
    },
    {
      "name": "TabularEditor_TranslatedDisplayFolders",
      "value": "{\"de-DE\":\"Σ SPLY Varianz\",\"en-US\":\"Σ SPLY Variance\",\"nl-NL\":\"Σ SPLY Variance\"}"
    }
  ]
}