{
  "name": "PurchaseOrderGrossAmount_LCY_PO",
  "description": "Departments/Projects/Control > Project Control > Purchase > Purchase Order > The Gross Amount",
  "expression": "SUM ( 'factPurchaseOrder'[PurchaseOrderGrossAmount_LCY] )",
  "formatString": "#,##0.00",
  "displayFolder": "Σ Local Currency",
  "annotations": [
    {
      "name": "TabularEditor_TranslatedNames",
      "value": "{\"de-DE\":\"Total ohne MwSt. \",\"en-US\":\"Purchase Order Gross Amount\",\"nl-NL\":\"Inkoop order bruto bedrag\"}"
    },
    {
      "name": "TabularEditor_TranslatedDescriptions",
      "value": "{\"de-DE\":\"Abteilungen/Einkauf/Bestellungsabwicklung/Bestellungen\",\"en-US\":\"Departments/Projects/Control > Project Control > Purchase > Purchase Order > The Gross Amount\",\"nl-NL\":\"Afdelingen/Projecten/Bewaking > Projectbewaking > Inkoop > Bruto bedrag\"}"
    },
    {
      "name": "TabularEditor_TranslatedDisplayFolders",
      "value": "{\"de-DE\":\"Σ Local Währung\",\"en-US\":\"Σ Local Currency\",\"nl-NL\":\"Σ Lokale Valuta\"}"
    }
  ]
}