{
  "name": "PurchaseOrderOutstandingQuantity_SPLY_Variance_PO",
  "description": "Departments/Projects/Control > Project Control > Purchase > Outstanding Quantity SPLY Variance",
  "expression": "[PurchaseOrderOutstandingQuantity_PO] - [PurchaseOrderOutstandingQuantity_SPLY_PO]",
  "formatString": "#,##0",
  "displayFolder": "Σ SPLY Variance",
  "annotations": [
    {
      "name": "TabularEditor_TranslatedNames",
      "value": "{\"de-DE\":\"Restbestellungsmenge SPLY Varianz\",\"en-US\":\"Purchase Order Outstanding Quantity SPLY Variance\",\"nl-NL\":\"Inkooporder openstaand aantallen SPLY Variance\"}"
    },
    {
      "name": "TabularEditor_TranslatedDescriptions",
      "value": "{\"de-DE\":\"Abteilungen/Einkauf/Bestellungsabwicklung/Bestellungen\",\"en-US\":\"Departments/Projects/Control > Project Control > Purchase > Outstanding Quantity SPLY Variance\",\"nl-NL\":\"Afdelingen/Projecten/Bewaking > Projectbewaking > Inkoop > Openstaand bedrag SPLY Variance\"}"
    },
    {
      "name": "TabularEditor_TranslatedDisplayFolders",
      "value": "{\"de-DE\":\"Σ SPLY Varianz\",\"en-US\":\"Σ SPLY Variance\",\"nl-NL\":\"Σ SPLY Variance\"}"
    }
  ]
}