{
  "name": "PurchaseOrderOutstandingAmount_SPLY_PO",
  "description": "Departments/Projects/Control > Project Control > Purchase > Outstanding Amount SPLY",
  "expression": [
    "VAR SPLY0 =",
    "    FILTER (",
    "        ALL ( 'Date' ),",
    "        'Date'[Date] <= MAX ( 'Date'[TDatePY] )",
    "            && 'Date'[Date] >= MIN ( 'Date'[TDatePY] )",
    "    )",
    "RETURN",
    "    CALCULATE ( [PurchaseOrderOutstandingAmount_PO], SPLY0 )"
  ],
  "formatString": "#,##0.00",
  "displayFolder": "Σ SPLY",
  "annotations": [
    {
      "name": "TabularEditor_TranslatedNames",
      "value": "{\"de-DE\":\"Restbestellbetrag SPLY\",\"en-US\":\"Purchase Order Outstanding Amount SPLY\",\"nl-NL\":\"Inkooporder openstaand bedrag SPLY\"}"
    },
    {
      "name": "TabularEditor_TranslatedDescriptions",
      "value": "{\"de-DE\":\"Abteilungen/Einkauf/Bestellungsabwicklung/Bestellungen\",\"en-US\":\"Departments/Projects/Control > Project Control > Purchase > Outstanding Amount SPLY\",\"nl-NL\":\"Afdelingen/Projecten/Bewaking > Projectbewaking > Inkoop > Openstaand bedrag SPLY\"}"
    },
    {
      "name": "TabularEditor_TranslatedDisplayFolders",
      "value": "{\"de-DE\":\"Σ SPLY\",\"en-US\":\"Σ SPLY\",\"nl-NL\":\"Σ SPLY\"}"
    }
  ]
}