{
  "name": "PurchaseOrderGrossAmount_YTD_Index_PO",
  "description": "Departments/Projects/Control > Project Control > Purchase > Purchase Order > The Gross Amount YTD Index",
  "expression": "DIVIDE ( [PurchaseOrderGrossAmount_YTD_PO], [PurchaseOrderGrossAmount_LYTD_PO] ) * 100",
  "formatString": "#,##0.0",
  "displayFolder": "Σ YTD Variance",
  "annotations": [
    {
      "name": "TabularEditor_TranslatedNames",
      "value": "{\"de-DE\":\"Total ohne MwSt.  YTD Index\",\"en-US\":\"Purchase Order Gross Amount YTD Index\",\"nl-NL\":\"Inkoop order bruto bedrag YTD Index\"}"
    },
    {
      "name": "TabularEditor_TranslatedDescriptions",
      "value": "{\"de-DE\":\"Abteilungen/Einkauf/Bestellungsabwicklung/Bestellungen\",\"en-US\":\"Departments/Projects/Control > Project Control > Purchase > Purchase Order > The Gross Amount YTD Index\",\"nl-NL\":\"Afdelingen/Projecten/Bewaking > Projectbewaking > Inkoop > Bruto bedrag YTD Index\"}"
    },
    {
      "name": "TabularEditor_TranslatedDisplayFolders",
      "value": "{\"de-DE\":\"Σ YTD Varianz\",\"en-US\":\"Σ YTD Variance\",\"nl-NL\":\"Σ YTD Variance\"}"
    }
  ]
}