{
  "name": "PurchaseOrderShippedGrossWeight_PO",
  "description": "Departments/Projects/Control > Project Control > Purchase > Gross Weight",
  "expression": "SUM ( 'factPurchaseOrder'[PurchaseOrderShippedGrossWeight] )",
  "formatString": "#,##0",
  "annotations": [
    {
      "name": "TabularEditor_TranslatedNames",
      "value": "{\"de-DE\":\"Bruttogewicht\",\"en-US\":\"Purchase Order Shipped Gross Weight\",\"nl-NL\":\"Inkooporder verzonden bruto gewicht\"}"
    },
    {
      "name": "TabularEditor_TranslatedDescriptions",
      "value": "{\"de-DE\":\"Abteilungen/Einkauf/Bestellungsabwicklung/Bestellungen\",\"en-US\":\"Departments/Projects/Control > Project Control > Purchase > Gross Weight\",\"nl-NL\":\"Afdelingen/Projecten/Bewaking > Projectbewaking > Inkoop > Bruto Gewicht\"}"
    }
  ]
}