{
  "name": "PurchaseOrderReceivedNotInvoicedQuantity_SPLY_Variance_PO",
  "description": "Departments/Projects/Control > Project Control > Purchase > Quantity for items not received SPLY Variance",
  "expression": "[PurchaseOrderReceivedNotInvoicedQuantity_PO] - [PurchaseOrderReceivedNotInvoicedQuantity_SPLY_PO]",
  "formatString": "#,##0",
  "displayFolder": "Σ SPLY Variance",
  "annotations": [
    {
      "name": "TabularEditor_TranslatedNames",
      "value": "{\"de-DE\":\"Lief. nicht fakt. Menge SPLY Varianz\",\"en-US\":\"Purchase Order Received Not Invoiced Quantity SPLY Variance\",\"nl-NL\":\"Inkooporder ontvangen niet gefactureerd aantallen SPLY Variance\"}"
    },
    {
      "name": "TabularEditor_TranslatedDescriptions",
      "value": "{\"de-DE\":\"Abteilungen/Einkauf/Bestellungsabwicklung/Bestellungen\",\"en-US\":\"Departments/Projects/Control > Project Control > Purchase > Quantity for items not received SPLY Variance\",\"nl-NL\":\"Afdelingen/Projecten/Bewaking > Projectbewaking > Inkoop > Aantallen nog te ontvangen orders SPLY Variance\"}"
    },
    {
      "name": "TabularEditor_TranslatedDisplayFolders",
      "value": "{\"de-DE\":\"Σ SPLY Varianz\",\"en-US\":\"Σ SPLY Variance\",\"nl-NL\":\"Σ SPLY Variance\"}"
    }
  ]
}