{
  "name": "PurchaseOrderQuantity_SPLY_Index_PO",
  "description": "Departments/Projects/Control > Project Control > Purchase > Purchase Order > Quantity SPLY Index",
  "expression": "DIVIDE ( [PurchaseOrderQuantity_PO], [PurchaseOrderQuantity_SPLY_PO] ) * 100",
  "formatString": "#,##0.0",
  "displayFolder": "Σ SPLY Variance",
  "annotations": [
    {
      "name": "TabularEditor_TranslatedNames",
      "value": "{\"de-DE\":\"Bestellungen Menge SPLY Index\",\"en-US\":\"Purchase Order Quantity SPLY Index\",\"nl-NL\":\"Inkooporder aantallen SPLY Index\"}"
    },
    {
      "name": "TabularEditor_TranslatedDescriptions",
      "value": "{\"de-DE\":\"Abteilungen/Einkauf/Bestellungsabwicklung/Bestellungen\",\"en-US\":\"Departments/Projects/Control > Project Control > Purchase > Purchase Order > Quantity SPLY Index\",\"nl-NL\":\"Afdelingen/Projecten/Bewaking > Projectbewaking > Inkoop > Aantal SPLY Index\"}"
    },
    {
      "name": "TabularEditor_TranslatedDisplayFolders",
      "value": "{\"de-DE\":\"Σ SPLY Varianz\",\"en-US\":\"Σ SPLY Variance\",\"nl-NL\":\"Σ SPLY Variance\"}"
    }
  ]
}