{
  "name": "PurchaseOrderToInvoiceQuantity_SPLY_Index_PO",
  "description": "Departments/Projects/Control > Project Control > Purchase > Purchase quantity not invoiced SPLY Index",
  "expression": "DIVIDE ( [PurchaseOrderToInvoiceQuantity_PO], [PurchaseOrderToInvoiceQuantity_SPLY_PO] ) * 100",
  "formatString": "#,##0.0",
  "displayFolder": "Σ SPLY Variance",
  "annotations": [
    {
      "name": "TabularEditor_TranslatedNames",
      "value": "{\"de-DE\":\"Menge akt. Rechnung SPLY Index\",\"en-US\":\"Purchase Order To Invoice Quantity SPLY Index\",\"nl-NL\":\"Inkooporder te factureren aantallen SPLY Index\"}"
    },
    {
      "name": "TabularEditor_TranslatedDescriptions",
      "value": "{\"de-DE\":\"Abteilungen/Einkauf/Bestellungsabwicklung/Bestellungen\",\"en-US\":\"Departments/Projects/Control > Project Control > Purchase > Purchase quantity not invoiced SPLY Index\",\"nl-NL\":\"Afdelingen/Projecten/Bewaking > Projectbewaking > Inkoop > Inkoopaantallen nog te ontvangen orders SPLY Index\"}"
    },
    {
      "name": "TabularEditor_TranslatedDisplayFolders",
      "value": "{\"de-DE\":\"Σ SPLY Varianz\",\"en-US\":\"Σ SPLY Variance\",\"nl-NL\":\"Σ SPLY Variance\"}"
    }
  ]
}