{
  "name": "PurchaseOrderReceivedNotInvoicedQuantity_YTD_Variance_PO",
  "description": "Departments/Projects/Control > Project Control > Purchase > Quantity for items not received YTD Variance",
  "expression": "[PurchaseOrderReceivedNotInvoicedQuantity_YTD_PO] - [PurchaseOrderReceivedNotInvoicedQuantity_LYTD_PO]",
  "formatString": "#,##0",
  "displayFolder": "Σ YTD Variance",
  "annotations": [
    {
      "name": "TabularEditor_TranslatedNames",
      "value": "{\"de-DE\":\"Lief. nicht fakt. Menge YTD Varianz\",\"en-US\":\"Purchase Order Received Not Invoiced Quantity YTD Variance\",\"nl-NL\":\"Inkooporder ontvangen niet gefactureerd aantallen YTD Variance\"}"
    },
    {
      "name": "TabularEditor_TranslatedDescriptions",
      "value": "{\"de-DE\":\"Abteilungen/Einkauf/Bestellungsabwicklung/Bestellungen\",\"en-US\":\"Departments/Projects/Control > Project Control > Purchase > Quantity for items not received YTD Variance\",\"nl-NL\":\"Afdelingen/Projecten/Bewaking > Projectbewaking > Inkoop > Aantallen nog te ontvangen orders YTD Variance\"}"
    },
    {
      "name": "TabularEditor_TranslatedDisplayFolders",
      "value": "{\"de-DE\":\"Σ YTD Varianz\",\"en-US\":\"Σ YTD Variance\",\"nl-NL\":\"Σ YTD Variance\"}"
    }
  ]
}