{
  "name": "PurchaseOrderQuantity_YTD_Variance%_PO",
  "description": "Departments/Projects/Control > Project Control > Purchase > Purchase Order > Quantity YTD Variance %",
  "expression": "DIVIDE ( [PurchaseOrderQuantity_YTD_PO] - [PurchaseOrderQuantity_LYTD_PO], [PurchaseOrderQuantity_LYTD_PO] )",
  "formatString": "#,##0.0 %",
  "displayFolder": "Σ YTD Variance",
  "annotations": [
    {
      "name": "TabularEditor_TranslatedNames",
      "value": "{\"de-DE\":\"Bestellungen Menge YTD Varianz %\",\"en-US\":\"Purchase Order Quantity YTD Variance %\",\"nl-NL\":\"Inkooporder aantallen YTD Variance %\"}"
    },
    {
      "name": "TabularEditor_TranslatedDescriptions",
      "value": "{\"de-DE\":\"Abteilungen/Einkauf/Bestellungsabwicklung/Bestellungen\",\"en-US\":\"Departments/Projects/Control > Project Control > Purchase > Purchase Order > Quantity YTD Variance %\",\"nl-NL\":\"Afdelingen/Projecten/Bewaking > Projectbewaking > Inkoop > Aantal YTD Variance %\"}"
    },
    {
      "name": "TabularEditor_TranslatedDisplayFolders",
      "value": "{\"de-DE\":\"Σ YTD Varianz\",\"en-US\":\"Σ YTD Variance\",\"nl-NL\":\"Σ YTD Variance\"}"
    }
  ]
}