{
  "name": "PurchaseOrderReceivedNotInvoicedAmount_SPLY_Variance_PO",
  "description": "Departments/Projects/Control > Project Control > Purchase > Amount for items not received SPLY Variance",
  "expression": "[PurchaseOrderReceivedNotInvoicedAmount_PO] - [PurchaseOrderReceivedNotInvoicedAmount_SPLY_PO]",
  "formatString": "#,##0.00",
  "displayFolder": "Σ SPLY Variance",
  "annotations": [
    {
      "name": "TabularEditor_TranslatedNames",
      "value": "{\"de-DE\":\"Eingegangene, nicht fakturierte Menge SPLY Varianz\",\"en-US\":\"Purchase Order Received Not Invoiced Amount SPLY Variance\",\"nl-NL\":\"Inkooporder ontvangen niet gefactureerd bedrag SPLY Variance\"}"
    },
    {
      "name": "TabularEditor_TranslatedDescriptions",
      "value": "{\"de-DE\":\"Abteilungen/Einkauf/Bestellungsabwicklung/Bestellungen\",\"en-US\":\"Departments/Projects/Control > Project Control > Purchase > Amount for items not received SPLY Variance\",\"nl-NL\":\"Afdelingen/Projecten/Bewaking > Projectbewaking > Inkoop > Inkoopbedrag nog te ontvangen orders SPLY Variance\"}"
    },
    {
      "name": "TabularEditor_TranslatedDisplayFolders",
      "value": "{\"de-DE\":\"Σ SPLY Varianz\",\"en-US\":\"Σ SPLY Variance\",\"nl-NL\":\"Σ SPLY Variance\"}"
    }
  ]
}