{
  "name": "PurchaseOrderInvoicedAmount_YTD_Variance%_PO",
  "description": "Departments/Projects/Control > Project Control > Purchase > Purchase Order > Invoiced Amount YTD Variance %",
  "expression": "DIVIDE ( [PurchaseOrderInvoicedAmount_YTD_PO] - [PurchaseOrderInvoicedAmount_LYTD_PO], [PurchaseOrderInvoicedAmount_LYTD_PO] )",
  "formatString": "#,##0.0 %",
  "displayFolder": "Σ YTD Variance",
  "annotations": [
    {
      "name": "TabularEditor_TranslatedNames",
      "value": "{\"de-DE\":\"Rechnungsbetrag YTD Varianz %\",\"en-US\":\"Purchase Order Invoiced Amount YTD Variance %\",\"nl-NL\":\"Inkooporder gefactureerd bedrag YTD Variance %\"}"
    },
    {
      "name": "TabularEditor_TranslatedDescriptions",
      "value": "{\"de-DE\":\"Abteilungen/Einkauf/Bestellungsabwicklung/Bestellungen\",\"en-US\":\"Departments/Projects/Control > Project Control > Purchase > Purchase Order > Invoiced Amount YTD Variance %\",\"nl-NL\":\"Afdelingen/Projecten/Bewaking > Projectbewaking > Inkoop > Bedrag gefactureerd YTD Variance %\"}"
    },
    {
      "name": "TabularEditor_TranslatedDisplayFolders",
      "value": "{\"de-DE\":\"Σ YTD Varianz\",\"en-US\":\"Σ YTD Variance\",\"nl-NL\":\"Σ YTD Variance\"}"
    }
  ]
}