{
  "name": "OpenDaysAgeGroupMinLowerBoundary",
  "description": "Min value for the boundary in age group",
  "expression": "MIN ( OpenDaysAgeGroup[AgeGroupMin] )",
  "isHidden": true,
  "annotations": [
    {
      "name": "TabularEditor_TranslatedNames",
      "value": "{\"de-DE\":\"Offnen tage Altersgruppe Min untere Grenze\",\"en-US\":\"Open Days Age Group Min Lower Boundary\",\"nl-NL\":\"Open dagen per ouderdomsgroep ondergrens\"}"
    },
    {
      "name": "TabularEditor_TranslatedDescriptions",
      "value": "{\"de-DE\":\"Unterste Wert für die untere Grenze\",\"en-US\":\"Min value for the boundary in age group\",\"nl-NL\":\"Technisch veld om minimale waarde in ouderdomsgroep te bepalen\"}"
    }
  ]
}