{
  "name": "%CompleteGLCost_YTD_JP",
  "expression": [
    "VAR YTD0 =",
    "    FILTER (",
    "        ALL ( 'Date' ),",
    "        'Date'[CYearNo] = MAX ( 'Date'[CYearNo] )",
    "            && 'Date'[DateID] <= MAX ( 'Date'[DateID] )",
    "    )",
    "RETURN",
    "    CALCULATE ( [%CompleteGLCost_JP], YTD0 )"
  ],
  "formatString": "#,##0.00 %",
  "displayFolder": "Σ YTD",
  "annotations": [
    {
      "name": "TabularEditor_TranslatedNames",
      "value": "{\"de-DE\":\"% Gesamt Kosten YTD\",\"en-US\":\"% Complete GL Cost YTD\",\"nl-NL\":\"% Stand afgesproken grootboek kosten YTD\"}"
    },
    {
      "name": "TabularEditor_TranslatedDescriptions",
      "value": "{\"de-DE\":\"Sachkonto Kosten / Vertrag Kosten\"}"
    },
    {
      "name": "TabularEditor_TranslatedDisplayFolders",
      "value": "{\"de-DE\":\"Σ YTD\",\"en-US\":\"Σ YTD\",\"nl-NL\":\"Σ YTD\"}"
    }
  ]
}