{
  "name": "%CompleteItemCost_SPLY_Variance_JP",
  "expression": "[%CompleteItemCost_JP] - [%CompleteItemCost_SPLY_JP]",
  "formatString": "#,##0.00 %",
  "displayFolder": "Σ SPLY Variance",
  "annotations": [
    {
      "name": "TabularEditor_TranslatedNames",
      "value": "{\"de-DE\":\"% Vertragskosten Artikel SPLY Varianz\",\"en-US\":\"% Complete Item Cost SPLY Variance\",\"nl-NL\":\"% Stand afgesproken artikel kosten SPLY Variance\"}"
    },
    {
      "name": "TabularEditor_TranslatedDescriptions",
      "value": "{\"de-DE\":\"Artikel Kosten / Vertrag Kosten\"}"
    },
    {
      "name": "TabularEditor_TranslatedDisplayFolders",
      "value": "{\"de-DE\":\"Σ SPLY Varianz\",\"en-US\":\"Σ SPLY Variance\",\"nl-NL\":\"Σ SPLY Variance\"}"
    }
  ]
}