{
  "name": "%CompleteTotalCost_YTD_Index_JP",
  "expression": "DIVIDE ( [%CompleteTotalCost_YTD_JP], [%CompleteTotalCost_LYTD_JP] ) * 100",
  "formatString": "#,##0.0",
  "displayFolder": "Σ YTD Variance",
  "annotations": [
    {
      "name": "TabularEditor_TranslatedNames",
      "value": "{\"de-DE\":\"% der Vertragsgesamtkosten YTD Index\",\"en-US\":\"% Complete Total Cost YTD Index\",\"nl-NL\":\"% Stand afgesproken totale kosten YTD Index\"}"
    },
    {
      "name": "TabularEditor_TranslatedDescriptions",
      "value": "{\"de-DE\":\"Gesamtkosten / Vertrag Kosten\"}"
    },
    {
      "name": "TabularEditor_TranslatedDisplayFolders",
      "value": "{\"de-DE\":\"Σ YTD Varianz\",\"en-US\":\"Σ YTD Variance\",\"nl-NL\":\"Σ YTD Variance\"}"
    }
  ]
}