{
  "name": "%CompleteItemCost_JP",
  "description": "Item Cost / Contracted Item Cost",
  "expression": "DIVIDE ( [ItemCost_JB], [ContractedItemCost_JP] )",
  "formatString": "#,##0.00 %",
  "annotations": [
    {
      "name": "TabularEditor_TranslatedNames",
      "value": "{\"de-DE\":\"% Vertragskosten Artikel\",\"en-US\":\"% Complete Item Cost\",\"nl-NL\":\"% Stand afgesproken artikel kosten\"}"
    },
    {
      "name": "TabularEditor_TranslatedDescriptions",
      "value": "{\"de-DE\":\"Artikel Kosten / Vertrag Kosten\",\"en-US\":\"Item Cost / Contracted Item Cost\",\"nl-NL\":\"Artikel kosten / afgesproken kosten\"}"
    }
  ]
}