{
  "name": "%CompleteGLNetSales_YTD_Variance_JP",
  "expression": "[%CompleteGLNetSales_YTD_JP] - [%CompleteGLNetSales_LYTD_JP]",
  "formatString": "#,##0.00 %",
  "displayFolder": "Σ YTD Variance",
  "annotations": [
    {
      "name": "TabularEditor_TranslatedNames",
      "value": "{\"de-DE\":\"% Sachkontoanteil Verkauf YTD Varianz\",\"en-US\":\"% Complete GL Net Sales YTD Variance\",\"nl-NL\":\"% Stand afgesproken grootboek netto verkoop YTD Variance\"}"
    },
    {
      "name": "TabularEditor_TranslatedDescriptions",
      "value": "{\"de-DE\":\"Sachkontoanteil / Verkauf lt. Vertrag Sachkonto \"}"
    },
    {
      "name": "TabularEditor_TranslatedDisplayFolders",
      "value": "{\"de-DE\":\"Σ YTD Varianz\",\"en-US\":\"Σ YTD Variance\",\"nl-NL\":\"Σ YTD Variance\"}"
    }
  ]
}