{
  "name": "%CompleteItemQuantity_SPLY_Variance%_JP",
  "expression": "DIVIDE ( [%CompleteItemQuantity_JP] - [%CompleteItemQuantity_SPLY_JP], [%CompleteItemQuantity_SPLY_JP] )",
  "formatString": "#,##0.0 %",
  "displayFolder": "Σ SPLY Variance",
  "annotations": [
    {
      "name": "TabularEditor_TranslatedNames",
      "value": "{\"de-DE\":\"% der gesamt Artikelmenge SPLY Varianz %\",\"en-US\":\"% Complete Item Quantity SPLY Variance %\",\"nl-NL\":\"% Stand afgesproken artikel hoeveelheid SPLY Variance %\"}"
    },
    {
      "name": "TabularEditor_TranslatedDescriptions",
      "value": "{\"de-DE\":\"Artikelmenge / Vertragmenge\"}"
    },
    {
      "name": "TabularEditor_TranslatedDisplayFolders",
      "value": "{\"de-DE\":\"Σ SPLY Varianz\",\"en-US\":\"Σ SPLY Variance\",\"nl-NL\":\"Σ SPLY Variance\"}"
    }
  ]
}