{
  "name": "%ContractedItemQuantity_JP",
  "description": "Contracted Item Quantity / Scheduled Item Quantity",
  "expression": "DIVIDE ( [ContractedItemQuantity_JP], [ScheduledItemQuantity_JP] )",
  "formatString": "#,##0.00 %",
  "annotations": [
    {
      "name": "TabularEditor_TranslatedNames",
      "value": "{\"de-DE\":\"% der Vertragsartikelmenge\",\"en-US\":\"% Contracted Item Quantity\",\"nl-NL\":\"% Afgesproken artikel hoeveelheid\"}"
    },
    {
      "name": "TabularEditor_TranslatedDescriptions",
      "value": "{\"de-DE\":\"Vertrag Artikel Anzahl / Geplante Artikel Anzahl\",\"en-US\":\"Contracted Item Quantity / Scheduled Item Quantity\",\"nl-NL\":\"Afgesproken artikel hoeveelheid / geplande hoeveelheid\"}"
    }
  ]
}