{
  "name": "%ContractedResourceNetSales_MTD_JP",
  "expression": [
    "VAR MTD0 =",
    "    FILTER (",
    "        ALL ( 'Date' ),",
    "        'Date'[DateID] <= MAX ( 'Date'[DateID] )",
    "            && 'Date'[CYearMonthNo] = MAX ( 'Date'[CYearMonthNo] )",
    "    )",
    "RETURN",
    "    CALCULATE ( [%ContractedResourceNetSales_JP], MTD0 )"
  ],
  "formatString": "#,##0.00 %",
  "displayFolder": "Σ MTD",
  "annotations": [
    {
      "name": "TabularEditor_TranslatedNames",
      "value": "{\"de-DE\":\"%  Verkauf lt. Vertrag Ressource MTD\",\"en-US\":\"% Contracted Resource Net Sales MTD\",\"nl-NL\":\"% Afgesproken resource netto verkoop MTD\"}"
    },
    {
      "name": "TabularEditor_TranslatedDescriptions",
      "value": "{\"de-DE\":\"Vertragskosten Ressourcen / Geplante Verkauf Ressource\"}"
    },
    {
      "name": "TabularEditor_TranslatedDisplayFolders",
      "value": "{\"de-DE\":\"Σ MTD\",\"en-US\":\"Σ MTD\",\"nl-NL\":\"Σ MTD\"}"
    }
  ]
}