{
  "name": "%ContractedTotalCost_SPLY_Variance%_JP",
  "expression": "DIVIDE ( [%ContractedTotalCost_JP] - [%ContractedTotalCost_SPLY_JP], [%ContractedTotalCost_SPLY_JP] )",
  "formatString": "#,##0.0 %",
  "displayFolder": "Σ SPLY Variance",
  "annotations": [
    {
      "name": "TabularEditor_TranslatedNames",
      "value": "{\"de-DE\":\"% der Vertragsgesamtkosten SPLY Varianz %\",\"en-US\":\"% Contracted Total Cost SPLY Variance %\",\"nl-NL\":\"% Afgesproken totale kosten SPLY Variance %\"}"
    },
    {
      "name": "TabularEditor_TranslatedDescriptions",
      "value": "{\"de-DE\":\"Vetrag Gesamte Kosten / Geplante Gesamte Kosten\"}"
    },
    {
      "name": "TabularEditor_TranslatedDisplayFolders",
      "value": "{\"de-DE\":\"Σ SPLY Varianz\",\"en-US\":\"Σ SPLY Variance\",\"nl-NL\":\"Σ SPLY Variance\"}"
    }
  ]
}