{
  "name": "%ContractedResourceCost_SPLY_JP",
  "expression": [
    "VAR SPLY0 =",
    "    FILTER (",
    "        ALL ( 'Date' ),",
    "        'Date'[Date] <= MAX ( 'Date'[TDatePY] )",
    "            && 'Date'[Date] >= MIN ( 'Date'[TDatePY] )",
    "    )",
    "RETURN",
    "    CALCULATE ( [%ContractedResourceCost_JP], SPLY0 )"
  ],
  "formatString": "#,##0.00 %",
  "displayFolder": "Σ SPLY",
  "annotations": [
    {
      "name": "TabularEditor_TranslatedNames",
      "value": "{\"de-DE\":\"% Vertragskosten Ressourcen SPLY\",\"en-US\":\"% Contracted Resource Cost SPLY\",\"nl-NL\":\"% Afgesproken resource kosten SPLY\"}"
    },
    {
      "name": "TabularEditor_TranslatedDescriptions",
      "value": "{\"de-DE\":\"Vertrag Ressourcen Kosten / Geplante Kosten\"}"
    },
    {
      "name": "TabularEditor_TranslatedDisplayFolders",
      "value": "{\"de-DE\":\"Σ SPLY\",\"en-US\":\"Σ SPLY\",\"nl-NL\":\"Σ SPLY\"}"
    }
  ]
}