{
  "name": "%ContractedGLCost_SPLY_Index_JP",
  "expression": "DIVIDE ( [%ContractedGLCost_JP], [%ContractedGLCost_SPLY_JP] ) * 100",
  "formatString": "#,##0.0",
  "displayFolder": "Σ SPLY Variance",
  "annotations": [
    {
      "name": "TabularEditor_TranslatedNames",
      "value": "{\"de-DE\":\"% Vertragserträge Kosten SPLY Index\",\"en-US\":\"% Contracted GL Cost SPLY Index\",\"nl-NL\":\"% Afgesproken grootboek kosten SPLY Index\"}"
    },
    {
      "name": "TabularEditor_TranslatedDescriptions",
      "value": "{\"de-DE\":\"Gesamt Kosten / Geplante Kosten\"}"
    },
    {
      "name": "TabularEditor_TranslatedDisplayFolders",
      "value": "{\"de-DE\":\"Σ SPLY Varianz\",\"en-US\":\"Σ SPLY Variance\",\"nl-NL\":\"Σ SPLY Variance\"}"
    }
  ]
}