{
  "name": "%ContractedItemNetSales_SPLY_Index_JP",
  "expression": "DIVIDE ( [%ContractedItemNetSales_JP], [%ContractedItemNetSales_SPLY_JP] ) * 100",
  "formatString": "#,##0.0",
  "displayFolder": "Σ SPLY Variance",
  "annotations": [
    {
      "name": "TabularEditor_TranslatedNames",
      "value": "{\"de-DE\":\"%  Verkauf lt. Vertrag Artikel SPLY Index\",\"en-US\":\"% Contracted Item Net Sales SPLY Index\",\"nl-NL\":\"% Afgesproken artikel netto verkoop SPLY Index\"}"
    },
    {
      "name": "TabularEditor_TranslatedDescriptions",
      "value": "{\"de-DE\":\"Verkauf lt. Vertrag Artikel / Geplante Artikel Netto Verkauf\"}"
    },
    {
      "name": "TabularEditor_TranslatedDisplayFolders",
      "value": "{\"de-DE\":\"Σ SPLY Varianz\",\"en-US\":\"Σ SPLY Variance\",\"nl-NL\":\"Σ SPLY Variance\"}"
    }
  ]
}