{
  "name": "%ContractedItemCost_SPLY_Variance_JP",
  "expression": "[%ContractedItemCost_JP] - [%ContractedItemCost_SPLY_JP]",
  "formatString": "#,##0.00 %",
  "displayFolder": "Σ SPLY Variance",
  "annotations": [
    {
      "name": "TabularEditor_TranslatedNames",
      "value": "{\"de-DE\":\"% Vertragskosten Artikel SPLY Varianz\",\"en-US\":\"% Contracted ItemCost SPLY Variance\",\"nl-NL\":\"% Afgesproken artikel kosten SPLY Variance\"}"
    },
    {
      "name": "TabularEditor_TranslatedDescriptions",
      "value": "{\"de-DE\":\"Vertrag Material Kosten / Geplante Materialkosten\"}"
    },
    {
      "name": "TabularEditor_TranslatedDisplayFolders",
      "value": "{\"de-DE\":\"Σ SPLY Varianz\",\"en-US\":\"Σ SPLY Variance\",\"nl-NL\":\"Σ SPLY Variance\"}"
    }
  ]
}