{
  "name": "%ContractedTotalNetSales_YTD_Index_JP",
  "expression": "DIVIDE ( [%ContractedTotalNetSales_YTD_JP], [%ContractedTotalNetSales_LYTD_JP] ) * 100",
  "formatString": "#,##0.0",
  "displayFolder": "Σ YTD Variance",
  "annotations": [
    {
      "name": "TabularEditor_TranslatedNames",
      "value": "{\"de-DE\":\"%  Verkauf lt. Vertrag YTD Index\",\"en-US\":\"% Contracted Total Net Sales YTD Index\",\"nl-NL\":\"% Afgesproken totale netto verkoop YTD Index\"}"
    },
    {
      "name": "TabularEditor_TranslatedDescriptions",
      "value": "{\"de-DE\":\"Vertrag Gesamte Netto Verkauf / Geplante Gesamte Netto Verkauf\"}"
    },
    {
      "name": "TabularEditor_TranslatedDisplayFolders",
      "value": "{\"de-DE\":\"Σ YTD Varianz\",\"en-US\":\"Σ YTD Variance\",\"nl-NL\":\"Σ YTD Variance\"}"
    }
  ]
}