{
  "name": "ContractedGLNetSales_SPLY_Variance%_JP",
  "expression": "DIVIDE ( [ContractedGLNetSales_JP] - [ContractedGLNetSales_SPLY_JP], [ContractedGLNetSales_SPLY_JP] )",
  "formatString": "#,##0.0 %",
  "displayFolder": "Σ SPLY Variance",
  "annotations": [
    {
      "name": "TabularEditor_TranslatedNames",
      "value": "{\"de-DE\":\"Verkauf lt. Vertrag Sachkonto SPLY Varianz %\",\"en-US\":\"Contracted GL Net Sales SPLY Variance %\",\"nl-NL\":\"Afgesproken netto verkoop SPLY Variance %\"}"
    },
    {
      "name": "TabularEditor_TranslatedDescriptions",
      "value": "{\"de-DE\":\"Verkauf lt. Vertrag - Rabatt\"}"
    },
    {
      "name": "TabularEditor_TranslatedDisplayFolders",
      "value": "{\"de-DE\":\"Σ SPLY Varianz\",\"en-US\":\"Σ SPLY Variance\",\"nl-NL\":\"Σ SPLY Variance\"}"
    }
  ]
}