{
  "name": "ContractedGLProfit_YTD_Variance_JP",
  "expression": "[ContractedGLProfit_YTD_JP] - [ContractedGLProfit_LYTD_JP]",
  "formatString": "#,##0.00",
  "displayFolder": "Σ YTD Variance",
  "annotations": [
    {
      "name": "TabularEditor_TranslatedNames",
      "value": "{\"de-DE\":\"DB lt. Vertrag Sachkonto YTD Varianz\",\"en-US\":\"Contracted GL Profit YTD Variance\",\"nl-NL\":\"Afgesproken grootboek winst YTD Variance\"}"
    },
    {
      "name": "TabularEditor_TranslatedDescriptions",
      "value": "{\"de-DE\":\"Vetrag Sachkonto Netto Verkauf - Kosten\"}"
    },
    {
      "name": "TabularEditor_TranslatedDisplayFolders",
      "value": "{\"de-DE\":\"Σ YTD Varianz\",\"en-US\":\"Σ YTD Variance\",\"nl-NL\":\"Σ YTD Variance\"}"
    }
  ]
}