{
  "name": "ContractedGLNetSales_JP",
  "description": "Contracted GL Sales - Discount",
  "expression": "[ContractedGLSales_JP] - [ContractedGLDiscount_JP]",
  "formatString": "#,##0.00",
  "annotations": [
    {
      "name": "TabularEditor_TranslatedNames",
      "value": "{\"de-DE\":\"Verkauf lt. Vertrag Sachkonto\",\"en-US\":\"Contracted GL Net Sales\",\"nl-NL\":\"Afgesproken netto verkoop\"}"
    },
    {
      "name": "TabularEditor_TranslatedDescriptions",
      "value": "{\"de-DE\":\"Verkauf lt. Vertrag - Rabatt\",\"en-US\":\"Contracted GL Sales - Discount\",\"nl-NL\":\"Afgesproken grootboek verkoop - korting\"}"
    }
  ]
}