{
  "name": "ContractedResourceCost_RY_JP",
  "expression": [
    "VAR RY0 =",
    "    FILTER (",
    "        ALL ( 'Date' ),",
    "        'Date'[DateID] <= MAX ( 'Date'[DateID] )",
    "            && 'Date'[Date] > MAX ( 'Date'[TDatePY] )",
    "    )",
    "RETURN",
    "    CALCULATE ( [ContractedResourceCost_JP], RY0 )"
  ],
  "formatString": "#,##0.00",
  "displayFolder": "Σ RY",
  "annotations": [
    {
      "name": "TabularEditor_TranslatedNames",
      "value": "{\"de-DE\":\"Vertrag Ressourcen Kosten RY\",\"en-US\":\"Contracted Resource Cost RY\",\"nl-NL\":\"Afgesproken resource kosten RY\"}"
    },
    {
      "name": "TabularEditor_TranslatedDescriptions",
      "value": "{\"de-DE\":\"Abteilungen/Projekte/Historie/Projektjournale\"}"
    },
    {
      "name": "TabularEditor_TranslatedDisplayFolders",
      "value": "{\"de-DE\":\"Σ RY\",\"en-US\":\"Σ RY\",\"nl-NL\":\"Σ RY\"}"
    }
  ]
}