{
  "name": "ContractedGLCost_SPLY_Variance%_JP",
  "expression": "DIVIDE ( [ContractedGLCost_JP] - [ContractedGLCost_SPLY_JP], [ContractedGLCost_SPLY_JP] )",
  "formatString": "#,##0.0 %",
  "displayFolder": "Σ SPLY Variance",
  "annotations": [
    {
      "name": "TabularEditor_TranslatedNames",
      "value": "{\"de-DE\":\"Kosten lt. Vertrag SPLY Varianz %\",\"en-US\":\"Contracted GL Cost SPLY Variance %\",\"nl-NL\":\"Afgesproken grootboek kosten SPLY Variance %\"}"
    },
    {
      "name": "TabularEditor_TranslatedDescriptions",
      "value": "{\"de-DE\":\"Abteilungen/Projekte/Historie/Projektjournale\"}"
    },
    {
      "name": "TabularEditor_TranslatedDisplayFolders",
      "value": "{\"de-DE\":\"Σ SPLY Varianz\",\"en-US\":\"Σ SPLY Variance\",\"nl-NL\":\"Σ SPLY Variance\"}"
    }
  ]
}