{
  "name": "ContractedResourceDiscount_JP",
  "description": "Departments/Jobs/Jobs > Job Planning Lines",
  "expression": "SUM ( 'factJobPlanning'[ContractedResourceDiscount_RCY] )",
  "formatString": "#,##0.00",
  "annotations": [
    {
      "name": "TabularEditor_TranslatedNames",
      "value": "{\"de-DE\":\"Vertrag Ressourcen Rabatt\",\"en-US\":\"Contracted Resource Discount\",\"nl-NL\":\"Afgesproken resource korting\"}"
    },
    {
      "name": "TabularEditor_TranslatedDescriptions",
      "value": "{\"de-DE\":\"Abteilungen/Projekte/Historie/Projektjournale\",\"en-US\":\"Departments/Jobs/Jobs > Job Planning Lines\",\"nl-NL\":\"Afdelingen/Projecten/Projecten > Project Planning\"}"
    }
  ]
}