{
  "name": "ContractedItemCost_SPLY_Variance%_JP",
  "expression": "DIVIDE ( [ContractedItemCost_JP] - [ContractedItemCost_SPLY_JP], [ContractedItemCost_SPLY_JP] )",
  "formatString": "#,##0.0 %",
  "displayFolder": "Σ SPLY Variance",
  "annotations": [
    {
      "name": "TabularEditor_TranslatedNames",
      "value": "{\"de-DE\":\"Vertrag Material Kosten SPLY Varianz %\",\"en-US\":\"Contracted Item Cost SPLY Variance %\",\"nl-NL\":\"Afgesproken artikel kosten SPLY Variance %\"}"
    },
    {
      "name": "TabularEditor_TranslatedDescriptions",
      "value": "{\"de-DE\":\"Abteilungen/Projekte/Historie/Projektjournale\"}"
    },
    {
      "name": "TabularEditor_TranslatedDisplayFolders",
      "value": "{\"de-DE\":\"Σ SPLY Varianz\",\"en-US\":\"Σ SPLY Variance\",\"nl-NL\":\"Σ SPLY Variance\"}"
    }
  ]
}