{
  "name": "ContractedResourceSales_YTD_Variance_JP",
  "expression": "[ContractedResourceSales_YTD_JP] - [ContractedResourceSales_LYTD_JP]",
  "formatString": "#,##0.00",
  "displayFolder": "Σ YTD Variance",
  "annotations": [
    {
      "name": "TabularEditor_TranslatedNames",
      "value": "{\"de-DE\":\"Vertrag Ressourcen Verkauf YTD Varianz\",\"en-US\":\"Contracted Resource Sales YTD Variance\",\"nl-NL\":\"Afgesproken resource verkoop YTD Variance\"}"
    },
    {
      "name": "TabularEditor_TranslatedDescriptions",
      "value": "{\"de-DE\":\"Abteilungen/Projekte/Historie/Projektjournale\"}"
    },
    {
      "name": "TabularEditor_TranslatedDisplayFolders",
      "value": "{\"de-DE\":\"Σ YTD Varianz\",\"en-US\":\"Σ YTD Variance\",\"nl-NL\":\"Σ YTD Variance\"}"
    }
  ]
}