{
  "name": "ContractedGLCost_YTD_Variance_JP",
  "expression": "[ContractedGLCost_YTD_JP] - [ContractedGLCost_LYTD_JP]",
  "formatString": "#,##0.00",
  "displayFolder": "Σ YTD Variance",
  "annotations": [
    {
      "name": "TabularEditor_TranslatedNames",
      "value": "{\"de-DE\":\"Kosten lt. Vertrag YTD Varianz\",\"en-US\":\"Contracted GL Cost YTD Variance\",\"nl-NL\":\"Afgesproken grootboek kosten YTD Variance\"}"
    },
    {
      "name": "TabularEditor_TranslatedDescriptions",
      "value": "{\"de-DE\":\"Abteilungen/Projekte/Historie/Projektjournale\"}"
    },
    {
      "name": "TabularEditor_TranslatedDisplayFolders",
      "value": "{\"de-DE\":\"Σ YTD Varianz\",\"en-US\":\"Σ YTD Variance\",\"nl-NL\":\"Σ YTD Variance\"}"
    }
  ]
}