{
  "name": "ContractedResourceProfit_SPLY_Index_JP",
  "expression": "DIVIDE ( [ContractedResourceProfit_JP], [ContractedResourceProfit_SPLY_JP] ) * 100",
  "formatString": "#,##0.0",
  "displayFolder": "Σ SPLY Variance",
  "annotations": [
    {
      "name": "TabularEditor_TranslatedNames",
      "value": "{\"de-DE\":\"%  Verkauf lt. Vertrag Ressource SPLY Index\",\"en-US\":\"Contracted Resource Profit SPLY Index\",\"nl-NL\":\"Afgesproken resource winst SPLY Index\"}"
    },
    {
      "name": "TabularEditor_TranslatedDescriptions",
      "value": "{\"de-DE\":\"Vertragskosten Ressourcen - Rabatt\"}"
    },
    {
      "name": "TabularEditor_TranslatedDisplayFolders",
      "value": "{\"de-DE\":\"Σ SPLY Varianz\",\"en-US\":\"Σ SPLY Variance\",\"nl-NL\":\"Σ SPLY Variance\"}"
    }
  ]
}