{
  "name": "ContractedGLSales_SPLY_Index_JP",
  "expression": "DIVIDE ( [ContractedGLSales_JP], [ContractedGLSales_SPLY_JP] ) * 100",
  "formatString": "#,##0.0",
  "displayFolder": "Σ SPLY Variance",
  "annotations": [
    {
      "name": "TabularEditor_TranslatedNames",
      "value": "{\"de-DE\":\"Verkauf lt. Vertrag SPLY Index\",\"en-US\":\"Contracted GL Sales SPLY Index\",\"nl-NL\":\"Afgesproken grootboek verkoop SPLY Index\"}"
    },
    {
      "name": "TabularEditor_TranslatedDescriptions",
      "value": "{\"de-DE\":\"Abteilungen/Projekte/Historie/Projektjournale\"}"
    },
    {
      "name": "TabularEditor_TranslatedDisplayFolders",
      "value": "{\"de-DE\":\"Σ SPLY Varianz\",\"en-US\":\"Σ SPLY Variance\",\"nl-NL\":\"Σ SPLY Variance\"}"
    }
  ]
}