{
  "name": "ContractedResourceCost_YTD_Index_JP",
  "expression": "DIVIDE ( [ContractedResourceCost_YTD_JP], [ContractedResourceCost_LYTD_JP] ) * 100",
  "formatString": "#,##0.0",
  "displayFolder": "Σ YTD Variance",
  "annotations": [
    {
      "name": "TabularEditor_TranslatedNames",
      "value": "{\"de-DE\":\"Vertrag Ressourcen Kosten YTD Index\",\"en-US\":\"Contracted Resource Cost YTD Index\",\"nl-NL\":\"Afgesproken resource kosten YTD Index\"}"
    },
    {
      "name": "TabularEditor_TranslatedDescriptions",
      "value": "{\"de-DE\":\"Abteilungen/Projekte/Historie/Projektjournale\"}"
    },
    {
      "name": "TabularEditor_TranslatedDisplayFolders",
      "value": "{\"de-DE\":\"Σ YTD Varianz\",\"en-US\":\"Σ YTD Variance\",\"nl-NL\":\"Σ YTD Variance\"}"
    }
  ]
}