{
  "name": "ContractedResourceDiscount_YTD_Variance_JP",
  "expression": "[ContractedResourceDiscount_YTD_JP] - [ContractedResourceDiscount_LYTD_JP]",
  "formatString": "#,##0.00",
  "displayFolder": "Σ YTD Variance",
  "annotations": [
    {
      "name": "TabularEditor_TranslatedNames",
      "value": "{\"de-DE\":\"Vertrag Ressourcen Rabatt YTD Varianz\",\"en-US\":\"Contracted Resource Discount YTD Variance\",\"nl-NL\":\"Afgesproken resource korting YTD Variance\"}"
    },
    {
      "name": "TabularEditor_TranslatedDescriptions",
      "value": "{\"de-DE\":\"Abteilungen/Projekte/Historie/Projektjournale\"}"
    },
    {
      "name": "TabularEditor_TranslatedDisplayFolders",
      "value": "{\"de-DE\":\"Σ YTD Varianz\",\"en-US\":\"Σ YTD Variance\",\"nl-NL\":\"Σ YTD Variance\"}"
    }
  ]
}