{
  "name": "ContractedGLDiscount_YTD_Variance%_JP",
  "expression": "DIVIDE ( [ContractedGLDiscount_YTD_JP] - [ContractedGLDiscount_LYTD_JP], [ContractedGLDiscount_LYTD_JP] )",
  "formatString": "#,##0.0 %",
  "displayFolder": "Σ YTD Variance",
  "annotations": [
    {
      "name": "TabularEditor_TranslatedNames",
      "value": "{\"de-DE\":\"Rabatt lt. Vertrag Sachkonto YTD Varianz %\",\"en-US\":\"Contracted GL Discount YTD Variance %\",\"nl-NL\":\"Afgesproken grootboek korting YTD Variance %\"}"
    },
    {
      "name": "TabularEditor_TranslatedDescriptions",
      "value": "{\"de-DE\":\"Abteilungen/Projekte/Historie/Projektjournale\"}"
    },
    {
      "name": "TabularEditor_TranslatedDisplayFolders",
      "value": "{\"de-DE\":\"Σ YTD Varianz\",\"en-US\":\"Σ YTD Variance\",\"nl-NL\":\"Σ YTD Variance\"}"
    }
  ]
}