{
  "name": "ContractedItemProfit_YTD_Index_JP",
  "expression": "DIVIDE ( [ContractedItemProfit_YTD_JP], [ContractedItemProfit_LYTD_JP] ) * 100",
  "formatString": "#,##0.0",
  "displayFolder": "Σ YTD Variance",
  "annotations": [
    {
      "name": "TabularEditor_TranslatedNames",
      "value": "{\"de-DE\":\"% der Vertragsartikelertrag YTD Index\",\"en-US\":\"Contracted Item Profit YTD Index\",\"nl-NL\":\"Afgesproken artikel winst YTD Index\"}"
    },
    {
      "name": "TabularEditor_TranslatedDescriptions",
      "value": "{\"de-DE\":\"Verkauf lt. Vertrag Artikel - Kosten\"}"
    },
    {
      "name": "TabularEditor_TranslatedDisplayFolders",
      "value": "{\"de-DE\":\"Σ YTD Varianz\",\"en-US\":\"Σ YTD Variance\",\"nl-NL\":\"Σ YTD Variance\"}"
    }
  ]
}