{
  "name": "ContractedItemNetSales_JP",
  "description": "Contracted Item Sales - Discount",
  "expression": "[ContractedItemSales_JP] - [ContractedItemDiscount_JP]",
  "formatString": "#,##0.00",
  "annotations": [
    {
      "name": "TabularEditor_TranslatedNames",
      "value": "{\"de-DE\":\"Verkauf lt. Vertrag Artikel\",\"en-US\":\"Contracted Item Net Sales\",\"nl-NL\":\"Afgesproken artikel netto verkoop\"}"
    },
    {
      "name": "TabularEditor_TranslatedDescriptions",
      "value": "{\"de-DE\":\"Vertrag Anzahl Verkauf - Rabatt\",\"en-US\":\"Contracted Item Sales - Discount\",\"nl-NL\":\"Afgesproken artikel verkoop - korting\"}"
    }
  ]
}