{
  "name": "ScheduledItemDiscount_YTD_Variance_JP",
  "expression": "[ScheduledItemDiscount_YTD_JP] - [ScheduledItemDiscount_LYTD_JP]",
  "formatString": "#,##0.00",
  "displayFolder": "Σ YTD Variance",
  "annotations": [
    {
      "name": "TabularEditor_TranslatedNames",
      "value": "{\"de-DE\":\"Geplanter Artikel Rabatt YTD Varianz\",\"en-US\":\"Scheduled Item Discount YTD Variance\",\"nl-NL\":\"Geplande artikel korting YTD Variance\"}"
    },
    {
      "name": "TabularEditor_TranslatedDescriptions",
      "value": "{\"de-DE\":\"Abteilungen/Projekte/Historie/Projektjournale\"}"
    },
    {
      "name": "TabularEditor_TranslatedDisplayFolders",
      "value": "{\"de-DE\":\"Σ YTD Varianz\",\"en-US\":\"Σ YTD Variance\",\"nl-NL\":\"Σ YTD Variance\"}"
    }
  ]
}