{
  "name": "ScheduledItemCost_YTD_Variance_JP",
  "expression": "[ScheduledItemCost_YTD_JP] - [ScheduledItemCost_LYTD_JP]",
  "formatString": "#,##0.00",
  "displayFolder": "Σ YTD Variance",
  "annotations": [
    {
      "name": "TabularEditor_TranslatedNames",
      "value": "{\"de-DE\":\"Geplante Materialkosten YTD Varianz\",\"en-US\":\"Scheduled Item Cost YTD Variance\",\"nl-NL\":\"Geplande artikel kosten YTD Variance\"}"
    },
    {
      "name": "TabularEditor_TranslatedDescriptions",
      "value": "{\"de-DE\":\"Abteilungen/Projekte/Historie/Projektjournale\"}"
    },
    {
      "name": "TabularEditor_TranslatedDisplayFolders",
      "value": "{\"de-DE\":\"Σ YTD Varianz\",\"en-US\":\"Σ YTD Variance\",\"nl-NL\":\"Σ YTD Variance\"}"
    }
  ]
}