{
  "name": "ScheduledGLCost_SPLY_Variance_JP",
  "expression": "[ScheduledGLCost_JP] - [ScheduledGLCost_SPLY_JP]",
  "formatString": "#,##0.00",
  "displayFolder": "Σ SPLY Variance",
  "annotations": [
    {
      "name": "TabularEditor_TranslatedNames",
      "value": "{\"de-DE\":\"Geplanter Verkauf Sachkonto SPLY Varianz\",\"en-US\":\"Scheduled GL Cost SPLY Variance\",\"nl-NL\":\"Geplande grootboek kosten SPLY Variance\"}"
    },
    {
      "name": "TabularEditor_TranslatedDescriptions",
      "value": "{\"de-DE\":\"Abteilungen/Projekte/Historie/Projektjournale\"}"
    },
    {
      "name": "TabularEditor_TranslatedDisplayFolders",
      "value": "{\"de-DE\":\"Σ SPLY Varianz\",\"en-US\":\"Σ SPLY Variance\",\"nl-NL\":\"Σ SPLY Variance\"}"
    }
  ]
}