{
  "name": "ScheduledResourceCost_SPLY_Index_JP",
  "expression": "DIVIDE ( [ScheduledResourceCost_JP], [ScheduledResourceCost_SPLY_JP] ) * 100",
  "formatString": "#,##0.0",
  "displayFolder": "Σ SPLY Variance",
  "annotations": [
    {
      "name": "TabularEditor_TranslatedNames",
      "value": "{\"de-DE\":\"Geplante Ressourcen Kosten SPLY Index\",\"en-US\":\"Scheduled Resource Cost SPLY Index\",\"nl-NL\":\"Geplande resource kosten SPLY Index\"}"
    },
    {
      "name": "TabularEditor_TranslatedDescriptions",
      "value": "{\"de-DE\":\"Abteilungen/Projekte/Historie/Projektjournale\"}"
    },
    {
      "name": "TabularEditor_TranslatedDisplayFolders",
      "value": "{\"de-DE\":\"Σ SPLY Varianz\",\"en-US\":\"Σ SPLY Variance\",\"nl-NL\":\"Σ SPLY Variance\"}"
    }
  ]
}