{
  "name": "ScheduledResourceCost_SPLY_Variance%_JP",
  "expression": "DIVIDE ( [ScheduledResourceCost_JP] - [ScheduledResourceCost_SPLY_JP], [ScheduledResourceCost_SPLY_JP] )",
  "formatString": "#,##0.0 %",
  "displayFolder": "Σ SPLY Variance",
  "annotations": [
    {
      "name": "TabularEditor_TranslatedNames",
      "value": "{\"de-DE\":\"Geplante Ressourcen Kosten SPLY Varianz %\",\"en-US\":\"Scheduled Resource Cost SPLY Variance %\",\"nl-NL\":\"Geplande resource kosten SPLY Variance %\"}"
    },
    {
      "name": "TabularEditor_TranslatedDescriptions",
      "value": "{\"de-DE\":\"Abteilungen/Projekte/Historie/Projektjournale\"}"
    },
    {
      "name": "TabularEditor_TranslatedDisplayFolders",
      "value": "{\"de-DE\":\"Σ SPLY Varianz\",\"en-US\":\"Σ SPLY Variance\",\"nl-NL\":\"Σ SPLY Variance\"}"
    }
  ]
}