{
  "name": "ScheduledResourceProfit_SPLY_Variance%_JP",
  "expression": "DIVIDE ( [ScheduledResourceProfit_JP] - [ScheduledResourceProfit_SPLY_JP], [ScheduledResourceProfit_SPLY_JP] )",
  "formatString": "#,##0.0 %",
  "displayFolder": "Σ SPLY Variance",
  "annotations": [
    {
      "name": "TabularEditor_TranslatedNames",
      "value": "{\"de-DE\":\"Geplanter Ressource Ertrag SPLY Varianz %\",\"en-US\":\"Scheduled Resource Profit SPLY Variance %\",\"nl-NL\":\"Geplande resource winst SPLY Variance %\"}"
    },
    {
      "name": "TabularEditor_TranslatedDescriptions",
      "value": "{\"de-DE\":\"Geplanter Verkauf Ressource - Kosten\"}"
    },
    {
      "name": "TabularEditor_TranslatedDisplayFolders",
      "value": "{\"de-DE\":\"Σ SPLY Varianz\",\"en-US\":\"Σ SPLY Variance\",\"nl-NL\":\"Σ SPLY Variance\"}"
    }
  ]
}