{
  "name": "ScheduledItemNetSales_SPLY_Variance%_JP",
  "expression": "DIVIDE ( [ScheduledItemNetSales_JP] - [ScheduledItemNetSales_SPLY_JP], [ScheduledItemNetSales_SPLY_JP] )",
  "formatString": "#,##0.0 %",
  "displayFolder": "Σ SPLY Variance",
  "annotations": [
    {
      "name": "TabularEditor_TranslatedNames",
      "value": "{\"de-DE\":\"Geplanter Verkauf Artikel SPLY Varianz %\",\"en-US\":\"Scheduled Item Net Sales SPLY Variance %\",\"nl-NL\":\"Geplande artikel netto verkoop SPLY Variance %\"}"
    },
    {
      "name": "TabularEditor_TranslatedDescriptions",
      "value": "{\"de-DE\":\"Geplanter Verkauf Artikel - Rabatt\"}"
    },
    {
      "name": "TabularEditor_TranslatedDisplayFolders",
      "value": "{\"de-DE\":\"Σ SPLY Varianz\",\"en-US\":\"Σ SPLY Variance\",\"nl-NL\":\"Σ SPLY Variance\"}"
    }
  ]
}