{
  "name": "ScheduledGLCost_YTD_Index_JP",
  "expression": "DIVIDE ( [ScheduledGLCost_YTD_JP], [ScheduledGLCost_LYTD_JP] ) * 100",
  "formatString": "#,##0.0",
  "displayFolder": "Σ YTD Variance",
  "annotations": [
    {
      "name": "TabularEditor_TranslatedNames",
      "value": "{\"de-DE\":\"Geplanter Verkauf Sachkonto YTD Index\",\"en-US\":\"Scheduled GL Cost YTD Index\",\"nl-NL\":\"Geplande grootboek kosten YTD Index\"}"
    },
    {
      "name": "TabularEditor_TranslatedDescriptions",
      "value": "{\"de-DE\":\"Abteilungen/Projekte/Historie/Projektjournale\"}"
    },
    {
      "name": "TabularEditor_TranslatedDisplayFolders",
      "value": "{\"de-DE\":\"Σ YTD Varianz\",\"en-US\":\"Σ YTD Variance\",\"nl-NL\":\"Σ YTD Variance\"}"
    }
  ]
}