{
  "name": "ScheduledItemSales_YTD_Variance%_JP",
  "expression": "DIVIDE ( [ScheduledItemSales_YTD_JP] - [ScheduledItemSales_LYTD_JP], [ScheduledItemSales_LYTD_JP] )",
  "formatString": "#,##0.0 %",
  "displayFolder": "Σ YTD Variance",
  "annotations": [
    {
      "name": "TabularEditor_TranslatedNames",
      "value": "{\"de-DE\":\"Geplante VerkaufsMenge YTD Varianz %\",\"en-US\":\"Scheduled Item Sales YTD Variance %\",\"nl-NL\":\"Geplande artikel verkoop YTD Variance %\"}"
    },
    {
      "name": "TabularEditor_TranslatedDescriptions",
      "value": "{\"de-DE\":\"Abteilungen/Projekte/Historie/Projektjournale\"}"
    },
    {
      "name": "TabularEditor_TranslatedDisplayFolders",
      "value": "{\"de-DE\":\"Σ YTD Varianz\",\"en-US\":\"Σ YTD Variance\",\"nl-NL\":\"Σ YTD Variance\"}"
    }
  ]
}