{
  "name": "ScheduledGLProfit_SPLY_Index_JP",
  "expression": "DIVIDE ( [ScheduledGLProfit_JP], [ScheduledGLProfit_SPLY_JP] ) * 100",
  "formatString": "#,##0.0",
  "displayFolder": "Σ SPLY Variance",
  "annotations": [
    {
      "name": "TabularEditor_TranslatedNames",
      "value": "{\"de-DE\":\"Geplanter Verkauf Sachkonto\",\"en-US\":\"Scheduled GL Profit SPLY Index\",\"nl-NL\":\"Geplande grootboek winst SPLY Index\"}"
    },
    {
      "name": "TabularEditor_TranslatedDescriptions",
      "value": "{\"de-DE\":\"Geplanter Verkauf Sachkonto - Rabatt\"}"
    },
    {
      "name": "TabularEditor_TranslatedDisplayFolders",
      "value": "{\"en-US\":\"Σ SPLY Variance\",\"nl-NL\":\"Σ SPLY Variance\"}"
    }
  ]
}