{
  "name": "ScheduledGLNetSales_YTD_Index_JP",
  "expression": "DIVIDE ( [ScheduledGLNetSales_YTD_JP], [ScheduledGLNetSales_LYTD_JP] ) * 100",
  "formatString": "#,##0.0",
  "displayFolder": "Σ YTD Variance",
  "annotations": [
    {
      "name": "TabularEditor_TranslatedNames",
      "value": "{\"de-DE\":\"Geplanter Rabatt Sachkonto RY\",\"en-US\":\"Scheduled GL Net Sales YTD Index\",\"nl-NL\":\"Geplande grootboek netto verkoop YTD Index\"}"
    },
    {
      "name": "TabularEditor_TranslatedDescriptions",
      "value": "{\"de-DE\":\"Abteilungen/Projekte/Historie/Projektjournale\"}"
    },
    {
      "name": "TabularEditor_TranslatedDisplayFolders",
      "value": "{\"de-DE\":\"Σ RY\",\"en-US\":\"Σ YTD Variance\",\"nl-NL\":\"Σ YTD Variance\"}"
    }
  ]
}