{
  "name": "ScheduledResourceSales_YTD_Index_JP",
  "expression": "DIVIDE ( [ScheduledResourceSales_YTD_JP], [ScheduledResourceSales_LYTD_JP] ) * 100",
  "formatString": "#,##0.0",
  "displayFolder": "Σ YTD Variance",
  "annotations": [
    {
      "name": "TabularEditor_TranslatedNames",
      "value": "{\"de-DE\":\"Geplante Ressourcen Verkauf YTD Index\",\"en-US\":\"Scheduled Resource Sales YTD Index\",\"nl-NL\":\"Geplande resource verkoop YTD Index\"}"
    },
    {
      "name": "TabularEditor_TranslatedDescriptions",
      "value": "{\"de-DE\":\"Abteilungen/Projekte/Historie/Projektjournale\"}"
    },
    {
      "name": "TabularEditor_TranslatedDisplayFolders",
      "value": "{\"de-DE\":\"Σ YTD Varianz\",\"en-US\":\"Σ YTD Variance\",\"nl-NL\":\"Σ YTD Variance\"}"
    }
  ]
}