{
  "name": "ScheduledGLCost_YTD_Variance_JP",
  "expression": "[ScheduledGLCost_YTD_JP] - [ScheduledGLCost_LYTD_JP]",
  "formatString": "#,##0.00",
  "displayFolder": "Σ YTD Variance",
  "annotations": [
    {
      "name": "TabularEditor_TranslatedNames",
      "value": "{\"de-DE\":\"Geplanter Verkauf Sachkonto YTD Varianz\",\"en-US\":\"Scheduled GL Cost YTD Variance\",\"nl-NL\":\"Geplande grootboek kosten YTD Variance\"}"
    },
    {
      "name": "TabularEditor_TranslatedDescriptions",
      "value": "{\"de-DE\":\"Abteilungen/Projekte/Historie/Projektjournale\"}"
    },
    {
      "name": "TabularEditor_TranslatedDisplayFolders",
      "value": "{\"de-DE\":\"Σ YTD Varianz\",\"en-US\":\"Σ YTD Variance\",\"nl-NL\":\"Σ YTD Variance\"}"
    }
  ]
}