{
  "name": "ScheduledItemNetSales_YTD_Variance%_JP",
  "expression": "DIVIDE ( [ScheduledItemNetSales_YTD_JP] - [ScheduledItemNetSales_LYTD_JP], [ScheduledItemNetSales_LYTD_JP] )",
  "formatString": "#,##0.0 %",
  "displayFolder": "Σ YTD Variance",
  "annotations": [
    {
      "name": "TabularEditor_TranslatedNames",
      "value": "{\"de-DE\":\"Geplanter Verkauf Artikel YTD Varianz %\",\"en-US\":\"Scheduled Item Net Sales YTD Variance %\",\"nl-NL\":\"Geplande artikel netto verkoop YTD Variance %\"}"
    },
    {
      "name": "TabularEditor_TranslatedDescriptions",
      "value": "{\"de-DE\":\"Geplanter Verkauf Artikel - Rabatt\"}"
    },
    {
      "name": "TabularEditor_TranslatedDisplayFolders",
      "value": "{\"de-DE\":\"Σ YTD Varianz\",\"en-US\":\"Σ YTD Variance\",\"nl-NL\":\"Σ YTD Variance\"}"
    }
  ]
}