{
  "name": "TotalContractedGrossSales_YTD_Variance%_JP",
  "expression": "DIVIDE ( [TotalContractedGrossSales_YTD_JP] - [TotalContractedGrossSales_LYTD_JP], [TotalContractedGrossSales_LYTD_JP] )",
  "formatString": "#,##0.0 %",
  "displayFolder": "Σ YTD Variance",
  "annotations": [
    {
      "name": "TabularEditor_TranslatedNames",
      "value": "{\"de-DE\":\"Brutto-Verkauf lt. Vertrag YTD Varianz %\",\"en-US\":\"Total Contracted Gross Sales YTD Variance %\",\"nl-NL\":\"Totaal afgesproken bruto verkoop YTD Variance %\"}"
    },
    {
      "name": "TabularEditor_TranslatedDescriptions",
      "value": "{\"de-DE\":\"Vertrag Sachkonto + Artikel + Ressource Verkauf\"}"
    },
    {
      "name": "TabularEditor_TranslatedDisplayFolders",
      "value": "{\"de-DE\":\"Σ YTD Varianz\",\"en-US\":\"Σ YTD Variance\",\"nl-NL\":\"Σ YTD Variance\"}"
    }
  ]
}