{
  "name": "TotalScheduledGrossSales_SPLY_Variance%_JP",
  "expression": "DIVIDE ( [TotalScheduledGrossSales_JP] - [TotalScheduledGrossSales_SPLY_JP], [TotalScheduledGrossSales_SPLY_JP] )",
  "formatString": "#,##0.0 %",
  "displayFolder": "Σ SPLY Variance",
  "annotations": [
    {
      "name": "TabularEditor_TranslatedNames",
      "value": "{\"de-DE\":\"Gesamt gepl. Brutto Verkauf SPLY Varianz %\",\"en-US\":\"Total Scheduled Gross Sales SPLY Variance %\",\"nl-NL\":\"Totaal geplande bruto verkoop SPLY Variance %\"}"
    },
    {
      "name": "TabularEditor_TranslatedDescriptions",
      "value": "{\"de-DE\":\"Geplante Sachkonto + Artikel + Ressource Verkauf\"}"
    },
    {
      "name": "TabularEditor_TranslatedDisplayFolders",
      "value": "{\"de-DE\":\"Σ SPLY Varianz\",\"en-US\":\"Σ SPLY Variance\",\"nl-NL\":\"Σ SPLY Variance\"}"
    }
  ]
}