{
  "name": "TotalScheduledDiscount_SPLY_Index_JP",
  "expression": "DIVIDE ( [TotalScheduledDiscount_JP], [TotalScheduledDiscount_SPLY_JP] ) * 100",
  "formatString": "#,##0.0",
  "displayFolder": "Σ SPLY Variance",
  "annotations": [
    {
      "name": "TabularEditor_TranslatedNames",
      "value": "{\"de-DE\":\"Gesamt gepl. Rabatt SPLY Index\",\"en-US\":\"Total Scheduled Discount SPLY Index\",\"nl-NL\":\"Totaal geplande korting SPLY Index\"}"
    },
    {
      "name": "TabularEditor_TranslatedDescriptions",
      "value": "{\"de-DE\":\"Geplante Sachkonto + Artikel + Ressource Rabatt\"}"
    },
    {
      "name": "TabularEditor_TranslatedDisplayFolders",
      "value": "{\"de-DE\":\"Σ SPLY Varianz\",\"en-US\":\"Σ SPLY Variance\",\"nl-NL\":\"Σ SPLY Variance\"}"
    }
  ]
}