{
  "name": "TotalScheduledGrossSales_YTD_Variance_JP",
  "expression": "[TotalScheduledGrossSales_YTD_JP] - [TotalScheduledGrossSales_LYTD_JP]",
  "formatString": "#,##0.00",
  "displayFolder": "Σ YTD Variance",
  "annotations": [
    {
      "name": "TabularEditor_TranslatedNames",
      "value": "{\"de-DE\":\"Gesamt gepl. Brutto Verkauf YTD Varianz\",\"en-US\":\"Total Scheduled Gross Sales YTD Variance\",\"nl-NL\":\"Totaal geplande bruto verkoop YTD Variance\"}"
    },
    {
      "name": "TabularEditor_TranslatedDescriptions",
      "value": "{\"de-DE\":\"Geplante Sachkonto + Artikel + Ressource Verkauf\"}"
    },
    {
      "name": "TabularEditor_TranslatedDisplayFolders",
      "value": "{\"de-DE\":\"Σ YTD Varianz\",\"en-US\":\"Σ YTD Variance\",\"nl-NL\":\"Σ YTD Variance\"}"
    }
  ]
}