{
  "name": "TotalScheduledProfit_SPLY_Variance_JP",
  "expression": "[TotalScheduledProfit_JP] - [TotalScheduledProfit_SPLY_JP]",
  "formatString": "#,##0.00",
  "displayFolder": "Σ SPLY Variance",
  "annotations": [
    {
      "name": "TabularEditor_TranslatedNames",
      "value": "{\"de-DE\":\"Gesamt gepl. Ertrag SPLY Varianz\",\"en-US\":\"Total Scheduled Profit SPLY Variance\",\"nl-NL\":\"Total geplande winst SPLY Variance\"}"
    },
    {
      "name": "TabularEditor_TranslatedDescriptions",
      "value": "{\"de-DE\":\"Geplante Sachkonto + Artikel + Ressource Ertrag\"}"
    },
    {
      "name": "TabularEditor_TranslatedDisplayFolders",
      "value": "{\"de-DE\":\"Σ SPLY Varianz\",\"en-US\":\"Σ SPLY Variance\",\"nl-NL\":\"Σ SPLY Variance\"}"
    }
  ]
}