{
  "name": "TotalScheduledProfit_YTD_Index_JP",
  "expression": "DIVIDE ( [TotalScheduledProfit_YTD_JP], [TotalScheduledProfit_LYTD_JP] ) * 100",
  "formatString": "#,##0.0",
  "displayFolder": "Σ YTD Variance",
  "annotations": [
    {
      "name": "TabularEditor_TranslatedNames",
      "value": "{\"de-DE\":\"Gesamt gepl. Ertrag YTD Index\",\"en-US\":\"Total Scheduled Profit YTD Index\",\"nl-NL\":\"Total geplande winst YTD Index\"}"
    },
    {
      "name": "TabularEditor_TranslatedDescriptions",
      "value": "{\"de-DE\":\"Geplante Sachkonto + Artikel + Ressource Ertrag\"}"
    },
    {
      "name": "TabularEditor_TranslatedDisplayFolders",
      "value": "{\"de-DE\":\"Σ YTD Varianz\",\"en-US\":\"Σ YTD Variance\",\"nl-NL\":\"Σ YTD Variance\"}"
    }
  ]
}