{
  "name": "TotalContractedDiscount_YTD_Variance%_JP",
  "expression": "DIVIDE ( [TotalContractedDiscount_YTD_JP] - [TotalContractedDiscount_LYTD_JP], [TotalContractedDiscount_LYTD_JP] )",
  "formatString": "#,##0.0 %",
  "displayFolder": "Σ YTD Variance",
  "annotations": [
    {
      "name": "TabularEditor_TranslatedNames",
      "value": "{\"de-DE\":\"Gesamt Rabatt lt. Vertrag YTD Varianz %\",\"en-US\":\"Total Contracted Discount YTD Variance %\",\"nl-NL\":\"Totaal afgesproken korting YTD Variance %\"}"
    },
    {
      "name": "TabularEditor_TranslatedDescriptions",
      "value": "{\"de-DE\":\"Vertrag Sachkonto + Artikel + Ressource Rabatt\"}"
    },
    {
      "name": "TabularEditor_TranslatedDisplayFolders",
      "value": "{\"de-DE\":\"Σ YTD Varianz\",\"en-US\":\"Σ YTD Variance\",\"nl-NL\":\"Σ YTD Variance\"}"
    }
  ]
}