{
  "name": "InvoicedQuantity_YTD_SRS",
  "description": "Returned Quantity Invoiced. NAV: Sales > Order Processing > Return Orders > Lines > Quantity Invoiced",
  "expression": [
    "VAR YTD0 =",
    "    FILTER (",
    "        ALL ( 'Date' ),",
    "        'Date'[CYearNo] = MAX ( 'Date'[CYearNo] )",
    "            && 'Date'[DateID] <= MAX ( 'Date'[DateID] )",
    "    )",
    "RETURN",
    "    CALCULATE ( [InvoicedQuantity_SRS], YTD0 )"
  ],
  "formatString": "#,##0",
  "displayFolder": "Σ YTD",
  "annotations": [
    {
      "name": "TabularEditor_TranslatedNames",
      "value": "{\"de-DE\":\"Reklamation Bereits berech. Menge YTD\",\"en-US\":\"Returned Quantity Invoiced YTD\",\"nl-NL\":\"Gefactureerd retour aantal YTD\"}"
    },
    {
      "name": "TabularEditor_TranslatedDescriptions",
      "value": "{\"de-DE\":\"Abteilungen/Verkauf & Marketing/Auftragsabwicklung/Verkaufsreklamationen/Zeilen\",\"en-US\":\"Returned Quantity Invoiced. NAV: Sales > Order Processing > Return Orders > Lines > Quantity Invoiced\",\"nl-NL\":\"Gefactureerd retour aantal verschil tov  vorig jaar. NAV: Verkoop > Orderverwerking > Retour orders > Regels > Gefactureerd Aantal\"}"
    },
    {
      "name": "TabularEditor_TranslatedDisplayFolders",
      "value": "{\"de-DE\":\"Σ YTD\",\"en-US\":\"Σ YTD\",\"nl-NL\":\"Σ YTD\"}"
    }
  ]
}