{
  "name": "ShippedAmount_YTD_Variance%_SRS",
  "description": "Returned Amount. NAV: Sales > Order Processing > Return orders > Lines > Line Amount Excl VAT",
  "expression": "DIVIDE ( [ShippedAmount_YTD_Variance_SRS], [ShippedAmount_LYTD_SRS] )",
  "formatString": "#,##0.0 %",
  "displayFolder": "Σ LYTD Variance",
  "annotations": [
    {
      "name": "TabularEditor_TranslatedNames",
      "value": "{\"de-DE\":\"Reklamation Betrag geliefert YTD Varianz %\",\"en-US\":\"Returned Amount YTD Variance %\",\"nl-NL\":\"Retour bedrag YTD verschil %\"}"
    },
    {
      "name": "TabularEditor_TranslatedDescriptions",
      "value": "{\"de-DE\":\"Abteilungen/Verkauf & Marketing/Auftragsabwicklung/Verkaufsreklamationen/Zeilen\",\"en-US\":\"Returned Amount. NAV: Sales > Order Processing > Return orders > Lines > Line Amount Excl VAT\",\"nl-NL\":\"Retour Bedrag. NAV: Verkoop > Orderverwerking > Leveringen > Retourorders > Regelbedrag Excl. BTW\"}"
    },
    {
      "name": "TabularEditor_TranslatedDisplayFolders",
      "value": "{\"de-DE\":\"Σ LYTD Varianz\",\"en-US\":\"Σ LYTD Variance\"}"
    }
  ]
}