{
  "name": "ShippedGrossWeight_LYMTD_SRS",
  "description": "Returned Gross Weight. Quantity Returned * Gross Weight of the Item",
  "expression": [
    "VAR LYMTD =",
    "    FILTER (",
    "        ALL ( 'Date' ),",
    "        'Date'[Date] <= MAX ( 'Date'[TDatePY] )",
    "            && 'Date'[CMonthNo] = MAX ( 'Date'[CMonthNo] )",
    "            && 'Date'[CYearNo]",
    "                = MAX ( 'Date'[CYearNo] ) - 1",
    "    )",
    "RETURN",
    "    CALCULATE ( [ShippedGrossWeight_SRS], LYMTD )"
  ],
  "formatString": "#,##0.00",
  "displayFolder": "Σ LYMTD",
  "annotations": [
    {
      "name": "TabularEditor_TranslatedNames",
      "value": "{\"de-DE\":\"Reklamation Bruttogewicht LYMTD\",\"en-US\":\"Returned Gross Weight LYMTD\",\"nl-NL\":\"Retour bruto gewicht LYMTD\"}"
    },
    {
      "name": "TabularEditor_TranslatedDescriptions",
      "value": "{\"de-DE\":\"Abteilungen/Verkauf & Marketing/Auftragsabwicklung/Verkaufsreklamationen/Zeilen\",\"en-US\":\"Returned Gross Weight. Quantity Returned * Gross Weight of the Item\",\"nl-NL\":\"Retour Bruto Gewicht. Retour Aantal * Bruto Gewicht van het artikel\"}"
    },
    {
      "name": "TabularEditor_TranslatedDisplayFolders",
      "value": "{\"de-DE\":\"Σ LYMTD\",\"en-US\":\"Σ LYMTD\",\"nl-NL\":\"Σ LYMTD\"}"
    }
  ]
}