{
  "name": "ShippedQuantity_YTD_Variance_SRS",
  "description": "Quantity Returned. NAV: Sales > Order Processing > Return Orders > Lines > Quantity",
  "expression": "[ShippedQuantity_YTD_SRS] - [ShippedQuantity_LYTD_SRS]",
  "formatString": "#,##0",
  "displayFolder": "Σ LYTD Variance",
  "annotations": [
    {
      "name": "TabularEditor_TranslatedNames",
      "value": "{\"de-DE\":\"Reklamation Menge geliefert YTD Varianz\",\"en-US\":\"Quantity Returned  YTD Variance\",\"nl-NL\":\"Retour aantal YTD verschil\"}"
    },
    {
      "name": "TabularEditor_TranslatedDescriptions",
      "value": "{\"de-DE\":\"Abteilungen/Verkauf & Marketing/Auftragsabwicklung/Verkaufsreklamationen/Zeilen\",\"en-US\":\"Quantity Returned. NAV: Sales > Order Processing > Return Orders > Lines > Quantity\",\"nl-NL\":\"Retour aantal. NAV: Verkoop > Orderverwerking > Retourorders > Regels > Retour Aantal\"}"
    },
    {
      "name": "TabularEditor_TranslatedDisplayFolders",
      "value": "{\"de-DE\":\"Σ LYTD Varianz\",\"en-US\":\"Σ LYTD Variance\"}"
    }
  ]
}