{
  "name": "#TransferDocuments_TR",
  "expression": "SUM ( 'factTransferReceipt'[DocumentTransferID] )",
  "formatString": "#,##0.00",
  "annotations": [
    {
      "name": "TabularEditor_TranslatedNames",
      "value": "{\"de-DE\":\"# Umbuchungsbelege\",\"en-US\":\"# Transfer Documents\",\"nl-NL\":\"# Transferdocumenten\"}"
    },
    {
      "name": "TabularEditor_TranslatedDescriptions",
      "value": "{\"de-DE\":\"Abteilungen/Lager/Historie/Gebuchte Belege/Geb. Umlag.-Eingänge/Zeilen\",\"en-US\":\"Departments/Inventory and Warehouse/History/Posted Transfer Receipts\",\"nl-NL\":\"Afdelingen/Voorraad en magazijn/Historie/Geboekte transferontvangsten\"}"
    }
  ]
}