{
  "name": "TransferReceiptQuantityBase_YTD_Variance%_TR",
  "description": " YTD Variance %",
  "expression": "DIVIDE ( [TransferReceiptQuantityBase_YTD_TR] - [TransferReceiptQuantityBase_LYTD_TR], [TransferReceiptQuantityBase_LYTD_TR] )",
  "formatString": "#,##0.0 %",
  "displayFolder": "Σ YTD Variance",
  "annotations": [
    {
      "name": "TabularEditor_TranslatedNames",
      "value": "{\"de-DE\":\"Umbuchungsbeleg Menge (Basis) YTD Varianz %\",\"en-US\":\"Quantity (Base) YTD Variance %\",\"nl-NL\":\"Aantal (basis) YTD Variance %\"}"
    },
    {
      "name": "TabularEditor_TranslatedDescriptions",
      "value": "{\"de-DE\":\"Abteilungen/Lager/Historie/Gebuchte Belege/Geb. Umlag.-Eingänge/Zeilen\",\"en-US\":\"Departments/Inventory and Warehouse/History/Posted Transfer Receipts/Quantity (Base) YTD Variance %\",\"nl-NL\":\"Afdelingen/Voorraad en magazijn/Historie/Geboekte transferontvangsten/Aantal (basis) YTD Variance %\"}"
    },
    {
      "name": "TabularEditor_TranslatedDisplayFolders",
      "value": "{\"de-DE\":\"Σ YTD Varianz\",\"en-US\":\"Σ YTD Variance\",\"nl-NL\":\"Σ YTD Variance\"}"
    }
  ]
}