{
  "connection_types": [],
  "tables": [
    {
      "table_identifier": "dbo.Production Forecast Entry",
      "columns": [
        {
          "column_name": "Component Forecast",
          "data_type": "tinyint",
          "character_maximum_length": 0,
          "numeric_precision": 3,
          "numeric_scale": 0,
          "nullable": false,
          "business_key": false
        },
        {
          "column_name": "Description",
          "data_type": "nvarchar",
          "character_maximum_length": 50,
          "numeric_precision": 0,
          "numeric_scale": 0,
          "nullable": false,
          "business_key": false
        },
        {
          "column_name": "Entry No_",
          "data_type": "int",
          "character_maximum_length": 0,
          "numeric_precision": 10,
          "numeric_scale": 0,
          "nullable": false,
          "business_key": true
        },
        {
          "column_name": "Forecast Date",
          "data_type": "datetime",
          "character_maximum_length": 0,
          "numeric_precision": 0,
          "numeric_scale": 0,
          "nullable": false,
          "business_key": false
        },
        {
          "column_name": "Forecast Quantity",
          "data_type": "decimal",
          "character_maximum_length": 0,
          "numeric_precision": 38,
          "numeric_scale": 20,
          "nullable": false,
          "business_key": false
        },
        {
          "column_name": "Forecast Quantity (Base)",
          "data_type": "decimal",
          "character_maximum_length": 0,
          "numeric_precision": 38,
          "numeric_scale": 20,
          "nullable": false,
          "business_key": false
        },
        {
          "column_name": "Item No_",
          "data_type": "nvarchar",
          "character_maximum_length": 20,
          "numeric_precision": 0,
          "numeric_scale": 0,
          "nullable": false,
          "business_key": false
        },
        {
          "column_name": "Location Code",
          "data_type": "nvarchar",
          "character_maximum_length": 10,
          "numeric_precision": 0,
          "numeric_scale": 0,
          "nullable": false,
          "business_key": false
        },
        {
          "column_name": "Production Forecast Name",
          "data_type": "nvarchar",
          "character_maximum_length": 10,
          "numeric_precision": 0,
          "numeric_scale": 0,
          "nullable": false,
          "business_key": false
        },
        {
          "column_name": "timestamp",
          "data_type": "timestamp",
          "character_maximum_length": 0,
          "numeric_precision": 0,
          "numeric_scale": 0,
          "nullable": false,
          "business_key": false
        }
      ],
      "indexes": []
    }
  ]
}