{
  "name": "AmountBalance_SPLY_Index_GL",
  "description": "Departments/Finance/Basic Data/General/Chart of Accounts > Ledger Entries  > Amount up to selected date",
  "expression": "DIVIDE ( [AmountBalance_GL], [AmountBalance_SPLY_GL] ) * 100",
  "formatString": "#,##0.00",
  "displayFolder": "Σ CY vs SPLY",
  "annotations": [
    {
      "name": "TabularEditor_TranslatedNames",
      "value": "{\"de-DE\":\"Balance Menge SPLY Index\",\"en-US\":\"Balance SPLY Index\",\"nl-NL\":\"Balans vj Index\"}"
    },
    {
      "name": "TabularEditor_TranslatedDescriptions",
      "value": "{\"de-DE\":\"Gebuchte Belege/Debitorenposten/Zeilen\",\"en-US\":\"Departments/Finance/Basic Data/General/Chart of Accounts > Ledger Entries  > Amount up to selected date\",\"nl-NL\":\"Afdelingen/Financieel/Stamgegevens/Algemeen/Rekeningschema > Posten > Bedrag tot aan geselecteerde datum\"}"
    }
  ]
}