{
  "name": "JobLineType",
  "columns": [
    {
      "name": "JobLineTypeID",
      "dataType": "int64",
      "isHidden": true,
      "sourceColumn": "JobLineTypeID",
      "sourceProviderType": "int",
      "annotations": [
        {
          "name": "TabularEditor_TranslatedNames",
          "value": "{\"de-DE\":\"JobLineTypeID\"}"
        },
        {
          "name": "TabularEditor_TranslatedDescriptions",
          "value": "{\"de-DE\":\"Kennung für JoblineType\"}"
        }
      ]
    },
    {
      "name": "JobLineTypeCode",
      "dataType": "int64",
      "isHidden": true,
      "sourceColumn": "JobLineTypeCode",
      "sourceProviderType": "int",
      "annotations": [
        {
          "name": "TabularEditor_TranslatedNames",
          "value": "{\"de-DE\":\"Projektzeile Code\"}"
        },
        {
          "name": "TabularEditor_TranslatedDescriptions",
          "value": "{\"de-DE\":\"Abteilungen/Projekte/Projekte/Zeilen\"}"
        }
      ]
    },
    {
      "name": "JobLineTypeDescription",
      "dataType": "string",
      "sourceColumn": "JobLineTypeDescription",
      "sourceProviderType": "nvarchar",
      "annotations": [
        {
          "name": "TabularEditor_TranslatedNames",
          "value": "{\"de-DE\":\"Projektzeile Beschreibung\",\"en-US\":\"Job Line Type\",\"nl-NL\":\"Project  regelsoort\"}"
        },
        {
          "name": "TabularEditor_TranslatedDescriptions",
          "value": "{\"de-DE\":\"Abteilungen/Projekte/Projekte/Zeilen\"}"
        }
      ]
    },
    {
      "name": "TableID",
      "dataType": "int64",
      "isHidden": true,
      "sourceColumn": "TableID",
      "annotations": [
        {
          "name": "TabularEditor_TranslatedNames",
          "value": "{\"de-DE\":\"TableID\"}"
        },
        {
          "name": "TabularEditor_TranslatedDescriptions",
          "value": "{\"de-DE\":\"Kennung für Table\"}"
        }
      ]
    }
  ],
  "partitions": [
    {
      "name": "JobLineType",
      "source": {
        "type": "query",
        "query": "SELECT * FROM tabular.JobLineType",
        "dataSource": "Birds"
      },
      "annotations": [
        {
          "name": "TabularEditor_TableSchema",
          "value": "{\"Name\":\"JobLineType\",\"Schema\":\"dim\",\"Database\":\"BirdsProjectNAV\",\"IncludedColumns\":[\"JobLineTypeID\",\"DataConnectionID\",\"JobLineTypeCode\",\"JobLineTypeDescription\"],\"SelectAll\":true}"
        }
      ]
    }
  ],
  "annotations": [
    {
      "name": "TabularEditor_TranslatedNames",
      "value": "{\"de-DE\":\"Projektzeile Art\",\"en-US\":\"Job Line Type\",\"nl-NL\":\"Project Regelsoort\"}"
    },
    {
      "name": "TabularEditor_Relationships",
      "value": "[]"
    }
  ]
}