{
  "name": "CashflowAccount",
  "description": "Departments/Finance/Basic Data/Cash Flow/Chart of Cash Flow Accounts > Cash Flow Account Card",
  "columns": [
    {
      "name": "CashflowAccountID",
      "dataType": "int64",
      "description": "Unique identifier for CashflowAccount",
      "isHidden": true,
      "sourceColumn": "CashflowAccountID",
      "sourceProviderType": "int",
      "annotations": [
        {
          "name": "TabularEditor_TranslatedNames",
          "value": "{\"de-DE\":\"CashflowAccountID\",\"en-US\":\"ID\",\"nl-NL\":\"ID\"}"
        },
        {
          "name": "TabularEditor_TranslatedDescriptions",
          "value": "{\"de-DE\":\"Kennung für CashflowAccount\",\"en-US\":\"Unique identifier for CashflowAccount\",\"nl-NL\":\"Unieke sleutel voor CashflowAccount\"}"
        }
      ]
    },
    {
      "name": "CashflowAccountCode",
      "dataType": "string",
      "description": "Departments/Finance/Basic Data/Cash Flow/Chart of Cash Flow Accounts > Cash Flow Account Card > No.",
      "isHidden": true,
      "sourceColumn": "CashflowAccountCode",
      "sourceProviderType": "nvarchar",
      "annotations": [
        {
          "name": "TabularEditor_TranslatedNames",
          "value": "{\"de-DE\":\"Nr.\",\"en-US\":\"Cashflow Account\",\"nl-NL\":\"Cashflow Rekening\"}"
        },
        {
          "name": "TabularEditor_TranslatedDescriptions",
          "value": "{\"de-DE\":\"Abteilungen/Finanzmanagement/Cashflow/Cashflow-Kontenplan/Nr.\",\"en-US\":\"Departments/Finance/Basic Data/Cash Flow/Chart of Cash Flow Accounts > Cash Flow Account Card > No.\",\"nl-NL\":\"Afdelingen/Financieel/Stamgegevens/Cashflow/Cashflowrekeningschema > Cashflowrekeningkaart > Nr.\"}"
        }
      ]
    },
    {
      "name": "CashflowAccountDesc",
      "dataType": "string",
      "description": "Departments/Finance/Basic Data/Cash Flow/Chart of Cash Flow Accounts > Cash Flow Account Card > Name",
      "sourceColumn": "CashflowAccountDesc",
      "sourceProviderType": "nvarchar",
      "annotations": [
        {
          "name": "TabularEditor_TranslatedNames",
          "value": "{\"de-DE\":\"Name\",\"en-US\":\"Cashflow Account\",\"nl-NL\":\"Cashflow Rekening\"}"
        },
        {
          "name": "TabularEditor_TranslatedDescriptions",
          "value": "{\"de-DE\":\"Abteilungen/Finanzmanagement/Cashflow/Cashflow-Kontenplan/Name\",\"en-US\":\"Departments/Finance/Basic Data/Cash Flow/Chart of Cash Flow Accounts > Cash Flow Account Card > Name\",\"nl-NL\":\"Afdelingen/Financieel/Stamgegevens/Cashflow/Cashflowrekeningschema > Cashflowrekeningkaart > Naam\"}"
        }
      ]
    },
    {
      "name": "CashflowAccountCodeDesc",
      "dataType": "string",
      "description": "Departments/Finance/Basic Data/Cash Flow/Chart of Cash Flow Accounts > Cash Flow Account Card > No-Name",
      "sourceColumn": "CashflowAccountCodeDesc",
      "sourceProviderType": "nvarchar",
      "annotations": [
        {
          "name": "TabularEditor_TranslatedNames",
          "value": "{\"de-DE\":\"Nr. Name\",\"en-US\":\"Cashflow Account\",\"nl-NL\":\"Cashflow Rekening\"}"
        },
        {
          "name": "TabularEditor_TranslatedDescriptions",
          "value": "{\"de-DE\":\"Abteilungen/Finanzmanagement/Cashflow/Cashflow-Kontenplan/Nr.\",\"en-US\":\"Departments/Finance/Basic Data/Cash Flow/Chart of Cash Flow Accounts > Cash Flow Account Card > No-Name\",\"nl-NL\":\"Afdelingen/Financieel/Stamgegevens/Cashflow/Cashflowrekeningschema > Cashflowrekeningkaart > Nr-Naam\"}"
        }
      ]
    },
    {
      "name": "CashflowAccountSearchName",
      "dataType": "string",
      "description": "Departments/Finance/Basic Data/Cash Flow/Chart of Cash Flow Accounts > Cash Flow Account Card > Search Name",
      "sourceColumn": "CashflowAccountSearchName",
      "sourceProviderType": "nvarchar",
      "annotations": [
        {
          "name": "TabularEditor_TranslatedNames",
          "value": "{\"de-DE\":\"Suchbegriff\",\"en-US\":\"Account Search Name\",\"nl-NL\":\"Rekening Zoeknaam\"}"
        },
        {
          "name": "TabularEditor_TranslatedDescriptions",
          "value": "{\"de-DE\":\"Abteilungen/Finanzmanagement/Cashflow/Cashflow-Kontenplan/Suchbegriff\",\"en-US\":\"Departments/Finance/Basic Data/Cash Flow/Chart of Cash Flow Accounts > Cash Flow Account Card > Search Name\",\"nl-NL\":\"Afdelingen/Financieel/Stamgegevens/Cashflow/Cashflowrekeningschema > Cashflowrekeningkaart > Zoeknaam\"}"
        }
      ]
    },
    {
      "name": "CashflowAccountTypeCode",
      "dataType": "int64",
      "description": "Departments/Finance/Basic Data/Cash Flow/Chart of Cash Flow Accounts > Cash Flow Account Card > Account Type",
      "isHidden": true,
      "sourceColumn": "CashflowAccountTypeCode",
      "sourceProviderType": "int",
      "annotations": [
        {
          "name": "TabularEditor_TranslatedNames",
          "value": "{\"de-DE\":\"Kontoart\",\"en-US\":\"Account Type\",\"nl-NL\":\"Rekeningsoort\"}"
        },
        {
          "name": "TabularEditor_TranslatedDescriptions",
          "value": "{\"de-DE\":\"Abteilungen/Finanzmanagement/Cashflow/Cashflow-Kontenplan/Kontoart\",\"en-US\":\"Departments/Finance/Basic Data/Cash Flow/Chart of Cash Flow Accounts > Cash Flow Account Card > Account Type\",\"nl-NL\":\"Afdelingen/Financieel/Stamgegevens/Cashflow/Cashflowrekeningschema > Cashflowrekeningkaart > Rekeningsoort\"}"
        }
      ]
    },
    {
      "name": "CashflowAccountTypeDesc",
      "dataType": "string",
      "description": "Departments/Finance/Basic Data/Cash Flow/Chart of Cash Flow Accounts > Cash Flow Account Card > Account Type",
      "sourceColumn": "CashflowAccountTypeDesc",
      "sourceProviderType": "nvarchar",
      "annotations": [
        {
          "name": "TabularEditor_TranslatedNames",
          "value": "{\"de-DE\":\"Kontoart\",\"en-US\":\"Account Type\",\"nl-NL\":\"Rekeningsoort\"}"
        },
        {
          "name": "TabularEditor_TranslatedDescriptions",
          "value": "{\"de-DE\":\"Abteilungen/Finanzmanagement/Cashflow/Cashflow-Kontenplan/Kontoart\",\"en-US\":\"Departments/Finance/Basic Data/Cash Flow/Chart of Cash Flow Accounts > Cash Flow Account Card > Account Type\",\"nl-NL\":\"Afdelingen/Financieel/Stamgegevens/Cashflow/Cashflowrekeningschema > Cashflowrekeningkaart > Rekeningsoort\"}"
        }
      ]
    },
    {
      "name": "CashflowAccountSourceTypeCode",
      "dataType": "int64",
      "description": "Departments/Finance/Basic Data/Cash Flow/Chart of Cash Flow Accounts > Cash Flow Account Card > Source Type",
      "isHidden": true,
      "sourceColumn": "CashflowAccountSourceTypeCode",
      "sourceProviderType": "int",
      "annotations": [
        {
          "name": "TabularEditor_TranslatedNames",
          "value": "{\"de-DE\":\"Herkunftsart\",\"en-US\":\"Account Source Type\",\"nl-NL\":\"Rekening Bronsoort\"}"
        },
        {
          "name": "TabularEditor_TranslatedDescriptions",
          "value": "{\"de-DE\":\"Abteilungen/Finanzmanagement/Cashflow/Cashflow-Kontenplan/Herkunftsart\",\"en-US\":\"Departments/Finance/Basic Data/Cash Flow/Chart of Cash Flow Accounts > Cash Flow Account Card > Source Type\",\"nl-NL\":\"Afdelingen/Financieel/Stamgegevens/Cashflow/Cashflowrekeningschema > Cashflowrekeningkaart > Bronsoort\"}"
        }
      ]
    },
    {
      "name": "CashflowAccountSourceTypeDesc",
      "dataType": "string",
      "description": "Departments/Finance/Basic Data/Cash Flow/Chart of Cash Flow Accounts > Cash Flow Account Card > Source Type",
      "sourceColumn": "CashflowAccountSourceTypeDesc",
      "sourceProviderType": "nvarchar",
      "annotations": [
        {
          "name": "TabularEditor_TranslatedNames",
          "value": "{\"de-DE\":\"Herkunftsart\",\"en-US\":\"Account Source Type\",\"nl-NL\":\"Rekening Bronsoort\"}"
        },
        {
          "name": "TabularEditor_TranslatedDescriptions",
          "value": "{\"de-DE\":\"Abteilungen/Finanzmanagement/Cashflow/Cashflow-Kontenplan/Herkunftsart\",\"en-US\":\"Departments/Finance/Basic Data/Cash Flow/Chart of Cash Flow Accounts > Cash Flow Account Card > Source Type\",\"nl-NL\":\"Afdelingen/Financieel/Stamgegevens/Cashflow/Cashflowrekeningschema > Cashflowrekeningkaart > Bronsoort\"}"
        }
      ]
    }
  ],
  "partitions": [
    {
      "name": "CashflowAccount",
      "source": {
        "type": "query",
        "query": [
          "SELECT",
          "\t*",
          "FROM",
          "\t[tabular].[CashflowAccount]"
        ],
        "dataSource": "Birds"
      },
      "annotations": [
        {
          "name": "TabularEditor_TableSchema",
          "value": "{\"Name\":\"CashflowAccount\",\"Schema\":\"tabular\",\"Database\":\"BirdsCashflow\",\"IncludedColumns\":[\"CashflowAccountID\",\"CashflowAccountCode\",\"CashflowAccountDesc\",\"CashflowAccountCodeDesc\",\"CashflowAccountSearchName\",\"CashflowAccountTypeCode\",\"CashflowAccountTypeDesc\",\"CashflowAccountSourceTypeCode\",\"CashflowAccountSourceTypeDesc\"],\"SelectAll\":true}"
        }
      ]
    }
  ],
  "annotations": [
    {
      "name": "TabularEditor_TranslatedNames",
      "value": "{\"de-DE\":\"Cashflow-Kontenplan\",\"en-US\":\"Cashflow Account\",\"nl-NL\":\"Cashflow Account\"}"
    },
    {
      "name": "TabularEditor_TranslatedDescriptions",
      "value": "{\"en-US\":\"Departments/Finance/Basic Data/Cash Flow/Chart of Cash Flow Accounts > Cash Flow Account Card\",\"nl-NL\":\"Afdelingen/Financieel/Stamgegevens/Cashflow/Cashflowrekeningschema > Cashflowrekeningkaart\"}"
    },
    {
      "name": "TabularEditor_Relationships",
      "value": "[]"
    }
  ]
}