{
  "name": "TransferShipmentQuantityBase_YTD_Variance_TS",
  "description": " YTD Variance",
  "expression": "[TransferShipmentQuantityBase_YTD_TS] - [TransferShipmentQuantityBase_LYTD_TS]",
  "formatString": "#,##0.00",
  "displayFolder": "Σ YTD Variance",
  "annotations": [
    {
      "name": "TabularEditor_TranslatedNames",
      "value": "{\"de-DE\":\"Umlag.-Ausgang Menge YTD Varianz\",\"en-US\":\"Quantity (Base) YTD Variance\",\"nl-NL\":\"Aantal (basis) YTD Variance\"}"
    },
    {
      "name": "TabularEditor_TranslatedDescriptions",
      "value": "{\"de-DE\":\"Abteilungen/Lager/Historie/Gebuchte Belege/Geb. Umlag.-Ausgänge/Aktionen/Navigate\",\"en-US\":\"Departments/Inventory and Warehouse/History/Posted Transfer Shipments/Quantity (Base) YTD Variance\",\"nl-NL\":\"Afdelingen/Voorraad en magazijn/Historie/Geboekte transferverzendingen/Aantal (basis) YTD Variance\"}"
    },
    {
      "name": "TabularEditor_TranslatedDisplayFolders",
      "value": "{\"de-DE\":\"Σ YTD Varianz\",\"en-US\":\"Σ YTD Variance\",\"nl-NL\":\"Σ YTD Variance\"}"
    }
  ]
}