{
  "name": "TransferShipmentQuantity_SPLY_Variance_TS",
  "description": " SPLY Variance",
  "expression": "[TransferShipmentQuantity_TS] - [TransferShipmentQuantity_SPLY_TS]",
  "formatString": "#,##0.00",
  "displayFolder": "Σ SPLY Variance",
  "annotations": [
    {
      "name": "TabularEditor_TranslatedNames",
      "value": "{\"de-DE\":\"Umlag.-Ausgang Menge SPLY Varianz\",\"en-US\":\"Quantity SPLY Variance\",\"nl-NL\":\"Aantal SPLY Variance\"}"
    },
    {
      "name": "TabularEditor_TranslatedDescriptions",
      "value": "{\"de-DE\":\"Abteilungen/Lager/Historie/Gebuchte Belege/Geb. Umlag.-Ausgänge/Aktionen/Navigate\",\"en-US\":\"Departments/Inventory and Warehouse/History/Posted Transfer Shipments/Quantity SPLY Variance\",\"nl-NL\":\"Afdelingen/Voorraad en magazijn/Historie/Geboekte transferverzendingen/Aantal SPLY Variance\"}"
    },
    {
      "name": "TabularEditor_TranslatedDisplayFolders",
      "value": "{\"de-DE\":\"Σ SPLY Varianz\",\"en-US\":\"Σ SPLY Variance\",\"nl-NL\":\"Σ SPLY Variance\"}"
    }
  ]
}