{
  "name": "TransferShipmentQuantity_YTD_Index_TS",
  "description": " YTD Index",
  "expression": "DIVIDE ( [TransferShipmentQuantity_YTD_TS], [TransferShipmentQuantity_LYTD_TS] ) * 100",
  "formatString": "#,##0.0",
  "displayFolder": "Σ YTD Variance",
  "annotations": [
    {
      "name": "TabularEditor_TranslatedNames",
      "value": "{\"de-DE\":\"Umlag.-Ausgang Menge YTD Index\",\"en-US\":\"Quantity YTD Index\",\"nl-NL\":\"Aantal YTD Index\"}"
    },
    {
      "name": "TabularEditor_TranslatedDescriptions",
      "value": "{\"de-DE\":\"Abteilungen/Lager/Historie/Gebuchte Belege/Geb. Umlag.-Ausgänge/Aktionen/Navigate\",\"en-US\":\"Departments/Inventory and Warehouse/History/Posted Transfer Shipments/Quantity YTD Index\",\"nl-NL\":\"Afdelingen/Voorraad en magazijn/Historie/Geboekte transferverzendingen/Aantal YTD Index\"}"
    },
    {
      "name": "TabularEditor_TranslatedDisplayFolders",
      "value": "{\"de-DE\":\"Σ YTD Varianz\",\"en-US\":\"Σ YTD Variance\",\"nl-NL\":\"Σ YTD Variance\"}"
    }
  ]
}