{
  "name": "WarehouseQuantityBase_SPLY_Index_WH",
  "description": " SPLY Index",
  "expression": "DIVIDE ( [WarehouseQuantityBase_WH], [WarehouseQuantityBase_SPLY_WH] ) * 100",
  "formatString": "#,##0.0",
  "displayFolder": "Σ SPLY Variance",
  "annotations": [
    {
      "name": "TabularEditor_TranslatedNames",
      "value": "{\"de-DE\":\"Lager Menge (Basis) SPLY Index\",\"en-US\":\"Quantity (Base) SPLY Index\",\"nl-NL\":\"Aantal (basis) SPLY Index\"}"
    },
    {
      "name": "TabularEditor_TranslatedDescriptions",
      "value": "{\"de-DE\":\"Abteilungen/Lager/Archivieren/Historie/Lagerplatzposten\",\"en-US\":\"Departments/Inventory and Warehouse/History SPLY Index\",\"nl-NL\":\"Afdelingen/Voorraad en magazijn/Historie SPLY Index\"}"
    },
    {
      "name": "TabularEditor_TranslatedDisplayFolders",
      "value": "{\"de-DE\":\"Σ SPLY Varianz\",\"en-US\":\"Σ SPLY Variance\",\"nl-NL\":\"Σ SPLY Variance\"}"
    }
  ]
}