{
  "name": "SalesBudgetCostAmount_LYTD_SB",
  "description": "Sales budgeted cost amount. NAV: Sales > Analysis & Reporting > Sales Budgets > Edit Budget > Budgeted Cost Amount",
  "expression": [
    "VAR LYTD =",
    "    FILTER (",
    "        ALL ( 'Date' ),",
    "        'Date'[CYearNo]",
    "            = MAX ( 'Date'[CYearNo] ) - 1",
    "            && 'Date'[Date] <= MAX ( 'Date'[TDatePY] )",
    "    )",
    "RETURN",
    "    CALCULATE ( [SalesBudgetCostAmount_SB], LYTD )"
  ],
  "formatString": "#,##0.00",
  "displayFolder": "Σ LYTD",
  "annotations": [
    {
      "name": "TabularEditor_TranslatedNames",
      "value": "{\"de-DE\":\"Budgetierter Einstandsbetrag  LYTD\",\"en-US\":\"Budgeted Cost Amount LYTD\",\"nl-NL\":\"Budget kosten  LYTD\"}"
    },
    {
      "name": "TabularEditor_TranslatedDescriptions",
      "value": "{\"de-DE\":\"Abteilungen/Verkauf & Marketing/Berichte und Analysen/Verkaufsbudgets/Budget Bearbeiten\",\"en-US\":\"Sales budgeted cost amount. NAV: Sales > Analysis & Reporting > Sales Budgets > Edit Budget > Budgeted Cost Amount\",\"nl-NL\":\"Totale kosten opgenomen in het budget. NAV: Verkoop > Analyse en Rapportage > Verkoopbudgetten > Overzicht verkoopbudget > Totale kosten (budget)\"}"
    },
    {
      "name": "TabularEditor_TranslatedDisplayFolders",
      "value": "{\"de-DE\":\"Σ LYTD\",\"en-US\":\"Σ LYTD\",\"nl-NL\":\"Σ LYTD\"}"
    }
  ]
}