{
  "name": "SalesBudgetAmount_SPLY_SB",
  "description": "Budgeted sales amount. NAV: Sales > Analysis & Reporting > Sales Budgets > Edit Budget > Budgeted Sales Amount",
  "expression": [
    "VAR SPLY0 =",
    "    FILTER (",
    "        ALL ( 'Date' ),",
    "        'Date'[Date] <= MAX ( 'Date'[TDatePY] )",
    "            && 'Date'[Date] >= MIN ( 'Date'[TDatePY] )",
    "    )",
    "RETURN",
    "    CALCULATE ( [SalesBudgetAmount_SB], SPLY0 )"
  ],
  "formatString": "#,##0.00",
  "displayFolder": "Σ SPLY",
  "annotations": [
    {
      "name": "TabularEditor_TranslatedNames",
      "value": "{\"de-DE\":\"Budgetierter Verkaufsbetrag SPLY\",\"en-US\":\"Budgeted Sales Amount SPLY\",\"nl-NL\":\"Budget omzet SPLY\"}"
    },
    {
      "name": "TabularEditor_TranslatedDescriptions",
      "value": "{\"de-DE\":\"Abteilungen/Verkauf & Marketing/Berichte und Analysen/Verkaufsbudgets/Budget Bearbeiten\",\"en-US\":\"Budgeted sales amount. NAV: Sales > Analysis & Reporting > Sales Budgets > Edit Budget > Budgeted Sales Amount\",\"nl-NL\":\"Totale omzet opgenomen in het budget. NAV: Verkoop > Analyse en Rapportage > Verkoopbudgetten > Overzicht verkoopbudget > Totale omzet (budget)\"}"
    },
    {
      "name": "TabularEditor_TranslatedDisplayFolders",
      "value": "{\"de-DE\":\"Σ SPLY\",\"en-US\":\"Σ SPLY\",\"nl-NL\":\"Σ SPLY\"}"
    }
  ]
}