{
  "name": "SalesBudgetQuantity_YTD_SB",
  "description": "Budgeted sales quantity. NAV: Sales > Analysis & Reporting > Sales Budgets > Edit Budget > Budgeted Quantity",
  "expression": [
    "VAR YTD0 =",
    "    FILTER (",
    "        ALL ( 'Date' ),",
    "        'Date'[CYearNo] = MAX ( 'Date'[CYearNo] )",
    "            && 'Date'[DateID] <= MAX ( 'Date'[DateID] )",
    "    )",
    "RETURN",
    "    CALCULATE ( [SalesBudgetQuantity_SB], YTD0 )"
  ],
  "formatString": "#,##0",
  "displayFolder": "Σ YTD",
  "annotations": [
    {
      "name": "TabularEditor_TranslatedNames",
      "value": "{\"de-DE\":\"Budgetierte Menge YTD\",\"en-US\":\"Budgeted Sales Quantity YTD\",\"nl-NL\":\"Budget aantal YTD\"}"
    },
    {
      "name": "TabularEditor_TranslatedDescriptions",
      "value": "{\"de-DE\":\"Abteilungen/Verkauf & Marketing/Berichte und Analysen/Verkaufsbudgets/Budget Bearbeiten\",\"en-US\":\"Budgeted sales quantity. NAV: Sales > Analysis & Reporting > Sales Budgets > Edit Budget > Budgeted Quantity\",\"nl-NL\":\"Aantal opgenomen in het budget. NAV: Verkoop > Analyse en Rapportage > Verkoopbudgetten > Overzicht verkoopbudget > Aantal (budget)\"}"
    },
    {
      "name": "TabularEditor_TranslatedDisplayFolders",
      "value": "{\"de-DE\":\"Σ YTD\",\"en-US\":\"Σ YTD\",\"nl-NL\":\"Σ YTD\"}"
    }
  ]
}