{
  "name": "ExpectedCapacityOverheadCost_MTD_EMFG",
  "description": "Expected Capacity Overhead Cost of capacity which is used in the production order. Expected Capacity Ovhd_ Cost from Prod Order Routing Line is used MTD",
  "expression": [
    "VAR MTD0 =",
    "    FILTER (",
    "        ALL ( 'Date' ),",
    "        'Date'[DateID] <= MAX ( 'Date'[DateID] )",
    "            && 'Date'[CYearMonthNo] = MAX ( 'Date'[CYearMonthNo] )",
    "    )",
    "RETURN",
    "    CALCULATE ( [ExpectedCapacityOverheadCost_EMFG], MTD0 )"
  ],
  "formatString": "#,##0.00",
  "displayFolder": "Σ MTD",
  "annotations": [
    {
      "name": "TabularEditor_TranslatedNames",
      "value": "{\"de-DE\":\"Erwartete Kapazität Gemeinkosten MTD\",\"en-US\":\"Expected Capacity Overhead Cost MTD\",\"nl-NL\":\"Verwachte capaciteit Overheadkosten MTD\"}"
    },
    {
      "name": "TabularEditor_TranslatedDescriptions",
      "value": "{\"de-DE\":\"Erwartete Gemeinkosten für den Fertigungsauftrag von den Arbeitspläne MTD\",\"en-US\":\"Expected Capacity Overhead Cost of capacity which is used in the production order. Expected Capacity Ovhd_ Cost from Prod Order Routing Line is used MTD\",\"nl-NL\":\"Verwachte capaciteitsoverheadkosten van de productie order. Verwachte kosten van de capaciteitsbehoefte vanuit de Productie order route regel MTD\"}"
    },
    {
      "name": "TabularEditor_TranslatedDisplayFolders",
      "value": "{\"de-DE\":\"Σ MTD\",\"en-US\":\"Σ MTD\",\"nl-NL\":\"Σ MTD\"}"
    }
  ]
}