{
  "name": "ExpectedSetupTime_YTD_EMFG",
  "description": "Expected Setup Time of capacity which is used in the production order. Setup Time from Prod Order Routing Line is used YTD",
  "expression": [
    "VAR YTD0 =",
    "    FILTER (",
    "        ALL ( 'Date' ),",
    "        'Date'[CYearNo] = MAX ( 'Date'[CYearNo] )",
    "            && 'Date'[DateID] <= MAX ( 'Date'[DateID] )",
    "    )",
    "RETURN",
    "    CALCULATE ( [ExpectedSetupTime_EMFG], YTD0 )"
  ],
  "formatString": "#,##0.00",
  "displayFolder": "Σ YTD",
  "annotations": [
    {
      "name": "TabularEditor_TranslatedNames",
      "value": "{\"de-DE\":\"Erwartete Rüstzeit YTD\",\"en-US\":\"Expected Setup Time YTD\",\"nl-NL\":\"Verwachte insteltijd YTD\"}"
    },
    {
      "name": "TabularEditor_TranslatedDescriptions",
      "value": "{\"de-DE\":\"Erwartete Rüstzeit die im Fertigungsauftrag verwendet wird  YTD\",\"en-US\":\"Expected Setup Time of capacity which is used in the production order. Setup Time from Prod Order Routing Line is used YTD\",\"nl-NL\":\"Verwachte insteltijd van de productieorder vanuit het productieorder bewerkingsplan YTD\"}"
    },
    {
      "name": "TabularEditor_TranslatedDisplayFolders",
      "value": "{\"de-DE\":\"Σ YTD\",\"en-US\":\"Σ YTD\",\"nl-NL\":\"Σ YTD\"}"
    }
  ]
}