{
  "name": "ExpectedSetupTime_SPLY_Variance%_EMFG",
  "description": "Expected Setup Time of capacity which is used in the production order. Setup Time from Prod Order Routing Line is used SPLY Variance %",
  "expression": "DIVIDE ( [ExpectedSetupTime_EMFG] - [ExpectedSetupTime_SPLY_EMFG], [ExpectedSetupTime_SPLY_EMFG] )",
  "formatString": "#,##0.0 %",
  "displayFolder": "Σ SPLY Variance",
  "annotations": [
    {
      "name": "TabularEditor_TranslatedNames",
      "value": "{\"de-DE\":\"Erwartete Rüstzeit SPLY Varianz %\",\"en-US\":\"Expected Setup Time SPLY Variance %\",\"nl-NL\":\"Verwachte insteltijd SPLY Variance %\"}"
    },
    {
      "name": "TabularEditor_TranslatedDescriptions",
      "value": "{\"de-DE\":\"Erwartete Rüstzeit die im Fertigungsauftrag verwendet wird  SPLY Variance %\",\"en-US\":\"Expected Setup Time of capacity which is used in the production order. Setup Time from Prod Order Routing Line is used SPLY Variance %\",\"nl-NL\":\"Verwachte insteltijd van de productieorder vanuit het productieorder bewerkingsplan SPLY Variance %\"}"
    },
    {
      "name": "TabularEditor_TranslatedDisplayFolders",
      "value": "{\"de-DE\":\"Σ SPLY Varianz\",\"en-US\":\"Σ SPLY Variance\",\"nl-NL\":\"Σ SPLY Variance\"}"
    }
  ]
}