{
  "name": "ExpectedCapacityOverheadCost_EMFG",
  "description": "Expected Capacity Overhead Cost of capacity which is used in the production order. Expected Capacity Ovhd_ Cost from Prod Order Routing Line is used",
  "expression": "SUM ( 'factManufacturingExpected'[ExpectedCapacityOverheadCost] )",
  "formatString": "#,##0.00",
  "annotations": [
    {
      "name": "TabularEditor_TranslatedNames",
      "value": "{\"de-DE\":\"Erwartete Kapazität Gemeinkosten\",\"en-US\":\"Expected Capacity Overhead Cost\",\"nl-NL\":\"Verwachte capaciteit Overheadkosten\"}"
    },
    {
      "name": "TabularEditor_TranslatedDescriptions",
      "value": "{\"de-DE\":\"Erwartete Gemeinkosten für den Fertigungsauftrag von den Arbeitspläne\",\"en-US\":\"Expected Capacity Overhead Cost of capacity which is used in the production order. Expected Capacity Ovhd_ Cost from Prod Order Routing Line is used\",\"nl-NL\":\"Verwachte capaciteitsoverheadkosten van de productie order. Verwachte kosten van de capaciteitsbehoefte vanuit de Productie order route regel\"}"
    }
  ]
}