{
  "name": "ExpectedCapacityOverheadCost_LYMTD_EMFG",
  "description": "Expected Capacity Overhead Cost of capacity which is used in the production order. Expected Capacity Ovhd_ Cost from Prod Order Routing Line is used LYMTD",
  "expression": [
    "VAR LYMTD =",
    "    FILTER (",
    "        ALL ( 'Date' ),",
    "        'Date'[Date] <= MAX ( 'Date'[TDatePY] )",
    "            && 'Date'[CMonthNo] = MAX ( 'Date'[CMonthNo] )",
    "            && 'Date'[CYearNo]",
    "                = MAX ( 'Date'[CYearNo] ) - 1",
    "    )",
    "RETURN",
    "    CALCULATE ( [ExpectedCapacityOverheadCost_EMFG], LYMTD )",
    ""
  ],
  "formatString": "#,##0.00",
  "displayFolder": "Σ LYMTD",
  "annotations": [
    {
      "name": "TabularEditor_TranslatedNames",
      "value": "{\"de-DE\":\"Erwartete Kapazität Gemeinkosten LYMTD\",\"en-US\":\"Expected Capacity Overhead Cost LYMTD\",\"nl-NL\":\"Verwachte capaciteit Overheadkosten LYMTD\"}"
    },
    {
      "name": "TabularEditor_TranslatedDescriptions",
      "value": "{\"de-DE\":\"Erwartete Gemeinkosten für den Fertigungsauftrag von den Arbeitspläne LYMTD\",\"en-US\":\"Expected Capacity Overhead Cost of capacity which is used in the production order. Expected Capacity Ovhd_ Cost from Prod Order Routing Line is used LYMTD\",\"nl-NL\":\"Verwachte capaciteitsoverheadkosten van de productie order. Verwachte kosten van de capaciteitsbehoefte vanuit de Productie order route regel LYMTD\"}"
    },
    {
      "name": "TabularEditor_TranslatedDisplayFolders",
      "value": "{\"de-DE\":\"Σ LYMTD\",\"en-US\":\"Σ LYMTD\",\"nl-NL\":\"Σ LYMTD\"}"
    }
  ]
}