{
  "name": "ExpectedRunTime_SPLY_Variance_EMFG",
  "description": "Expected Run Time of capacity which is used in the production order. Run Time from Prod Order Routing Line is used SPLY Variance",
  "expression": "[ExpectedRunTime_EMFG] - [ExpectedRunTime_SPLY_EMFG]",
  "formatString": "#,##0.00",
  "displayFolder": "Σ SPLY Variance",
  "annotations": [
    {
      "name": "TabularEditor_TranslatedNames",
      "value": "{\"de-DE\":\"erwartete Fertigungs Dauer SPLY Varianz\",\"en-US\":\"Expected Run Time SPLY Variance\",\"nl-NL\":\"Verwachte bewerkingstijd SPLY Variance\"}"
    },
    {
      "name": "TabularEditor_TranslatedDescriptions",
      "value": "{\"de-DE\":\"Erwartete Fertigungs Dauer die im Fertigungsauftrag verwendet wird SPLY Variance\",\"en-US\":\"Expected Run Time of capacity which is used in the production order. Run Time from Prod Order Routing Line is used SPLY Variance\",\"nl-NL\":\"Verwachte bewerkingstijd van de productieorder vanuit het productieorder bewerkingsplan SPLY Variance\"}"
    },
    {
      "name": "TabularEditor_TranslatedDisplayFolders",
      "value": "{\"de-DE\":\"Σ SPLY Varianz\",\"en-US\":\"Σ SPLY Variance\",\"nl-NL\":\"Σ SPLY Variance\"}"
    }
  ]
}