{
  "name": "ExpectedConsumptionCost_SPLY_EMFG",
  "description": "Expected quantity of material or capacity which is used in the production order. When it is material then Expected Cost Amount - Overhead Amount  from Prod Order Component where source type = item. When it is capacity, Expected Operation Cost Amount - Expected Capacity Ovhd_ Cost from Prod Order Routing Line is used SPLY",
  "expression": [
    "VAR SPLY0 =",
    "    FILTER (",
    "        ALL ( 'Date' ),",
    "        'Date'[Date] <= MAX ( 'Date'[TDatePY] )",
    "            && 'Date'[Date] >= MIN ( 'Date'[TDatePY] )",
    "    )",
    "RETURN",
    "    CALCULATE ( [ExpectedConsumptionCost_EMFG], SPLY0 )"
  ],
  "formatString": "#,##0.00",
  "displayFolder": "Σ SPLY",
  "annotations": [
    {
      "name": "TabularEditor_TranslatedNames",
      "value": "{\"de-DE\":\"Kosten Verbrauch erwartet SPLY\",\"en-US\":\"Expected Consumption Cost SPLY\",\"nl-NL\":\"Verwachte verbruikskosten SPLY\"}"
    },
    {
      "name": "TabularEditor_TranslatedDescriptions",
      "value": "{\"de-DE\":\"Erwartete Materialmenge oder Kapazität, die im Fertigungsauftrag verwendet wird SPLY\",\"en-US\":\"Expected cost of material or capacity which is used in the production order. When it is material then Expected Cost Amount - Overhead Amount  from Prod Order Component where source type = item. When it is capacity, Expected Operation Cost Amount - Expected Capacity Ovhd_ Cost from Prod Order Routing Line is used SPLY\",\"nl-NL\":\"Verwachte hoeveelheid van materiaal of capaciteit van de productieorder. Wanneer het materiaal betreft, neem dan Verwachte kosten - Overhead kosten vanuit de Productie Order Component waar bronsoort = artikel. Wanneer het capaciteit betreft, dan Verwachte Bewerkingskosten - Verwachte capaciteit overheadkosten vanuit de productieorder bewerkingsplan SPLY\"}"
    },
    {
      "name": "TabularEditor_TranslatedDisplayFolders",
      "value": "{\"de-DE\":\"Σ SPLY\",\"en-US\":\"Σ SPLY\",\"nl-NL\":\"Σ SPLY\"}"
    }
  ]
}