{
  "name": "ExpectedOutputCost_LYTD_EMFG",
  "description": "Expected cost of the production output. Production Order Line Unit Cost * Quantity Base LYTD",
  "expression": [
    "VAR LYTD =",
    "    FILTER (",
    "        ALL ( 'Date' ),",
    "        'Date'[CYearNo]",
    "            = MAX ( 'Date'[CYearNo] ) - 1",
    "            && 'Date'[Date] <= MAX ( 'Date'[TDatePY] )",
    "    )",
    "RETURN",
    "    CALCULATE ( [ExpectedOutputCost_EMFG], LYTD )"
  ],
  "formatString": "#,##0.00",
  "displayFolder": "Σ LYTD",
  "annotations": [
    {
      "name": "TabularEditor_TranslatedNames",
      "value": "{\"de-DE\":\"Erwartete Kosten Rückmeldung LYTD\",\"en-US\":\"Expected Output Cost LYTD\",\"nl-NL\":\"Verwachte output kosten LYTD\"}"
    },
    {
      "name": "TabularEditor_TranslatedDescriptions",
      "value": "{\"de-DE\":\"Erwartete Gemeinkosten von den Produktionsleistung Kosten pro Einheit * Mengenbasis LYTD\",\"en-US\":\"Expected cost of the production output. Production Order Line Unit Cost * Quantity Base LYTD\",\"nl-NL\":\"Verwachte output kosten van de productie order. Productieorder regels: Eenheidkosten * Hoeveelheid basis LYTD\"}"
    },
    {
      "name": "TabularEditor_TranslatedDisplayFolders",
      "value": "{\"de-DE\":\"Σ LYTD\",\"en-US\":\"Σ LYTD\",\"nl-NL\":\"Σ LYTD\"}"
    }
  ]
}