{
  "name": "ExpectedCapacityNeed_RY_EMFG",
  "description": "Expected Capacity Need of capacity which is used in the production order. Expected Capacity Need from Prod Order Routing Line is used RY",
  "expression": [
    "VAR RY0 =",
    "    FILTER (",
    "        ALL ( 'Date' ),",
    "        'Date'[DateID] <= MAX ( 'Date'[DateID] )",
    "            && 'Date'[Date] > MAX ( 'Date'[TDatePY] )",
    "    )",
    "RETURN",
    "    CALCULATE ( [ExpectedCapacityNeed_EMFG], RY0 )"
  ],
  "formatString": "#,##0.00",
  "displayFolder": "Σ RY",
  "annotations": [
    {
      "name": "TabularEditor_TranslatedNames",
      "value": "{\"de-DE\":\"Erwarteter Kapazitätsbedarf RY\",\"en-US\":\"Expected Capacity Need RY\",\"nl-NL\":\"Verwachte capaciteitsbehoefte RY\"}"
    },
    {
      "name": "TabularEditor_TranslatedDescriptions",
      "value": "{\"de-DE\":\"Erwarteter Kapazitätsbedarf für den Fertigungsauftrag von den Arbeitspläne RY\",\"en-US\":\"Expected Capacity Need of capacity which is used in the production order. Expected Capacity Need from Prod Order Routing Line is used RY\",\"nl-NL\":\"Verwachte capaciteitsbehoefte van de productie order. Verwachte capaciteitsbehoefte vanuit de Productie order route regel RY\"}"
    },
    {
      "name": "TabularEditor_TranslatedDisplayFolders",
      "value": "{\"de-DE\":\"Σ RY\",\"en-US\":\"Σ RY\",\"nl-NL\":\"Σ RY\"}"
    }
  ]
}