{
  "name": "ExpectedTotalCost_LYTD_EMFG",
  "description": "Expected Output Cost + Expected Overhead Cost + Expected Capacity Overhead Cost + Expected Consumption Cost LYTD",
  "expression": [
    "VAR LYTD =",
    "    FILTER (",
    "        ALL ( 'Date' ),",
    "        'Date'[CYearNo]",
    "            = MAX ( 'Date'[CYearNo] ) - 1",
    "            && 'Date'[Date] <= MAX ( 'Date'[TDatePY] )",
    "    )",
    "RETURN",
    "    CALCULATE ( [ExpectedTotalCost_EMFG], LYTD )"
  ],
  "formatString": "#,##0.00",
  "displayFolder": "Σ LYTD",
  "annotations": [
    {
      "name": "TabularEditor_TranslatedNames",
      "value": "{\"de-DE\":\"Erwartete Kosten LYTD\",\"en-US\":\"Expected Total Cost LYTD\",\"nl-NL\":\"Verwachte kosten LYTD\"}"
    },
    {
      "name": "TabularEditor_TranslatedDescriptions",
      "value": "{\"de-DE\":\"Erwartete Kosten Rückmeldung + Erwartete Gemeinkosten + Erwartete Kapazität Gemeinkosten + Kosten Verbrauch erwartet LYTD\",\"en-US\":\"Expected Output Cost + Expected Overhead Cost + Expected Capacity Overhead Cost + Expected Consumption Cost LYTD\",\"nl-NL\":\"Verwachte Output Kosten + Verwachte Overhead kosten + Verwachte Capaciteits Overhead Kosten + Verwachte verbruikskosten LYTD\"}"
    },
    {
      "name": "TabularEditor_TranslatedDisplayFolders",
      "value": "{\"de-DE\":\"Σ LYTD\",\"en-US\":\"Σ LYTD\",\"nl-NL\":\"Σ LYTD\"}"
    }
  ]
}