{
  "name": "ExpectedOutputQuantity_YTD_Index_EMFG",
  "description": "Expected output quantity of the production output. Production Order Line Quantity Base YTD Index",
  "expression": "DIVIDE ( [ExpectedOutputQuantity_YTD_EMFG], [ExpectedOutputQuantity_LYTD_EMFG] ) * 100",
  "formatString": "#,##0.0",
  "displayFolder": "Σ YTD Variance",
  "annotations": [
    {
      "name": "TabularEditor_TranslatedNames",
      "value": "{\"de-DE\":\"Erwartete Menge Rückmeldung YTD Index\",\"en-US\":\"Expected Output Quantity YTD Index\",\"nl-NL\":\"Verwachte output hoeveelheid YTD Index\"}"
    },
    {
      "name": "TabularEditor_TranslatedDescriptions",
      "value": "{\"de-DE\":\"Erwartete Produktionsmenge der Produktionsleistung. Produktionsauftragsposition Mengenbasis YTD Index\",\"en-US\":\"Expected output quantity of the production output. Production Order Line Quantity Base YTD Index\",\"nl-NL\":\"Verwachte output hoeveelheid van de productieorder. Productieorderregel Hoeveelheid (basis) YTD Index\"}"
    },
    {
      "name": "TabularEditor_TranslatedDisplayFolders",
      "value": "{\"de-DE\":\"Σ YTD Varianz\",\"en-US\":\"Σ YTD Variance\",\"nl-NL\":\"Σ YTD Variance\"}"
    }
  ]
}