{
  "name": "ExpectedOverheadCost_RY_EMFG",
  "description": "Expected quantity of material or capacity which is used in the production order. When it is material Overhead Amount from Prod Order Component. When it is capacity then Expected Capacity Ovhd Cost  from Prod Order Routing Line  RY",
  "expression": [
    "VAR RY0 =",
    "    FILTER (",
    "        ALL ( 'Date' ),",
    "        'Date'[DateID] <= MAX ( 'Date'[DateID] )",
    "            && 'Date'[Date] > MAX ( 'Date'[TDatePY] )",
    "    )",
    "RETURN",
    "    CALCULATE ( [ExpectedOverheadCost_EMFG], RY0 )"
  ],
  "formatString": "#,##0.00",
  "displayFolder": "Σ RY",
  "annotations": [
    {
      "name": "TabularEditor_TranslatedNames",
      "value": "{\"de-DE\":\"Erwartete Gemeinkosten RY\",\"en-US\":\"Expected Overhead Cost RY\",\"nl-NL\":\"Verwachte overhead kosten RY\"}"
    },
    {
      "name": "TabularEditor_TranslatedDescriptions",
      "value": "{\"de-DE\":\"Erwartete Gemeinkosten, Materialmenge oder Kapazität, die im Fertigungsauftrag verwendet wird   MTD\",\"en-US\":\"Expected cost of overhead for  the production order. When it is material Overhead Amount from Prod Order Component. When it is capacity then Expected Capacity Ovhd Cost  from Prod Order Routing Line  RY\",\"nl-NL\":\"Verwachte overhead kosten. Wanneer materiaal, dan overhead kosten vanuit de Prod Order Component. Wanneer capaciteit dan Verwachte overhead kosten uit het productieorder bewerkingsplan RY\"}"
    },
    {
      "name": "TabularEditor_TranslatedDisplayFolders",
      "value": "{\"de-DE\":\"Σ RY\",\"en-US\":\"Σ RY\",\"nl-NL\":\"Σ RY\"}"
    }
  ]
}