{
  "name": "ExpectedConsumptionQuantity_YTD_Variance%_EMFG",
  "description": "Expected quantity of material or capacity which is used in the production order. When it is material then Expected Quantity from Prod Order Component where source type = item YTD Variance %",
  "expression": "DIVIDE ( [ExpectedConsumptionQuantity_YTD_EMFG] - [ExpectedConsumptionQuantity_LYTD_EMFG], [ExpectedConsumptionQuantity_LYTD_EMFG] )",
  "formatString": "#,##0.0 %",
  "displayFolder": "Σ YTD Variance",
  "annotations": [
    {
      "name": "TabularEditor_TranslatedNames",
      "value": "{\"de-DE\":\"verbrauchte Menge erwartet YTD Varianz %\",\"en-US\":\"Expected Consumption Quantity YTD Variance %\",\"nl-NL\":\"Verwachte verbruikshoeveelheid YTD Variance %\"}"
    },
    {
      "name": "TabularEditor_TranslatedDescriptions",
      "value": "{\"de-DE\":\"Erwartete Materialmenge oder Kapazität, die im Fertigungsauftrag verwendet wird YTD Variance %\",\"en-US\":\"Expected quantity of material or capacity which is used in the production order. When it is material then Expected Quantity from Prod Order Component where source type = item. For capacity, the quantity from the production order routing line is used YTD Variance %\",\"nl-NL\":\"Verwachte hoeveelheid van materiaal of capaciteit van de productieorder. Wanneer het materiaal betreft, neem dan verwachte hoeveelheid vanuit de Productie Order Component waar bronsoort = artikel. Wanneer het capaciteit betreft de hoeveelheid vanuit de productieorder bewerkingsplan YTD Variance %\"}"
    },
    {
      "name": "TabularEditor_TranslatedDisplayFolders",
      "value": "{\"de-DE\":\"Σ YTD Varianz\",\"en-US\":\"Σ YTD Variance\",\"nl-NL\":\"Σ YTD Variance\"}"
    }
  ]
}