{
  "name": "ExpectedOverheadCost_EMFG",
  "description": "Expected quantity of material or capacity which is used in the production order. When it is material Overhead Amount from Prod Order Component. When it is capacity then Expected Capacity Ovhd Cost  from Prod Order Routing Line ",
  "expression": "SUM ( 'factManufacturingExpected'[ExpectedOverheadCost] )",
  "formatString": "#,##0.00",
  "annotations": [
    {
      "name": "TabularEditor_TranslatedNames",
      "value": "{\"de-DE\":\"Erwartete Gemeinkosten\",\"en-US\":\"Expected Overhead Cost\",\"nl-NL\":\"Verwachte overhead kosten\"}"
    },
    {
      "name": "TabularEditor_TranslatedDescriptions",
      "value": "{\"de-DE\":\"Erwartete Gemeinkosten, Materialmenge oder Kapazität, die im Fertigungsauftrag verwendet wird \",\"en-US\":\"Expected cost of overhead for  the production order. When it is material Overhead Amount from Prod Order Component. When it is capacity then Expected Capacity Ovhd Cost  from Prod Order Routing Line \",\"nl-NL\":\"Verwachte overhead kosten. Wanneer materiaal, dan overhead kosten vanuit de Prod Order Component. Wanneer capaciteit dan Verwachte overhead kosten uit het productieorder bewerkingsplan\"}"
    }
  ]
}