{
  "name": "ExpectedTotalQuantity_SPLY_Variance_EMFG",
  "description": "Expected Consumption Quantity + Expected Capacity Need + Expected Output Quantity SPLY Variance",
  "expression": "[ExpectedTotalQuantity_EMFG] - [ExpectedTotalQuantity_SPLY_EMFG]",
  "formatString": "#,##0.00",
  "displayFolder": "Σ SPLY Variance",
  "annotations": [
    {
      "name": "TabularEditor_TranslatedNames",
      "value": "{\"de-DE\":\"Erwartete Menge SPLY Varianz\",\"en-US\":\"Expected Total Quantity SPLY Variance\",\"nl-NL\":\"Verwachte hoeveelheid SPLY Variance\"}"
    },
    {
      "name": "TabularEditor_TranslatedDescriptions",
      "value": "{\"de-DE\":\"verbrauchte Menge erwartet + Erwarteter Kapazitätsbedarf + Erwartete Menge Rückmeldung SPLY Variance\",\"en-US\":\"Expected Consumption Quantity + Expected Capacity Need + Expected Output Quantity SPLY Variance\",\"nl-NL\":\"Verwachte verbruikshoeveelheid + Verwachte benodigde capaciteit + Verwachte output hoeveelheid SPLY Variance\"}"
    },
    {
      "name": "TabularEditor_TranslatedDisplayFolders",
      "value": "{\"de-DE\":\"Σ SPLY Varianz\",\"en-US\":\"Σ SPLY Variance\",\"nl-NL\":\"Σ SPLY Variance\"}"
    }
  ]
}