{
  "name": "ExpectedTotalQuantity_RY_EMFG",
  "description": "Expected Consumption Quantity + Expected Capacity Need + Expected Output Quantity RY",
  "expression": [
    "VAR RY0 =",
    "    FILTER (",
    "        ALL ( 'Date' ),",
    "        'Date'[DateID] <= MAX ( 'Date'[DateID] )",
    "            && 'Date'[Date] > MAX ( 'Date'[TDatePY] )",
    "    )",
    "RETURN",
    "    CALCULATE ( [ExpectedTotalQuantity_EMFG], RY0 )"
  ],
  "formatString": "#,##0.00",
  "displayFolder": "Σ RY",
  "annotations": [
    {
      "name": "TabularEditor_TranslatedNames",
      "value": "{\"de-DE\":\"Erwartete Menge RY\",\"en-US\":\"Expected Total Quantity RY\",\"nl-NL\":\"Verwachte hoeveelheid RY\"}"
    },
    {
      "name": "TabularEditor_TranslatedDescriptions",
      "value": "{\"de-DE\":\"verbrauchte Menge erwartet + Erwarteter Kapazitätsbedarf + Erwartete Menge Rückmeldung RY\",\"en-US\":\"Expected Consumption Quantity + Expected Capacity Need + Expected Output Quantity RY\",\"nl-NL\":\"Verwachte verbruikshoeveelheid + Verwachte benodigde capaciteit + Verwachte output hoeveelheid RY\"}"
    },
    {
      "name": "TabularEditor_TranslatedDisplayFolders",
      "value": "{\"de-DE\":\"Σ RY\",\"en-US\":\"Σ RY\",\"nl-NL\":\"Σ RY\"}"
    }
  ]
}