{
  "name": "ExpectedOverheadCost_SPLY_Variance%_EMFG",
  "description": "Expected quantity of material or capacity which is used in the production order. When it is material Overhead Amount from Prod Order Component. When it is capacity then Expected Capacity Ovhd Cost  from Prod Order Routing Line  SPLY Variance %",
  "expression": "DIVIDE ( [ExpectedOverheadCost_EMFG] - [ExpectedOverheadCost_SPLY_EMFG], [ExpectedOverheadCost_SPLY_EMFG] )",
  "formatString": "#,##0.0 %",
  "displayFolder": "Σ SPLY Variance",
  "annotations": [
    {
      "name": "TabularEditor_TranslatedNames",
      "value": "{\"de-DE\":\"Erwartete Gemeinkosten SPLY Varianz %\",\"en-US\":\"Expected Overhead Cost SPLY Variance %\",\"nl-NL\":\"Verwachte overhead kosten SPLY Variance %\"}"
    },
    {
      "name": "TabularEditor_TranslatedDescriptions",
      "value": "{\"de-DE\":\"Erwartete Gemeinkosten, Materialmenge oder Kapazität, die im Fertigungsauftrag verwendet wird  SPLY Index\",\"en-US\":\"Expected cost of overhead for  the production order. When it is material Overhead Amount from Prod Order Component. When it is capacity then Expected Capacity Ovhd Cost  from Prod Order Routing Line  SPLY Variance %\",\"nl-NL\":\"Verwachte overhead kosten. Wanneer materiaal, dan overhead kosten vanuit de Prod Order Component. Wanneer capaciteit dan Verwachte overhead kosten uit het productieorder bewerkingsplan SPLY Variance %\"}"
    },
    {
      "name": "TabularEditor_TranslatedDisplayFolders",
      "value": "{\"de-DE\":\"Σ SPLY Varianz\",\"en-US\":\"Σ SPLY Variance\",\"nl-NL\":\"Σ SPLY Variance\"}"
    }
  ]
}