{
  "base_name": "Customer",
  "category": "dim",
  "database_object": {
    "table_identifier": "dim.Customer",
    "columns": [
      {
        "column_name": "CustomerID",
        "data_type": "int",
        "character_maximum_length": null,
        "numeric_precision": 10,
        "numeric_scale": 0,
        "nullable": false,
        "business_key": false
      },
      {
        "column_name": "ExecutionTimestamp",
        "data_type": "timestamp",
        "character_maximum_length": null,
        "numeric_precision": null,
        "numeric_scale": null,
        "nullable": false,
        "business_key": false
      },
      {
        "column_name": "ComponentExecutionID",
        "data_type": "int",
        "character_maximum_length": null,
        "numeric_precision": 10,
        "numeric_scale": 0,
        "nullable": false,
        "business_key": false
      },
      {
        "column_name": "CustomerCode",
        "data_type": "nvarchar",
        "character_maximum_length": 255,
        "numeric_precision": null,
        "numeric_scale": null,
        "nullable": false,
        "business_key": false
      },
      {
        "column_name": "CompanyID",
        "data_type": "int",
        "character_maximum_length": null,
        "numeric_precision": 10,
        "numeric_scale": 0,
        "nullable": false,
        "business_key": false
      },
      {
        "column_name": "DataConnectionID",
        "data_type": "int",
        "character_maximum_length": null,
        "numeric_precision": 10,
        "numeric_scale": 0,
        "nullable": false,
        "business_key": false
      },
      {
        "column_name": "StageID",
        "data_type": "int",
        "character_maximum_length": null,
        "numeric_precision": 10,
        "numeric_scale": 0,
        "nullable": false,
        "business_key": false
      },
      {
        "column_name": "CustomerName",
        "data_type": "nvarchar",
        "character_maximum_length": 255,
        "numeric_precision": null,
        "numeric_scale": null,
        "nullable": false,
        "business_key": false
      },
      {
        "column_name": "CustomerCodeName",
        "data_type": "nvarchar",
        "character_maximum_length": 255,
        "numeric_precision": null,
        "numeric_scale": null,
        "nullable": false,
        "business_key": false
      },
      {
        "column_name": "CustomerCountryCode",
        "data_type": "nvarchar",
        "character_maximum_length": 255,
        "numeric_precision": null,
        "numeric_scale": null,
        "nullable": false,
        "business_key": false
      },
      {
        "column_name": "CustomerCountryDescription",
        "data_type": "nvarchar",
        "character_maximum_length": 255,
        "numeric_precision": null,
        "numeric_scale": null,
        "nullable": false,
        "business_key": false
      },
      {
        "column_name": "CustomerCountryCodeDescription",
        "data_type": "nvarchar",
        "character_maximum_length": 255,
        "numeric_precision": null,
        "numeric_scale": null,
        "nullable": false,
        "business_key": false
      },
      {
        "column_name": "CustomerTerritoryCode",
        "data_type": "nvarchar",
        "character_maximum_length": 255,
        "numeric_precision": null,
        "numeric_scale": null,
        "nullable": false,
        "business_key": false
      },
      {
        "column_name": "CustomerTerritoryDescription",
        "data_type": "nvarchar",
        "character_maximum_length": 255,
        "numeric_precision": null,
        "numeric_scale": null,
        "nullable": false,
        "business_key": false
      },
      {
        "column_name": "CustomerTerritoryCodeDescription",
        "data_type": "nvarchar",
        "character_maximum_length": 255,
        "numeric_precision": null,
        "numeric_scale": null,
        "nullable": false,
        "business_key": false
      },
      {
        "column_name": "CustomerCity",
        "data_type": "nvarchar",
        "character_maximum_length": 255,
        "numeric_precision": null,
        "numeric_scale": null,
        "nullable": false,
        "business_key": false
      },
      {
        "column_name": "CustomerPostCode",
        "data_type": "nvarchar",
        "character_maximum_length": 255,
        "numeric_precision": null,
        "numeric_scale": null,
        "nullable": false,
        "business_key": false
      },
      {
        "column_name": "CustomerPriceGroupCode",
        "data_type": "nvarchar",
        "character_maximum_length": 255,
        "numeric_precision": null,
        "numeric_scale": null,
        "nullable": false,
        "business_key": false
      },
      {
        "column_name": "CustomerPriceGroupDescription",
        "data_type": "nvarchar",
        "character_maximum_length": 255,
        "numeric_precision": null,
        "numeric_scale": null,
        "nullable": false,
        "business_key": false
      },
      {
        "column_name": "CustomerPriceGroupCodeDescription",
        "data_type": "nvarchar",
        "character_maximum_length": 255,
        "numeric_precision": null,
        "numeric_scale": null,
        "nullable": false,
        "business_key": false
      },
      {
        "column_name": "CustomerDiscountGroupCode",
        "data_type": "nvarchar",
        "character_maximum_length": 255,
        "numeric_precision": null,
        "numeric_scale": null,
        "nullable": false,
        "business_key": false
      },
      {
        "column_name": "CustomerDiscountGroupDescription",
        "data_type": "nvarchar",
        "character_maximum_length": 255,
        "numeric_precision": null,
        "numeric_scale": null,
        "nullable": false,
        "business_key": false
      },
      {
        "column_name": "CustomerDiscountGroupCodeDescription",
        "data_type": "nvarchar",
        "character_maximum_length": 255,
        "numeric_precision": null,
        "numeric_scale": null,
        "nullable": false,
        "business_key": false
      },
      {
        "column_name": "CustomerPostingGroupCode",
        "data_type": "nvarchar",
        "character_maximum_length": 255,
        "numeric_precision": null,
        "numeric_scale": null,
        "nullable": false,
        "business_key": false
      },
      {
        "column_name": "CustomerPostingGroupDescription",
        "data_type": "nvarchar",
        "character_maximum_length": 255,
        "numeric_precision": null,
        "numeric_scale": null,
        "nullable": false,
        "business_key": false
      },
      {
        "column_name": "CustomerPostingGroupCodeDescription",
        "data_type": "nvarchar",
        "character_maximum_length": 255,
        "numeric_precision": null,
        "numeric_scale": null,
        "nullable": false,
        "business_key": false
      },
      {
        "column_name": "GeneralBusinessPostingGroupCode",
        "data_type": "nvarchar",
        "character_maximum_length": 255,
        "numeric_precision": null,
        "numeric_scale": null,
        "nullable": false,
        "business_key": false
      },
      {
        "column_name": "GeneralBusinessPostingGroupDescription",
        "data_type": "nvarchar",
        "character_maximum_length": 255,
        "numeric_precision": null,
        "numeric_scale": null,
        "nullable": false,
        "business_key": false
      },
      {
        "column_name": "GeneralBusinessPostingGroupCodeDescription",
        "data_type": "nvarchar",
        "character_maximum_length": 255,
        "numeric_precision": null,
        "numeric_scale": null,
        "nullable": false,
        "business_key": false
      },
      {
        "column_name": "SalesPersonPurchaserCode",
        "data_type": "nvarchar",
        "character_maximum_length": 255,
        "numeric_precision": null,
        "numeric_scale": null,
        "nullable": false,
        "business_key": false
      },
      {
        "column_name": "SalesPersonPurchaserName",
        "data_type": "nvarchar",
        "character_maximum_length": 255,
        "numeric_precision": null,
        "numeric_scale": null,
        "nullable": false,
        "business_key": false
      },
      {
        "column_name": "SalesPersonPurchaserCodeName",
        "data_type": "nvarchar",
        "character_maximum_length": 255,
        "numeric_precision": null,
        "numeric_scale": null,
        "nullable": false,
        "business_key": false
      },
      {
        "column_name": "PaymentTermsCode",
        "data_type": "nvarchar",
        "character_maximum_length": 255,
        "numeric_precision": null,
        "numeric_scale": null,
        "nullable": false,
        "business_key": false
      },
      {
        "column_name": "PaymentTermsDescription",
        "data_type": "nvarchar",
        "character_maximum_length": 255,
        "numeric_precision": null,
        "numeric_scale": null,
        "nullable": false,
        "business_key": false
      },
      {
        "column_name": "PaymentTermsCodeDescription",
        "data_type": "nvarchar",
        "character_maximum_length": 255,
        "numeric_precision": null,
        "numeric_scale": null,
        "nullable": false,
        "business_key": false
      },
      {
        "column_name": "LocationCode",
        "data_type": "nvarchar",
        "character_maximum_length": 255,
        "numeric_precision": null,
        "numeric_scale": null,
        "nullable": false,
        "business_key": false
      },
      {
        "column_name": "BudgetedAmount",
        "data_type": "decimal",
        "character_maximum_length": null,
        "numeric_precision": 19,
        "numeric_scale": 4,
        "nullable": false,
        "business_key": false
      },
      {
        "column_name": "Blocked",
        "data_type": "int",
        "character_maximum_length": null,
        "numeric_precision": 10,
        "numeric_scale": 0,
        "nullable": false,
        "business_key": false
      }
    ],
    "indexes": []
  },
  "load_procedures": [],
  "views": null,
  "queries": [
    {
      "name": "default",
      "select_file_path": "default.sql",
      "sequence": 200,
      "aliases": []
    }
  ],
  "query_columns": [
    {
      "column_sequence": 1,
      "column_name": "StageID",
      "data_type_full": "int",
      "type": "attribute"
    },
    {
      "column_sequence": 2,
      "column_name": "CompanyID",
      "data_type_full": "int",
      "type": "system_key"
    },
    {
      "column_sequence": 3,
      "column_name": "DataConnectionID",
      "data_type_full": "int",
      "type": "system_key"
    },
    {
      "column_sequence": 4,
      "column_name": "CustomerCode",
      "data_type_full": "nvarchar(255)",
      "type": "business_key"
    },
    {
      "column_sequence": 5,
      "column_name": "CustomerName",
      "data_type_full": "nvarchar(255)",
      "type": "attribute"
    },
    {
      "column_sequence": 6,
      "column_name": "CustomerCodeName",
      "data_type_full": "nvarchar(255)",
      "type": "attribute"
    },
    {
      "column_sequence": 7,
      "column_name": "CustomerCountryCode",
      "data_type_full": "nvarchar(255)",
      "type": "attribute"
    },
    {
      "column_sequence": 8,
      "column_name": "CustomerCountryDescription",
      "data_type_full": "nvarchar(255)",
      "type": "attribute"
    },
    {
      "column_sequence": 9,
      "column_name": "CustomerCountryCodeDescription",
      "data_type_full": "nvarchar(255)",
      "type": "attribute"
    },
    {
      "column_sequence": 10,
      "column_name": "CustomerTerritoryCode",
      "data_type_full": "nvarchar(255)",
      "type": "attribute"
    },
    {
      "column_sequence": 11,
      "column_name": "CustomerTerritoryDescription",
      "data_type_full": "nvarchar(255)",
      "type": "attribute"
    },
    {
      "column_sequence": 12,
      "column_name": "CustomerTerritoryCodeDescription",
      "data_type_full": "nvarchar(255)",
      "type": "attribute"
    },
    {
      "column_sequence": 13,
      "column_name": "CustomerCity",
      "data_type_full": "nvarchar(255)",
      "type": "attribute"
    },
    {
      "column_sequence": 14,
      "column_name": "CustomerPostCode",
      "data_type_full": "nvarchar(255)",
      "type": "attribute"
    },
    {
      "column_sequence": 15,
      "column_name": "CustomerPriceGroupCode",
      "data_type_full": "nvarchar(255)",
      "type": "attribute"
    },
    {
      "column_sequence": 16,
      "column_name": "CustomerPriceGroupDescription",
      "data_type_full": "nvarchar(255)",
      "type": "attribute"
    },
    {
      "column_sequence": 17,
      "column_name": "CustomerPriceGroupCodeDescription",
      "data_type_full": "nvarchar(255)",
      "type": "attribute"
    },
    {
      "column_sequence": 18,
      "column_name": "CustomerDiscountGroupCode",
      "data_type_full": "nvarchar(255)",
      "type": "attribute"
    },
    {
      "column_sequence": 19,
      "column_name": "CustomerDiscountGroupDescription",
      "data_type_full": "nvarchar(255)",
      "type": "attribute"
    },
    {
      "column_sequence": 20,
      "column_name": "CustomerDiscountGroupCodeDescription",
      "data_type_full": "nvarchar(255)",
      "type": "attribute"
    },
    {
      "column_sequence": 21,
      "column_name": "CustomerPostingGroupCode",
      "data_type_full": "nvarchar(255)",
      "type": "attribute"
    },
    {
      "column_sequence": 22,
      "column_name": "CustomerPostingGroupDescription",
      "data_type_full": "nvarchar(255)",
      "type": "attribute"
    },
    {
      "column_sequence": 23,
      "column_name": "CustomerPostingGroupCodeDescription",
      "data_type_full": "nvarchar(255)",
      "type": "attribute"
    },
    {
      "column_sequence": 24,
      "column_name": "GeneralBusinessPostingGroupCode",
      "data_type_full": "nvarchar(255)",
      "type": "attribute"
    },
    {
      "column_sequence": 25,
      "column_name": "GeneralBusinessPostingGroupDescription",
      "data_type_full": "nvarchar(255)",
      "type": "attribute"
    },
    {
      "column_sequence": 26,
      "column_name": "GeneralBusinessPostingGroupCodeDescription",
      "data_type_full": "nvarchar(255)",
      "type": "attribute"
    },
    {
      "column_sequence": 27,
      "column_name": "SalesPersonPurchaserCode",
      "data_type_full": "nvarchar(255)",
      "type": "attribute"
    },
    {
      "column_sequence": 28,
      "column_name": "SalesPersonPurchaserName",
      "data_type_full": "nvarchar(255)",
      "type": "attribute"
    },
    {
      "column_sequence": 29,
      "column_name": "SalesPersonPurchaserCodeName",
      "data_type_full": "nvarchar(255)",
      "type": "attribute"
    },
    {
      "column_sequence": 30,
      "column_name": "PaymentTermsCode",
      "data_type_full": "nvarchar(255)",
      "type": "attribute"
    },
    {
      "column_sequence": 31,
      "column_name": "PaymentTermsDescription",
      "data_type_full": "nvarchar(255)",
      "type": "attribute"
    },
    {
      "column_sequence": 32,
      "column_name": "PaymentTermsCodeDescription",
      "data_type_full": "nvarchar(255)",
      "type": "attribute"
    },
    {
      "column_sequence": 33,
      "column_name": "LocationCode",
      "data_type_full": "nvarchar(255)",
      "type": "attribute"
    },
    {
      "column_sequence": 34,
      "column_name": "BudgetedAmount",
      "data_type_full": "decimal(19, 4)",
      "type": "attribute"
    },
    {
      "column_sequence": 35,
      "column_name": "Blocked",
      "data_type_full": "int",
      "type": "attribute"
    }
  ],
  "dimensions": [],
  "load_type": 1,
  "manual_mode": false,
  "is_customized": true
}