{
  "name": "ClosedInvoices_AP",
  "description": "Departments/Purchase/Basic Data/Vendors > Ledger Entries > Navigate > Detailed Vendor Ledger Entries > Quantity of invoiced closed",
  "expression": [
    "CALCULATE (",
    "    DISTINCTCOUNT ( 'factAccountsPayable'[VendorInvoiceID] ),",
    "    USERELATIONSHIP ( 'factAccountsPayable'[PaidDateID], 'Date'[DateID] ),",
    "    'factAccountsPayable'[VendorInvoiceID] <> 0",
    ")"
  ],
  "formatString": "#,##0",
  "displayFolder": "Σ # Invoices",
  "annotations": [
    {
      "name": "TabularEditor_TranslatedNames",
      "value": "{\"de-DE\":\"# Geschlossende Rechnungen\",\"en-US\":\"# Closed Invoices\",\"nl-NL\":\"# Afgesloten facturen\"}"
    },
    {
      "name": "TabularEditor_TranslatedDescriptions",
      "value": "{\"de-DE\":\"Abteilungen > Einkauf > Planung > Kreditoren > Navigate > Posten\",\"en-US\":\"Departments/Purchase/Basic Data/Vendors > Ledger Entries > Navigate > Detailed Vendor Ledger Entries > Quantity of invoiced closed\",\"nl-NL\":\"Afdelingen/Inkoop/Stamgegevens/Leveranciers > Posten > Navigeren > Gedetail. Leverancierspost > Aantal afgesloten facturen\"}"
    },
    {
      "name": "TabularEditor_TranslatedDisplayFolders",
      "value": "{\"de-DE\":\"Σ # Sachkonto\",\"en-US\":\"Σ # Invoices\",\"nl-NL\":\"Σ # Facturen\"}"
    }
  ]
}