{
  "name": "Days_AP",
  "description": "Departments/Purchase/Basic Data/Vendors > Ledger Entries > Navigate > Detailed Vendor Ledger Entries > Amount of days",
  "expression": "COUNT ( 'Date'[DateID] )",
  "formatString": "#,##0",
  "displayFolder": "Σ Days",
  "annotations": [
    {
      "name": "TabularEditor_TranslatedNames",
      "value": "{\"de-DE\":\"# Tage\",\"en-US\":\"Days\",\"nl-NL\":\"Dagen\"}"
    },
    {
      "name": "TabularEditor_TranslatedDescriptions",
      "value": "{\"de-DE\":\"Abteilungen > Einkauf > Planung > Kreditoren > Navigate > Posten\",\"en-US\":\"Departments/Purchase/Basic Data/Vendors > Ledger Entries > Navigate > Detailed Vendor Ledger Entries > Amount of days\",\"nl-NL\":\"Afdelingen/Inkoop/Stamgegevens/Leveranciers > Posten > Navigeren > Gedetail. Leverancierspost > Aantal dagen\"}"
    },
    {
      "name": "TabularEditor_TranslatedDisplayFolders",
      "value": "{\"de-DE\":\"Σ Tage\",\"en-US\":\"Σ Days\",\"nl-NL\":\"Σ Dagen\"}"
    }
  ]
}