{
  "name": "PostedInvoices_AP",
  "description": "Departments/Purchase/Basic Data/Vendors > Ledger Entries > Navigate > Detailed Vendor Ledger Entries > Quantity of invoices",
  "expression": [
    "VAR MinDate =",
    "    MIN ( 'Date'[Date] )",
    "VAR MaxDate =",
    "    MAX ( 'Date'[Date] )",
    "VAR PostedInvoices =",
    "    FILTER (",
    "        'VendorInvoice',",
    "        'VendorInvoice'[VendorInvoicePostingDate] >= MinDate",
    "            && 'VendorInvoice'[VendorInvoicePostingDate] <= MaxDate",
    "            && 'VendorInvoice'[VendorInvoiceID] <> 0",
    "    )",
    "VAR Balance =",
    "    FILTER ( ALL ( 'Date' ), 'Date'[Date] <= MaxDate )",
    "RETURN",
    "    CALCULATE (",
    "        DISTINCTCOUNT ( 'factAccountsPayable'[VendorInvoiceID] ),",
    "        PostedInvoices,",
    "        Balance",
    "    )"
  ],
  "formatString": "#,##0",
  "displayFolder": "Σ # Invoices",
  "annotations": [
    {
      "name": "TabularEditor_TranslatedNames",
      "value": "{\"de-DE\":\"# Gebuchten Rechnungen\",\"en-US\":\"# Posted Invoices\",\"nl-NL\":\"# Geboekte facturen\"}"
    },
    {
      "name": "TabularEditor_TranslatedDescriptions",
      "value": "{\"de-DE\":\"Abteilungen > Einkauf > Planung > Kreditoren > Navigate > Posten\",\"en-US\":\"Departments/Purchase/Basic Data/Vendors > Ledger Entries > Navigate > Detailed Vendor Ledger Entries > Quantity of invoices\",\"nl-NL\":\"Afdelingen/Inkoop/Stamgegevens/Leveranciers > Posten > Navigeren > Gedetail. Leverancierspost > Aantal facturen\"}"
    }
  ]
}