{
  "name": "IsInvoiceMinCode",
  "description": "Field to define min invoice code",
  "expression": "MIN ( 'IsCredit'[YesNoCode] )",
  "isHidden": true,
  "annotations": [
    {
      "name": "TabularEditor_TranslatedNames",
      "value": "{\"de-DE\":\"IsRechnungMinCode\",\"en-US\":\"Is Invoice Min Code\",\"nl-NL\":\"Is factuur code min\"}"
    },
    {
      "name": "TabularEditor_TranslatedDescriptions",
      "value": "{\"de-DE\":\"IsRechnungMinCode\",\"en-US\":\"Field to define min invoice code\",\"nl-NL\":\"De laagste factuur code\"}"
    }
  ]
}